<?xml version="1.0" encoding="UTF-8" standalone="no"?>
<svg
   xmlns:dc="http://purl.org/dc/elements/1.1/"
   xmlns:cc="http://creativecommons.org/ns#"
   xmlns:rdf="http://www.w3.org/1999/02/22-rdf-syntax-ns#"
   xmlns:svg="http://www.w3.org/2000/svg"
   xmlns="http://www.w3.org/2000/svg"
   xmlns:xlink="http://www.w3.org/1999/xlink"
   version="1.0"
   width="500"
   height="500"
   id="svg2">
  <metadata
     id="metadata46">
    <rdf:RDF>
      <cc:Work
         rdf:about="">
        <dc:format>image/svg+xml</dc:format>
        <dc:type
           rdf:resource="http://purl.org/dc/dcmitype/StillImage" />
      </cc:Work>
    </rdf:RDF>
  </metadata>
  <defs
     id="defs1">
    <pattern
       xlink:href="#pattern1349"
       id="pattern3034"
       patternTransform="translate(-5.3125,-5.3125)" />
    <pattern
       patternTransform="matrix(0,-1,1,0,34.6875,465.3125)"
       id="pattern1349"
       xlink:href="#pattern2270" />
    <linearGradient
       id="underGrad">
      <stop
         style="stop-color:#dddddd;stop-opacity:0.9"
         offset="0"
         id="stop2214" />
      <stop
         style="stop-color:#ffffff;stop-opacity:0.9"
         offset="1"
         id="stop2216" />
    </linearGradient>
    <linearGradient
       id="overGrad">
      <stop
         style="stop-color:#cccccc;stop-opacity:0.7"
         offset="0"
         id="stop2187" />
      <stop
         style="stop-color:#ffffff;stop-opacity:0.7"
         offset="1"
         id="stop2189" />
    </linearGradient>
    <linearGradient
       id="patternGrad">
      <stop
         style="stop-color:#bbbbbb;stop-opacity:0.8"
         offset="0"
         id="stop2252" />
      <stop
         style="stop-color:#eeeeee;stop-opacity:0.8"
         offset="1"
         id="stop2254" />
    </linearGradient>
    <linearGradient
       x1="250"
       y1="400"
       x2="250"
       y2="20"
       id="linearGradient2256"
       xlink:href="#patternGrad"
       gradientUnits="userSpaceOnUse" />
    <pattern
       id="pattern2270"
       patternTransform="translate(-5.3125,-5.3125)"
       height="510.625"
       width="510.625"
       patternUnits="userSpaceOnUse">
      <g
         transform="translate(5.3125,5.3125)"
         id="g2249">
        <path
           id="path1320"
           d="M 44.6875,-5.3125 L -5.3125,44.6875 L 5.3125,55.3125 L 55.3125,5.3125 L 44.6875,-5.3125 z "
           style="opacity:0.5;fill:url(#linearGradient2256);fill-opacity:1;fill-rule:nonzero;stroke:none;stroke-width:15;stroke-linecap:butt;stroke-linejoin:miter;stroke-miterlimit:1;stroke-dasharray:none;stroke-dashoffset:0;stroke-opacity:1" />
        <path
           id="path2195"
           d="M 94.6875,-5.3125 L -5.3125,94.6875 L 5.3125,105.3125 L 105.3125,5.3125 L 94.6875,-5.3125 z "
           style="opacity:0.5;fill:url(#linearGradient2256);fill-opacity:1;fill-rule:nonzero;stroke:none;stroke-width:15;stroke-linecap:butt;stroke-linejoin:miter;stroke-miterlimit:1;stroke-dasharray:none;stroke-dashoffset:0;stroke-opacity:1" />
        <path
           id="path2197"
           d="M 144.6875,-5.3125 L -5.3125,144.6875 L 5.3125,155.3125 L 155.3125,5.3125 L 144.6875,-5.3125 z "
           style="opacity:0.5;fill:url(#linearGradient2256);fill-opacity:1;fill-rule:nonzero;stroke:none;stroke-width:15;stroke-linecap:butt;stroke-linejoin:miter;stroke-miterlimit:1;stroke-dasharray:none;stroke-dashoffset:0;stroke-opacity:1" />
        <path
           id="path2199"
           d="M 194.6875,-5.3125 L -5.3125,194.6875 L 5.3125,205.3125 L 205.3125,5.3125 L 194.6875,-5.3125 z "
           style="opacity:0.5;fill:url(#linearGradient2256);fill-opacity:1;fill-rule:nonzero;stroke:none;stroke-width:15;stroke-linecap:butt;stroke-linejoin:miter;stroke-miterlimit:1;stroke-dasharray:none;stroke-dashoffset:0;stroke-opacity:1" />
        <path
           id="path2201"
           d="M 244.6875,-5.3125 L -5.3125,244.6875 L 5.3125,255.3125 L 255.3125,5.3125 L 244.6875,-5.3125 z "
           style="opacity:0.5;fill:url(#linearGradient2256);fill-opacity:1;fill-rule:nonzero;stroke:none;stroke-width:15;stroke-linecap:butt;stroke-linejoin:miter;stroke-miterlimit:1;stroke-dasharray:none;stroke-dashoffset:0;stroke-opacity:1" />
        <path
           id="path2203"
           d="M 294.6875,-5.3125 L -5.3125,294.6875 L 5.3125,305.3125 L 305.3125,5.3125 L 294.6875,-5.3125 z "
           style="opacity:0.5;fill:url(#linearGradient2256);fill-opacity:1;fill-rule:nonzero;stroke:none;stroke-width:15;stroke-linecap:butt;stroke-linejoin:miter;stroke-miterlimit:1;stroke-dasharray:none;stroke-dashoffset:0;stroke-opacity:1" />
        <path
           id="path2205"
           d="M 344.6875,-5.3125 L -5.3125,344.6875 L 5.3125,355.3125 L 355.3125,5.3125 L 344.6875,-5.3125 z "
           style="opacity:0.5;fill:url(#linearGradient2256);fill-opacity:1;fill-rule:nonzero;stroke:none;stroke-width:15;stroke-linecap:butt;stroke-linejoin:miter;stroke-miterlimit:1;stroke-dasharray:none;stroke-dashoffset:0;stroke-opacity:1" />
        <path
           id="path2207"
           d="M 394.6875,-5.3125 L -5.3125,394.6875 L 5.3125,405.3125 L 405.3125,5.3125 L 394.6875,-5.3125 z "
           style="opacity:0.5;fill:url(#linearGradient2256);fill-opacity:1;fill-rule:nonzero;stroke:none;stroke-width:15;stroke-linecap:butt;stroke-linejoin:miter;stroke-miterlimit:1;stroke-dasharray:none;stroke-dashoffset:0;stroke-opacity:1" />
        <path
           id="path2209"
           d="M 444.6875,-5.3125 L -5.3125,444.6875 L 5.3125,455.3125 L 455.3125,5.3125 L 444.6875,-5.3125 z "
           style="opacity:0.5;fill:url(#linearGradient2256);fill-opacity:1;fill-rule:nonzero;stroke:none;stroke-width:15;stroke-linecap:butt;stroke-linejoin:miter;stroke-miterlimit:1;stroke-dasharray:none;stroke-dashoffset:0;stroke-opacity:1" />
        <path
           id="path2211"
           d="M 494.6875,-5.3125 L -5.3125,494.6875 L 5.3125,505.3125 L 505.3125,5.3125 L 494.6875,-5.3125 z "
           style="opacity:0.5;fill:url(#linearGradient2256);fill-opacity:1;fill-rule:nonzero;stroke:none;stroke-width:15;stroke-linecap:butt;stroke-linejoin:miter;stroke-miterlimit:1;stroke-dasharray:none;stroke-dashoffset:0;stroke-opacity:1" />
        <path
           id="path2213"
           d="M 494.6875,44.6875 L 44.6875,494.6875 L 55.3125,505.3125 L 505.3125,55.3125 L 494.6875,44.6875 z "
           style="opacity:0.5;fill:url(#linearGradient2256);fill-opacity:1;fill-rule:nonzero;stroke:none;stroke-width:15;stroke-linecap:butt;stroke-linejoin:miter;stroke-miterlimit:1;stroke-dasharray:none;stroke-dashoffset:0;stroke-opacity:1" />
        <path
           id="path2215"
           d="M 494.6875,94.6875 L 94.6875,494.6875 L 105.3125,505.3125 L 505.3125,105.3125 L 494.6875,94.6875 z "
           style="opacity:0.5;fill:url(#linearGradient2256);fill-opacity:1;fill-rule:nonzero;stroke:none;stroke-width:15;stroke-linecap:butt;stroke-linejoin:miter;stroke-miterlimit:1;stroke-dasharray:none;stroke-dashoffset:0;stroke-opacity:1" />
        <path
           id="path2217"
           d="M 494.6875,144.6875 L 144.6875,494.6875 L 155.3125,505.3125 L 505.3125,155.3125 L 494.6875,144.6875 z "
           style="opacity:0.5;fill:url(#linearGradient2256);fill-opacity:1;fill-rule:nonzero;stroke:none;stroke-width:15;stroke-linecap:butt;stroke-linejoin:miter;stroke-miterlimit:1;stroke-dasharray:none;stroke-dashoffset:0;stroke-opacity:1" />
        <path
           id="path2219"
           d="M 494.6875,194.6875 L 194.6875,494.6875 L 205.3125,505.3125 L 505.3125,205.3125 L 494.6875,194.6875 z "
           style="opacity:0.5;fill:url(#linearGradient2256);fill-opacity:1;fill-rule:nonzero;stroke:none;stroke-width:15;stroke-linecap:butt;stroke-linejoin:miter;stroke-miterlimit:1;stroke-dasharray:none;stroke-dashoffset:0;stroke-opacity:1" />
        <path
           id="path2221"
           d="M 494.6875,244.6875 L 244.6875,494.6875 L 255.3125,505.3125 L 505.3125,255.3125 L 494.6875,244.6875 z "
           style="opacity:0.5;fill:url(#linearGradient2256);fill-opacity:1;fill-rule:nonzero;stroke:none;stroke-width:15;stroke-linecap:butt;stroke-linejoin:miter;stroke-miterlimit:1;stroke-dasharray:none;stroke-dashoffset:0;stroke-opacity:1" />
        <path
           id="path2223"
           d="M 494.6875,294.6875 L 294.6875,494.6875 L 305.3125,505.3125 L 505.3125,305.3125 L 494.6875,294.6875 z "
           style="opacity:0.5;fill:url(#linearGradient2256);fill-opacity:1;fill-rule:nonzero;stroke:none;stroke-width:15;stroke-linecap:butt;stroke-linejoin:miter;stroke-miterlimit:1;stroke-dasharray:none;stroke-dashoffset:0;stroke-opacity:1" />
        <path
           id="path2225"
           d="M 494.6875,344.6875 L 344.6875,494.6875 L 355.3125,505.3125 L 505.3125,355.3125 L 494.6875,344.6875 z "
           style="opacity:0.5;fill:url(#linearGradient2256);fill-opacity:1;fill-rule:nonzero;stroke:none;stroke-width:15;stroke-linecap:butt;stroke-linejoin:miter;stroke-miterlimit:1;stroke-dasharray:none;stroke-dashoffset:0;stroke-opacity:1" />
        <path
           id="path2227"
           d="M 494.6875,394.6875 L 394.6875,494.6875 L 405.3125,505.3125 L 505.3125,405.3125 L 494.6875,394.6875 z "
           style="opacity:0.5;fill:url(#linearGradient2256);fill-opacity:1;fill-rule:nonzero;stroke:none;stroke-width:15;stroke-linecap:butt;stroke-linejoin:miter;stroke-miterlimit:1;stroke-dasharray:none;stroke-dashoffset:0;stroke-opacity:1" />
        <path
           id="path2229"
           d="M 494.6875,444.6875 L 444.6875,494.6875 L 455.3125,505.3125 L 505.3125,455.3125 L 494.6875,444.6875 z "
           style="opacity:0.5;fill:url(#linearGradient2256);fill-opacity:1;fill-rule:nonzero;stroke:none;stroke-width:15;stroke-linecap:butt;stroke-linejoin:miter;stroke-miterlimit:1;stroke-dasharray:none;stroke-dashoffset:0;stroke-opacity:1" />
      </g>
    </pattern>
    <linearGradient
       x1="250"
       y1="400"
       x2="250"
       y2="20"
       id="linearGradient2288"
       xlink:href="#overGrad"
       gradientUnits="userSpaceOnUse"
       gradientTransform="matrix(0,-1,1,0,40,460)" />
    <linearGradient
       x1="250"
       y1="400"
       x2="250"
       y2="20"
       id="linearGradient2290"
       xlink:href="#underGrad"
       gradientUnits="userSpaceOnUse"
       gradientTransform="matrix(0,-1,1,0,40,460)" />
    <linearGradient
       xlink:href="#overGrad"
       id="linearGradient3029"
       gradientUnits="userSpaceOnUse"
       gradientTransform="matrix(0,-1,1,0,40,460)"
       x1="250"
       y1="400"
       x2="250"
       y2="20" />
    <linearGradient
       xlink:href="#underGrad"
       id="linearGradient3031"
       gradientUnits="userSpaceOnUse"
       gradientTransform="matrix(0,-1,1,0,40,460)"
       x1="250"
       y1="400"
       x2="250"
       y2="20" />
    <linearGradient
       xlink:href="#underGrad"
       id="linearGradient3038"
       gradientUnits="userSpaceOnUse"
       x1="250"
       y1="400"
       x2="250"
       y2="20" />
    <linearGradient
       xlink:href="#overGrad"
       id="linearGradient3041"
       gradientUnits="userSpaceOnUse"
       x1="250"
       y1="400"
       x2="250"
       y2="20" />
    <filter
       id="filter3795"
       x="-0.16105263"
       width="1.3221053"
       y="-0.204"
       height="1.408">
      <feGaussianBlur
         stdDeviation="25.5"
         id="feGaussianBlur3797" />
    </filter>
  </defs>
  <path
     id="path3023"
     style="fill:#000000;fill-opacity:0.13333333000000000;stroke:none;filter:url(#filter3795)"
     d="m 340,350 c -15.29031,0 -24.90323,-20 -30,-40 -5.09677,-20 -19.80646,-20 -30,-20 -3.49068,0 -4.8114,110 -10,110 -5.18859,0 -14.2454,0 -20,0 -5.7546,0 -14.81129,0 -20,0 -5.18871,0 -6.50909,-110 -10,-110 -10.19354,0 -24.90323,0 -30,20 -5.09677,20 -14.70969,40 -30,40 -15.29031,0 -100,-90 -100,-100 0,-10 84.70969,-100 100,-100 15.29031,0 24.90323,20 30,40 5.09677,20 19.80646,20 30,20 3.49091,0 4.81129,-110 10,-110 5.18871,0 14.2454,0 20,0 5.7546,0 14.81141,0 20,0 5.18859,0 6.50932,110 10,110 10.19354,0 24.90323,0 30,-20 5.09677,-20 14.70969,-40 30,-40 15.29031,0 100,90 100,100 0,10 -84.76942,100 -100,100 z" />
  <path
     d="m 403.9375,210.00078 c -0.22582,-0.27391 -0.26799,-0.37722 -0.5,-0.65625 -7.46458,-8.97721 -18.14128,-20.79644 -29.21875,-32.1875 -11.07747,-11.39106 -22.69085,-22.48365 -31.625,-30.09375 -0.0529,-0.0451 -0.0722,-0.0489 -0.125,-0.0937 -1.21541,3.11398 -2.45065,6.68766 -3.40625,10.4375 -4.25388,16.69244 -16.73676,31.57764 -29.90625,37.46875 -13.16949,5.89111 -24.05948,5.125 -29.15625,5.125 -9.90219,0 -17.6293,-5.17218 -21.25,-8.75 -3.6207,-3.57782 -4.88106,-6.15481 -5.84375,-8.0625 -1.92538,-3.81539 -2.23432,-5.54086 -2.625,-7.09375 -0.17631,-0.7008 -0.15587,-1.00453 -0.28125,-1.59375 -0.1254,0.58924 -0.10493,0.89292 -0.28125,1.59375 -0.39071,1.55296 -0.69945,3.27825 -2.625,7.09375 -0.96277,1.90775 -2.22293,4.48478 -5.84375,8.0625 -3.62082,3.57772 -11.34845,8.75 -21.25,8.75 -5.09677,0 -15.98676,0.76611 -29.15625,-5.125 -13.16949,-5.89111 -25.65237,-20.77631 -29.90625,-37.46875 -0.95819,-3.76 -2.18751,-7.34921 -3.40625,-10.46875 -0.008,0.007 -0.0241,0.0254 -0.0312,0.0312 -0.025,0.0198 -0.0686,0.0426 -0.0937,0.0625 -0.007,0.006 -0.0228,0.024 -0.0312,0.0312 -8.93299,7.607 -20.52115,18.70402 -31.59375,30.09375 -11.0726,11.38973 -21.75907,23.21106 -29.21875,32.1875 -0.23186,0.279 -0.27433,0.38236 -0.5,0.65625 0.22567,0.27389 0.26814,0.37725 0.5,0.65625 7.45968,8.97644 18.14615,20.79777 29.21875,32.1875 11.0726,11.38973 22.66076,22.48675 31.59375,30.09375 0.008,0.007 0.0241,0.0253 0.0312,0.0312 0.0251,0.0199 0.0687,0.0427 0.0937,0.0625 0.007,0.006 0.0228,0.0241 0.0312,0.0312 1.21874,-3.11954 2.44806,-6.70875 3.40625,-10.46875 4.25388,-16.69244 16.73676,-31.57764 29.90625,-37.46875 13.16949,-5.89111 24.05948,-5.125 29.15625,-5.125 9.90155,0 17.62918,5.17228 21.25,8.75 3.62082,3.57772 4.88098,6.15475 5.84375,8.0625 1.92555,3.8155 2.23429,5.54079 2.625,7.09375 0.17632,0.70083 0.15585,1.00451 0.28125,1.59375 0.12539,-0.58922 0.10494,-0.89295 0.28125,-1.59375 0.39068,-1.55289 0.69962,-3.27836 2.625,-7.09375 0.96269,-1.90769 2.22305,-4.48468 5.84375,-8.0625 3.6207,-3.57782 11.34781,-8.75 21.25,-8.75 5.09677,0 15.98676,-0.76611 29.15625,5.125 13.16949,5.89111 25.65237,20.77631 29.90625,37.46875 0.95819,3.76 2.18751,7.34921 3.40625,10.46875 0.008,-0.007 0.0241,-0.0254 0.0312,-0.0312 0.025,-0.0198 0.0687,-0.0426 0.0937,-0.0625 0.007,-0.006 0.0228,-0.024 0.0312,-0.0312 8.93299,-7.607 20.52115,-18.70402 31.59375,-30.09375 11.0726,-11.38973 21.75907,-23.21106 29.21875,-32.1875 0.23186,-0.279 0.27433,-0.38236 0.5,-0.65625 z m -70.84375,70.34375 c -1.43078,0.1939 -2.20746,0.44774 -2.53125,0.65625 -0.0443,0.0303 -0.0985,0.0653 -0.125,0.0937 -0.0118,0.014 -0.0235,0.0491 -0.0312,0.0625 -0.004,0.009 -0.0287,0.0227 -0.0312,0.0312 -8.4e-4,0.004 4.2e-4,0.0272 0,0.0312 -10e-6,0.004 -3.9e-4,0.0273 0,0.0312 0.001,0.004 0.0297,0.0276 0.0312,0.0312 0.002,0.003 -0.003,0.0279 0,0.0312 0.006,0.007 0.0238,0.0251 0.0312,0.0312 0.004,0.003 0.0269,-0.003 0.0312,0 0.005,0.003 0.0262,0.0286 0.0312,0.0312 0.005,0.002 0.0256,-0.002 0.0312,0 0.0119,0.004 0.0495,0.0273 0.0625,0.0312 0.0136,0.004 0.0479,-0.003 0.0625,0 0.0227,0.004 0.0689,0.0282 0.0937,0.0312 0.36634,0.037 0.9527,-0.0676 1.46875,-0.40625 0.17288,-0.11346 0.67671,-0.55169 0.875,-0.6875 z m -0.0312,-140.6875 c -0.19833,-0.13596 -0.70207,-0.57389 -0.875,-0.6875 -0.5282,-0.34702 -1.13319,-0.45039 -1.5,-0.40625 -0.0243,0.003 -0.0717,0.0265 -0.0937,0.0312 -0.0142,0.003 -0.0494,-0.004 -0.0625,0 -0.006,0.002 -0.0253,0.029 -0.0312,0.0312 -0.006,0.002 -0.0259,-0.002 -0.0312,0 -0.005,0.003 -0.0265,0.0285 -0.0312,0.0312 -0.004,0.003 -0.0272,-0.003 -0.0312,0 -0.008,0.006 -0.0251,0.0247 -0.0312,0.0312 -0.003,0.003 0.002,0.0278 0,0.0312 -0.004,0.007 -0.0288,0.0237 -0.0312,0.0312 -4.2e-4,0.004 10e-6,0.0272 0,0.0312 4e-4,0.004 -8.2e-4,0.0271 0,0.0312 0.002,0.004 0.0291,0.0268 0.0312,0.0312 0.003,0.004 -0.003,0.0267 0,0.0312 0.003,0.005 0.0273,0.0266 0.0312,0.0312 0.2115,0.22725 0.97458,0.52198 2.65625,0.75 z m -163.4375,-0.90625 c -0.002,-0.007 -0.0273,-0.0242 -0.0312,-0.0312 -0.003,-0.003 -0.0282,-0.028 -0.0312,-0.0312 -0.004,-0.003 -0.0272,-0.0283 -0.0312,-0.0312 -0.0141,-0.008 -0.0456,-0.024 -0.0625,-0.0312 -0.0297,-0.0114 -0.0885,-0.023 -0.125,-0.0312 -0.0227,-0.005 -0.0689,-0.028 -0.0937,-0.0312 -0.36601,-0.0404 -0.9527,0.0676 -1.46875,0.40625 -0.17288,0.11346 -0.67671,0.55169 -0.875,0.6875 1.53548,-0.20809 2.31407,-0.47312 2.59375,-0.6875 0.006,-0.005 0.0259,-0.0265 0.0312,-0.0312 0.005,-0.005 0.0269,-0.0266 0.0312,-0.0312 0.008,-0.009 0.0252,-0.0223 0.0312,-0.0312 0.003,-0.004 -0.002,-0.0269 0,-0.0312 0.002,-0.004 0.03,-0.027 0.0312,-0.0312 4.1e-4,-0.004 0,-0.0273 0,-0.0312 -4.1e-4,-0.004 8.1e-4,-0.0274 0,-0.0312 z m 0,142.4375 c -10e-4,-0.004 -0.0296,-0.027 -0.0312,-0.0312 -0.002,-0.004 0.003,-0.0268 0,-0.0312 -0.006,-0.009 -0.0234,-0.022 -0.0312,-0.0312 -0.004,-0.005 -0.0264,-0.0265 -0.0312,-0.0312 -0.005,-0.005 -0.0254,-0.0264 -0.0312,-0.0312 -0.27968,-0.21438 -1.05827,-0.47941 -2.59375,-0.6875 0.19829,0.13581 0.70212,0.57404 0.875,0.6875 0.51605,0.33867 1.10274,0.44661 1.46875,0.40625 0.0249,-0.003 0.0711,-0.0267 0.0937,-0.0312 0.0365,-0.008 0.0953,-0.0198 0.125,-0.0312 0.0169,-0.007 0.0484,-0.023 0.0625,-0.0312 0.004,-0.003 0.0275,-0.0282 0.0312,-0.0312 0.003,-0.003 0.0286,-0.0279 0.0312,-0.0312 0.004,-0.007 0.0289,-0.0238 0.0312,-0.0312 8.1e-4,-0.004 -4.1e-4,-0.0274 0,-0.0312 0,-0.004 4.1e-4,-0.0272 0,-0.0312 z"
     style="fill:url(#linearGradient3041);fill-opacity:1;fill-rule:nonzero;stroke:none"
     id="path2248" />
  <path
     d="M 440,209.75 C 438.69517,198.59819 355.11159,110 340,110 c -15.29031,0 -24.90323,20 -30,40 -5.09677,20 -19.80646,20 -30,20 -3.49068,0 -4.8114,-110 -10,-110 -5.18859,0 -14.2454,0 -20,0 -5.7546,0 -14.81129,0 -20,0 -5.18871,0 -6.50909,110 -10,110 -10.19354,0 -24.90323,0 -30,-20 -5.09677,-20 -14.70969,-40 -30,-40 -15.29031,0 -100,90 -100,100 0,10 84.70969,100 100,100 15.29031,0 24.90323,-20 30,-40 5.09677,-20 19.80646,-20 30,-20 3.49091,0 4.81129,110 10,110 5.18871,0 14.2454,0 20,0 5.7546,0 14.81141,0 20,0 5.18859,0 6.50932,-110 10,-110 10.19354,0 24.90323,0 30,20 5.09677,20 14.70969,40 30,40 15.29031,0 100,-90 100,-100 0,-0.0781 0.0103,-0.16219 0,-0.25 z M 403.9375,210 c -0.22567,0.27389 -0.26814,0.37725 -0.5,0.65625 -7.45968,8.97644 -18.14615,20.79777 -29.21875,32.1875 -11.0726,11.38973 -22.66076,22.48675 -31.59375,30.09375 -0.008,0.007 -0.0241,0.0253 -0.0312,0.0312 -0.0251,0.0199 -0.0687,0.0427 -0.0937,0.0625 -0.007,0.006 -0.0228,0.0241 -0.0312,0.0312 -1.21874,-3.11954 -2.44806,-6.70875 -3.40625,-10.46875 C 334.80877,245.90121 322.32589,231.01601 309.1564,225.1249 295.98676,219.23389 285.09677,220 280,220 c -9.90219,0 -17.6293,5.17218 -21.25,8.75 -3.6207,3.57782 -4.88106,6.15481 -5.84375,8.0625 -1.92538,3.81539 -2.23432,5.54086 -2.625,7.09375 -0.17631,0.7008 -0.15586,1.00453 -0.28125,1.59375 -0.1254,-0.58924 -0.10493,-0.89292 -0.28125,-1.59375 -0.39071,-1.55296 -0.69945,-3.27825 -2.625,-7.09375 -0.96277,-1.90775 -2.22293,-4.48478 -5.84375,-8.0625 C 237.62918,225.17228 229.90155,220 220,220 c -5.09677,0 -15.98676,-0.76611 -29.15625,5.125 -13.16949,5.89111 -25.65237,20.77631 -29.90625,37.46875 -0.95819,3.76 -2.18751,7.34921 -3.40625,10.46875 -0.008,-0.007 -0.0241,-0.0254 -0.0312,-0.0312 -0.025,-0.0198 -0.0686,-0.0426 -0.0937,-0.0625 -0.007,-0.006 -0.0228,-0.024 -0.0312,-0.0312 -8.93299,-7.607 -20.52115,-18.70402 -31.59375,-30.09375 -11.0726,-11.38973 -21.75907,-23.21106 -29.21875,-32.1875 -0.23186,-0.279 -0.27433,-0.38236 -0.5,-0.65625 0.22567,-0.27389 0.26814,-0.37725 0.5,-0.65625 7.45968,-8.97644 18.14615,-20.79777 29.21875,-32.1875 11.0726,-11.38973 22.66076,-22.48675 31.59375,-30.09375 0.008,-0.007 0.0241,-0.0253 0.0312,-0.0312 0.0251,-0.0199 0.0687,-0.0427 0.0937,-0.0625 0.007,-0.006 0.0228,-0.0241 0.0312,-0.0312 1.21874,3.11954 2.44806,6.70875 3.40625,10.46875 4.25388,16.69244 16.73676,31.57764 29.90625,37.46875 C 204.01324,200.76611 214.90323,200 220,200 c 9.90155,0 17.62918,-5.17228 21.25,-8.75 3.62082,-3.57772 4.88098,-6.15475 5.84375,-8.0625 1.92555,-3.8155 2.23429,-5.54079 2.625,-7.09375 0.17632,-0.70083 0.15585,-1.00451 0.28125,-1.59375 0.12538,0.58922 0.10494,0.89295 0.28125,1.59375 0.39068,1.55289 0.69962,3.27836 2.625,7.09375 0.96269,1.90769 2.22305,4.48468 5.84375,8.0625 3.6207,3.57782 11.34781,8.75 21.25,8.75 5.09677,0 15.98676,0.76611 29.15625,-5.125 13.16949,-5.89111 25.65237,-20.77631 29.90625,-37.46875 0.9556,-3.74984 2.19084,-7.32352 3.40625,-10.4375 0.0528,0.0448 0.0721,0.0487 0.125,0.0937 8.93415,7.6101 20.54753,18.70269 31.625,30.09375 11.07747,11.39106 21.75417,23.21029 29.21875,32.1875 0.23201,0.27903 0.27418,0.38234 0.5,0.65625 z m -70.84375,70.34375 c -0.19829,0.13581 -0.70212,0.57404 -0.875,0.6875 -0.51605,0.33868 -1.10241,0.44327 -1.46875,0.40625 -0.0249,-0.003 -0.0711,-0.0269 -0.0937,-0.0312 -0.0146,-0.003 -0.0489,0.004 -0.0625,0 -0.013,-0.004 -0.0506,-0.0268 -0.0625,-0.0312 -0.006,-0.002 -0.0259,0.002 -0.0312,0 -0.005,-0.003 -0.0265,-0.0285 -0.0312,-0.0312 -0.004,-0.003 -0.0272,0.003 -0.0312,0 -0.007,-0.006 -0.0252,-0.0247 -0.0312,-0.0312 -0.003,-0.003 0.002,-0.0278 0,-0.0312 -0.002,-0.004 -0.0301,-0.0275 -0.0312,-0.0312 -3.9e-4,-0.004 -10e-6,-0.0272 0,-0.0312 4.2e-4,-0.004 -8.4e-4,-0.0271 0,-0.0312 0.003,-0.009 0.027,-0.0224 0.0312,-0.0312 0.008,-0.0134 0.0194,-0.0485 0.0312,-0.0625 0.0265,-0.0284 0.0807,-0.0635 0.125,-0.0937 0.32379,-0.20851 1.10047,-0.46235 2.53125,-0.65625 z m -0.0312,-140.6875 c -1.68167,-0.22802 -2.44475,-0.52275 -2.65625,-0.75 -0.004,-0.005 -0.0278,-0.0266 -0.0312,-0.0312 -0.003,-0.005 0.003,-0.0268 0,-0.0312 -0.002,-0.004 -0.0296,-0.0269 -0.0312,-0.0312 -8.2e-4,-0.004 4e-4,-0.0272 0,-0.0312 10e-6,-0.004 -4.2e-4,-0.0273 0,-0.0312 0.002,-0.008 0.0273,-0.0241 0.0312,-0.0312 0.002,-0.003 -0.003,-0.0279 0,-0.0312 0.006,-0.007 0.0237,-0.0251 0.0312,-0.0312 0.004,-0.003 0.0268,0.003 0.0312,0 0.005,-0.003 0.0262,-0.0286 0.0312,-0.0312 0.005,-0.002 0.0256,0.002 0.0312,0 0.006,-0.002 0.025,-0.0291 0.0312,-0.0312 0.0131,-0.004 0.0483,0.003 0.0625,0 0.0221,-0.005 0.0694,-0.0278 0.0937,-0.0312 0.36681,-0.0441 0.9718,0.0592 1.5,0.40625 0.17293,0.11361 0.67667,0.55154 0.875,0.6875 z M 169.625,138.75 c 8.1e-4,0.004 -4.1e-4,0.0274 0,0.0312 0,0.004 4.1e-4,0.0272 0,0.0312 -0.001,0.004 -0.0296,0.027 -0.0312,0.0312 -0.002,0.004 0.003,0.0268 0,0.0312 -0.006,0.009 -0.0234,0.022 -0.0312,0.0312 -0.004,0.005 -0.0264,0.0265 -0.0312,0.0312 -0.005,0.005 -0.0254,0.0264 -0.0312,0.0312 -0.27968,0.21438 -1.05827,0.47941 -2.59375,0.6875 0.19829,-0.13581 0.70212,-0.57404 0.875,-0.6875 0.51605,-0.33867 1.10274,-0.44661 1.46875,-0.40625 0.0249,0.003 0.0711,0.0267 0.0937,0.0312 0.0365,0.008 0.0953,0.0198 0.125,0.0312 0.0169,0.007 0.0484,0.023 0.0625,0.0312 0.004,0.003 0.0275,0.0282 0.0312,0.0312 0.003,0.003 0.0286,0.0279 0.0312,0.0312 0.004,0.007 0.0289,0.0238 0.0312,0.0312 z m 0,142.4375 c 4.1e-4,0.004 0,0.0273 0,0.0312 -4.1e-4,0.004 8.1e-4,0.0274 0,0.0312 -0.002,0.007 -0.0273,0.0242 -0.0312,0.0312 -0.003,0.003 -0.0282,0.028 -0.0312,0.0312 -0.004,0.003 -0.0272,0.0283 -0.0312,0.0312 -0.0141,0.008 -0.0456,0.024 -0.0625,0.0312 -0.0297,0.0114 -0.0885,0.023 -0.125,0.0312 -0.0227,0.005 -0.0689,0.028 -0.0937,0.0312 -0.36601,0.0404 -0.9527,-0.0676 -1.46875,-0.40625 -0.17288,-0.11346 -0.67671,-0.55169 -0.875,-0.6875 1.53548,0.20809 2.31407,0.47312 2.59375,0.6875 0.006,0.005 0.0259,0.0265 0.0312,0.0312 0.005,0.005 0.0269,0.0266 0.0312,0.0312 0.008,0.009 0.0252,0.0223 0.0312,0.0312 0.003,0.004 -0.002,0.0269 0,0.0312 0.002,0.004 0.03,0.027 0.0312,0.0312 z"
     style="fill:url(#linearGradient3038);fill-opacity:1;fill-rule:nonzero;stroke:none"
     id="path1359" />
  <path
     d="m 340,110 c -15.29031,0 -24.90323,20 -30,40 -5.09677,20 -19.80646,20 -30,20 -3.49068,0 -4.8114,-110 -10,-110 -5.18859,0 -14.2454,0 -20,0 -5.7546,0 -14.81129,0 -20,0 -5.18871,0 -6.50909,110 -10,110 -10.19354,0 -24.90323,0 -30,-20 -5.09677,-20 -14.70969,-40 -30,-40 -15.29031,0 -100,90 -100,100 0,10 84.70969,100 100,100 15.29031,0 24.90323,-20 30,-40 5.09677,-20 19.80646,-20 30,-20 3.49091,0 4.81129,110 10,110 5.18871,0 14.2454,0 20,0 5.7546,0 14.81141,0 20,0 5.18859,0 6.50932,-110 10,-110 10.19354,0 24.90323,0 30,20 5.09677,20 14.70969,40 30,40 15.29031,0 100,-90 100,-100 0,-10 -84.76942,-100 -100,-100 z"
     style="fill:none;stroke:#000000;stroke-width:15;stroke-linecap:round;stroke-linejoin:round;stroke-miterlimit:1;stroke-opacity:1;stroke-dasharray:none;stroke-dashoffset:0"
     id="path1352" />
  <path
     d="m 403.9375,210.00078 c -0.22582,-0.27391 -0.26799,-0.37722 -0.5,-0.65625 -7.46458,-8.97721 -18.14128,-20.79644 -29.21875,-32.1875 -11.07747,-11.39106 -22.69085,-22.48365 -31.625,-30.09375 -0.0529,-0.0451 -0.0722,-0.0489 -0.125,-0.0937 -1.21541,3.11398 -2.45065,6.68766 -3.40625,10.4375 -4.25388,16.69244 -16.73676,31.57764 -29.90625,37.46875 -13.16949,5.89111 -24.05948,5.125 -29.15625,5.125 -9.90219,0 -17.6293,-5.17218 -21.25,-8.75 -3.6207,-3.57782 -4.88106,-6.15481 -5.84375,-8.0625 -1.92538,-3.81539 -2.23432,-5.54086 -2.625,-7.09375 -0.17631,-0.7008 -0.15587,-1.00453 -0.28125,-1.59375 -0.1254,0.58924 -0.10493,0.89292 -0.28125,1.59375 -0.39071,1.55296 -0.69945,3.27825 -2.625,7.09375 -0.96277,1.90775 -2.22293,4.48478 -5.84375,8.0625 -3.62082,3.57772 -11.34845,8.75 -21.25,8.75 -5.09677,0 -15.98676,0.76611 -29.15625,-5.125 -13.16949,-5.89111 -25.65237,-20.77631 -29.90625,-37.46875 -0.95819,-3.76 -2.18751,-7.34921 -3.40625,-10.46875 -0.008,0.007 -0.0241,0.0254 -0.0312,0.0312 -0.025,0.0198 -0.0686,0.0426 -0.0937,0.0625 -0.007,0.006 -0.0228,0.024 -0.0312,0.0312 -8.93299,7.607 -20.52115,18.70402 -31.59375,30.09375 -11.0726,11.38973 -21.75907,23.21106 -29.21875,32.1875 -0.23186,0.279 -0.27433,0.38236 -0.5,0.65625 0.22567,0.27389 0.26814,0.37725 0.5,0.65625 7.45968,8.97644 18.14615,20.79777 29.21875,32.1875 11.0726,11.38973 22.66076,22.48675 31.59375,30.09375 0.008,0.007 0.0241,0.0253 0.0312,0.0312 0.0251,0.0199 0.0687,0.0427 0.0937,0.0625 0.007,0.006 0.0228,0.0241 0.0312,0.0312 1.21874,-3.11954 2.44806,-6.70875 3.40625,-10.46875 4.25388,-16.69244 16.73676,-31.57764 29.90625,-37.46875 13.16949,-5.89111 24.05948,-5.125 29.15625,-5.125 9.90155,0 17.62918,5.17228 21.25,8.75 3.62082,3.57772 4.88098,6.15475 5.84375,8.0625 1.92555,3.8155 2.23429,5.54079 2.625,7.09375 0.17632,0.70083 0.15585,1.00451 0.28125,1.59375 0.12539,-0.58922 0.10494,-0.89295 0.28125,-1.59375 0.39068,-1.55289 0.69962,-3.27836 2.625,-7.09375 0.96269,-1.90769 2.22305,-4.48468 5.84375,-8.0625 3.6207,-3.57782 11.34781,-8.75 21.25,-8.75 5.09677,0 15.98676,-0.76611 29.15625,5.125 13.16949,5.89111 25.65237,20.77631 29.90625,37.46875 0.95819,3.76 2.18751,7.34921 3.40625,10.46875 0.008,-0.007 0.0241,-0.0254 0.0312,-0.0312 0.025,-0.0198 0.0687,-0.0426 0.0937,-0.0625 0.007,-0.006 0.0228,-0.024 0.0312,-0.0312 8.93299,-7.607 20.52115,-18.70402 31.59375,-30.09375 11.0726,-11.38973 21.75907,-23.21106 29.21875,-32.1875 0.23186,-0.279 0.27433,-0.38236 0.5,-0.65625 z m -70.84375,70.34375 c -1.43078,0.1939 -2.20746,0.44774 -2.53125,0.65625 -0.0443,0.0303 -0.0985,0.0653 -0.125,0.0937 -0.0118,0.014 -0.0235,0.0491 -0.0312,0.0625 -0.004,0.009 -0.0287,0.0227 -0.0312,0.0312 -8.4e-4,0.004 4.2e-4,0.0272 0,0.0312 -10e-6,0.004 -3.9e-4,0.0273 0,0.0312 0.001,0.004 0.0297,0.0276 0.0312,0.0312 0.002,0.003 -0.003,0.0279 0,0.0312 0.006,0.007 0.0238,0.0251 0.0312,0.0312 0.004,0.003 0.0269,-0.003 0.0312,0 0.005,0.003 0.0262,0.0286 0.0312,0.0312 0.005,0.002 0.0256,-0.002 0.0312,0 0.0119,0.004 0.0495,0.0273 0.0625,0.0312 0.0136,0.004 0.0479,-0.003 0.0625,0 0.0227,0.004 0.0689,0.0282 0.0937,0.0312 0.36634,0.037 0.9527,-0.0676 1.46875,-0.40625 0.17288,-0.11346 0.67671,-0.55169 0.875,-0.6875 z m -0.0312,-140.6875 c -0.19833,-0.13596 -0.70207,-0.57389 -0.875,-0.6875 -0.5282,-0.34702 -1.13319,-0.45039 -1.5,-0.40625 -0.0243,0.003 -0.0717,0.0265 -0.0937,0.0312 -0.0142,0.003 -0.0494,-0.004 -0.0625,0 -0.006,0.002 -0.0253,0.029 -0.0312,0.0312 -0.006,0.002 -0.0259,-0.002 -0.0312,0 -0.005,0.003 -0.0265,0.0285 -0.0312,0.0312 -0.004,0.003 -0.0272,-0.003 -0.0312,0 -0.008,0.006 -0.0251,0.0247 -0.0312,0.0312 -0.003,0.003 0.002,0.0278 0,0.0312 -0.004,0.007 -0.0288,0.0237 -0.0312,0.0312 -4.2e-4,0.004 10e-6,0.0272 0,0.0312 4e-4,0.004 -8.2e-4,0.0271 0,0.0312 0.002,0.004 0.0291,0.0268 0.0312,0.0312 0.003,0.004 -0.003,0.0267 0,0.0312 0.003,0.005 0.0273,0.0266 0.0312,0.0312 0.2115,0.22725 0.97458,0.52198 2.65625,0.75 z m -163.4375,-0.90625 c -0.002,-0.007 -0.0273,-0.0242 -0.0312,-0.0312 -0.003,-0.003 -0.0282,-0.028 -0.0312,-0.0312 -0.004,-0.003 -0.0272,-0.0283 -0.0312,-0.0312 -0.0141,-0.008 -0.0456,-0.024 -0.0625,-0.0312 -0.0297,-0.0114 -0.0885,-0.023 -0.125,-0.0312 -0.0227,-0.005 -0.0689,-0.028 -0.0937,-0.0312 -0.36601,-0.0404 -0.9527,0.0676 -1.46875,0.40625 -0.17288,0.11346 -0.67671,0.55169 -0.875,0.6875 1.53548,-0.20809 2.31407,-0.47312 2.59375,-0.6875 0.006,-0.005 0.0259,-0.0265 0.0312,-0.0312 0.005,-0.005 0.0269,-0.0266 0.0312,-0.0312 0.008,-0.009 0.0252,-0.0223 0.0312,-0.0312 0.003,-0.004 -0.002,-0.0269 0,-0.0312 0.002,-0.004 0.03,-0.027 0.0312,-0.0312 4.1e-4,-0.004 0,-0.0273 0,-0.0312 -4.1e-4,-0.004 8.1e-4,-0.0274 0,-0.0312 z m 0,142.4375 c -10e-4,-0.004 -0.0296,-0.027 -0.0312,-0.0312 -0.002,-0.004 0.003,-0.0268 0,-0.0312 -0.006,-0.009 -0.0234,-0.022 -0.0312,-0.0312 -0.004,-0.005 -0.0264,-0.0265 -0.0312,-0.0312 -0.005,-0.005 -0.0254,-0.0264 -0.0312,-0.0312 -0.27968,-0.21438 -1.05827,-0.47941 -2.59375,-0.6875 0.19829,0.13581 0.70212,0.57404 0.875,0.6875 0.51605,0.33867 1.10274,0.44661 1.46875,0.40625 0.0249,-0.003 0.0711,-0.0267 0.0937,-0.0312 0.0365,-0.008 0.0953,-0.0198 0.125,-0.0312 0.0169,-0.007 0.0484,-0.023 0.0625,-0.0312 0.004,-0.003 0.0275,-0.0282 0.0312,-0.0312 0.003,-0.003 0.0286,-0.0279 0.0312,-0.0312 0.004,-0.007 0.0289,-0.0238 0.0312,-0.0312 8.1e-4,-0.004 -4.1e-4,-0.0274 0,-0.0312 0,-0.004 4.1e-4,-0.0272 0,-0.0312 z"
     style="fill:url(#pattern3034);fill-opacity:1;fill-rule:nonzero;stroke:none"
     id="path1348" />
</svg>
