<?xml version="1.0" encoding="UTF-8" standalone="no"?>
<svg
   xmlns:dc="http://purl.org/dc/elements/1.1/"
   xmlns:cc="http://creativecommons.org/ns#"
   xmlns:rdf="http://www.w3.org/1999/02/22-rdf-syntax-ns#"
   xmlns:svg="http://www.w3.org/2000/svg"
   xmlns="http://www.w3.org/2000/svg"
   xmlns:xlink="http://www.w3.org/1999/xlink"
   version="1.0"
   width="500"
   height="500"
   id="svg2">
  <metadata
     id="metadata72">
    <rdf:RDF>
      <cc:Work
         rdf:about="">
        <dc:format>image/svg+xml</dc:format>
        <dc:type
           rdf:resource="http://purl.org/dc/dcmitype/StillImage" />
        <dc:title />
      </cc:Work>
    </rdf:RDF>
  </metadata>
  <defs
     id="defs1">
    <pattern
       xlink:href="#pattern2309"
       id="pattern3063"
       patternTransform="translate(-5.3123715,-5.3124244)" />
    <pattern
       patternTransform="matrix(0.819152,0.573576,-0.573576,0.819152,162.9108,-99.30804)"
       id="pattern2309"
       xlink:href="#pattern2270" />
    <filter
       id="filter3885"
       x="-0.20886419"
       width="1.4177284"
       y="-0.158145"
       height="1.31629">
      <feGaussianBlur
         stdDeviation="21.524289"
         id="feGaussianBlur3887" />
    </filter>
    <linearGradient
       id="underGrad">
      <stop
         id="stop2214"
         style="stop-color:#dddddd;stop-opacity:0.9"
         offset="0" />
      <stop
         id="stop2216"
         style="stop-color:#ffffff;stop-opacity:0.9"
         offset="1" />
    </linearGradient>
    <linearGradient
       id="overGrad">
      <stop
         id="stop2187"
         style="stop-color:#cccccc;stop-opacity:0.7"
         offset="0" />
      <stop
         id="stop2189"
         style="stop-color:#ffffff;stop-opacity:0.7"
         offset="1" />
    </linearGradient>
    <linearGradient
       id="patternGrad">
      <stop
         id="stop2252"
         style="stop-color:#bbbbbb;stop-opacity:0.8"
         offset="0" />
      <stop
         id="stop2254"
         style="stop-color:#eeeeee;stop-opacity:0.8"
         offset="1" />
    </linearGradient>
    <linearGradient
       id="HiliteUnderGrad">
      <stop
         id="stop15"
         style="stop-color:#dddd00;stop-opacity:0.9"
         offset="0" />
      <stop
         id="stop17"
         style="stop-color:#ffff00;stop-opacity:0.9"
         offset="1" />
    </linearGradient>
    <linearGradient
       id="HiliteOverGrad">
      <stop
         id="stop20"
         style="stop-color:#cccc00;stop-opacity:0.7"
         offset="0" />
      <stop
         id="stop22"
         style="stop-color:#ffff00;stop-opacity:0.7"
         offset="1" />
    </linearGradient>
    <linearGradient
       id="HilitePatternGrad">
      <stop
         id="stop25"
         style="stop-color:#bbbb00;stop-opacity:0.8"
         offset="0" />
      <stop
         id="stop27"
         style="stop-color:#eeee00;stop-opacity:0.8"
         offset="1" />
    </linearGradient>
    <linearGradient
       x1="250"
       y1="400"
       x2="250"
       y2="20"
       id="linearGradient2256"
       xlink:href="#patternGrad"
       gradientUnits="userSpaceOnUse" />
    <pattern
       patternUnits="userSpaceOnUse"
       width="510.625"
       height="510.625"
       patternTransform="translate(-5.3125,-5.3125)"
       id="pattern2270">
      <g
         id="g2249"
         transform="translate(5.3125,5.3125)">
        <path
           style="opacity:0.5;fill:url(#linearGradient2256);fill-opacity:1;fill-rule:nonzero;stroke:none;stroke-width:15;stroke-linecap:butt;stroke-linejoin:miter;stroke-miterlimit:1;stroke-dasharray:none;stroke-dashoffset:0;stroke-opacity:1"
           d="M 44.6875,-5.3125 L -5.3125,44.6875 L 5.3125,55.3125 L 55.3125,5.3125 L 44.6875,-5.3125 z "
           id="path1320" />
        <path
           style="opacity:0.5;fill:url(#linearGradient2256);fill-opacity:1;fill-rule:nonzero;stroke:none;stroke-width:15;stroke-linecap:butt;stroke-linejoin:miter;stroke-miterlimit:1;stroke-dasharray:none;stroke-dashoffset:0;stroke-opacity:1"
           d="M 94.6875,-5.3125 L -5.3125,94.6875 L 5.3125,105.3125 L 105.3125,5.3125 L 94.6875,-5.3125 z "
           id="path2195" />
        <path
           style="opacity:0.5;fill:url(#linearGradient2256);fill-opacity:1;fill-rule:nonzero;stroke:none;stroke-width:15;stroke-linecap:butt;stroke-linejoin:miter;stroke-miterlimit:1;stroke-dasharray:none;stroke-dashoffset:0;stroke-opacity:1"
           d="M 144.6875,-5.3125 L -5.3125,144.6875 L 5.3125,155.3125 L 155.3125,5.3125 L 144.6875,-5.3125 z "
           id="path2197" />
        <path
           style="opacity:0.5;fill:url(#linearGradient2256);fill-opacity:1;fill-rule:nonzero;stroke:none;stroke-width:15;stroke-linecap:butt;stroke-linejoin:miter;stroke-miterlimit:1;stroke-dasharray:none;stroke-dashoffset:0;stroke-opacity:1"
           d="M 194.6875,-5.3125 L -5.3125,194.6875 L 5.3125,205.3125 L 205.3125,5.3125 L 194.6875,-5.3125 z "
           id="path2199" />
        <path
           style="opacity:0.5;fill:url(#linearGradient2256);fill-opacity:1;fill-rule:nonzero;stroke:none;stroke-width:15;stroke-linecap:butt;stroke-linejoin:miter;stroke-miterlimit:1;stroke-dasharray:none;stroke-dashoffset:0;stroke-opacity:1"
           d="M 244.6875,-5.3125 L -5.3125,244.6875 L 5.3125,255.3125 L 255.3125,5.3125 L 244.6875,-5.3125 z "
           id="path2201" />
        <path
           style="opacity:0.5;fill:url(#linearGradient2256);fill-opacity:1;fill-rule:nonzero;stroke:none;stroke-width:15;stroke-linecap:butt;stroke-linejoin:miter;stroke-miterlimit:1;stroke-dasharray:none;stroke-dashoffset:0;stroke-opacity:1"
           d="M 294.6875,-5.3125 L -5.3125,294.6875 L 5.3125,305.3125 L 305.3125,5.3125 L 294.6875,-5.3125 z "
           id="path2203" />
        <path
           style="opacity:0.5;fill:url(#linearGradient2256);fill-opacity:1;fill-rule:nonzero;stroke:none;stroke-width:15;stroke-linecap:butt;stroke-linejoin:miter;stroke-miterlimit:1;stroke-dasharray:none;stroke-dashoffset:0;stroke-opacity:1"
           d="M 344.6875,-5.3125 L -5.3125,344.6875 L 5.3125,355.3125 L 355.3125,5.3125 L 344.6875,-5.3125 z "
           id="path2205" />
        <path
           style="opacity:0.5;fill:url(#linearGradient2256);fill-opacity:1;fill-rule:nonzero;stroke:none;stroke-width:15;stroke-linecap:butt;stroke-linejoin:miter;stroke-miterlimit:1;stroke-dasharray:none;stroke-dashoffset:0;stroke-opacity:1"
           d="M 394.6875,-5.3125 L -5.3125,394.6875 L 5.3125,405.3125 L 405.3125,5.3125 L 394.6875,-5.3125 z "
           id="path2207" />
        <path
           style="opacity:0.5;fill:url(#linearGradient2256);fill-opacity:1;fill-rule:nonzero;stroke:none;stroke-width:15;stroke-linecap:butt;stroke-linejoin:miter;stroke-miterlimit:1;stroke-dasharray:none;stroke-dashoffset:0;stroke-opacity:1"
           d="M 444.6875,-5.3125 L -5.3125,444.6875 L 5.3125,455.3125 L 455.3125,5.3125 L 444.6875,-5.3125 z "
           id="path2209" />
        <path
           style="opacity:0.5;fill:url(#linearGradient2256);fill-opacity:1;fill-rule:nonzero;stroke:none;stroke-width:15;stroke-linecap:butt;stroke-linejoin:miter;stroke-miterlimit:1;stroke-dasharray:none;stroke-dashoffset:0;stroke-opacity:1"
           d="M 494.6875,-5.3125 L -5.3125,494.6875 L 5.3125,505.3125 L 505.3125,5.3125 L 494.6875,-5.3125 z "
           id="path2211" />
        <path
           style="opacity:0.5;fill:url(#linearGradient2256);fill-opacity:1;fill-rule:nonzero;stroke:none;stroke-width:15;stroke-linecap:butt;stroke-linejoin:miter;stroke-miterlimit:1;stroke-dasharray:none;stroke-dashoffset:0;stroke-opacity:1"
           d="M 494.6875,44.6875 L 44.6875,494.6875 L 55.3125,505.3125 L 505.3125,55.3125 L 494.6875,44.6875 z "
           id="path2213" />
        <path
           style="opacity:0.5;fill:url(#linearGradient2256);fill-opacity:1;fill-rule:nonzero;stroke:none;stroke-width:15;stroke-linecap:butt;stroke-linejoin:miter;stroke-miterlimit:1;stroke-dasharray:none;stroke-dashoffset:0;stroke-opacity:1"
           d="M 494.6875,94.6875 L 94.6875,494.6875 L 105.3125,505.3125 L 505.3125,105.3125 L 494.6875,94.6875 z "
           id="path2215" />
        <path
           style="opacity:0.5;fill:url(#linearGradient2256);fill-opacity:1;fill-rule:nonzero;stroke:none;stroke-width:15;stroke-linecap:butt;stroke-linejoin:miter;stroke-miterlimit:1;stroke-dasharray:none;stroke-dashoffset:0;stroke-opacity:1"
           d="M 494.6875,144.6875 L 144.6875,494.6875 L 155.3125,505.3125 L 505.3125,155.3125 L 494.6875,144.6875 z "
           id="path2217" />
        <path
           style="opacity:0.5;fill:url(#linearGradient2256);fill-opacity:1;fill-rule:nonzero;stroke:none;stroke-width:15;stroke-linecap:butt;stroke-linejoin:miter;stroke-miterlimit:1;stroke-dasharray:none;stroke-dashoffset:0;stroke-opacity:1"
           d="M 494.6875,194.6875 L 194.6875,494.6875 L 205.3125,505.3125 L 505.3125,205.3125 L 494.6875,194.6875 z "
           id="path2219" />
        <path
           style="opacity:0.5;fill:url(#linearGradient2256);fill-opacity:1;fill-rule:nonzero;stroke:none;stroke-width:15;stroke-linecap:butt;stroke-linejoin:miter;stroke-miterlimit:1;stroke-dasharray:none;stroke-dashoffset:0;stroke-opacity:1"
           d="M 494.6875,244.6875 L 244.6875,494.6875 L 255.3125,505.3125 L 505.3125,255.3125 L 494.6875,244.6875 z "
           id="path2221" />
        <path
           style="opacity:0.5;fill:url(#linearGradient2256);fill-opacity:1;fill-rule:nonzero;stroke:none;stroke-width:15;stroke-linecap:butt;stroke-linejoin:miter;stroke-miterlimit:1;stroke-dasharray:none;stroke-dashoffset:0;stroke-opacity:1"
           d="M 494.6875,294.6875 L 294.6875,494.6875 L 305.3125,505.3125 L 505.3125,305.3125 L 494.6875,294.6875 z "
           id="path2223" />
        <path
           style="opacity:0.5;fill:url(#linearGradient2256);fill-opacity:1;fill-rule:nonzero;stroke:none;stroke-width:15;stroke-linecap:butt;stroke-linejoin:miter;stroke-miterlimit:1;stroke-dasharray:none;stroke-dashoffset:0;stroke-opacity:1"
           d="M 494.6875,344.6875 L 344.6875,494.6875 L 355.3125,505.3125 L 505.3125,355.3125 L 494.6875,344.6875 z "
           id="path2225" />
        <path
           style="opacity:0.5;fill:url(#linearGradient2256);fill-opacity:1;fill-rule:nonzero;stroke:none;stroke-width:15;stroke-linecap:butt;stroke-linejoin:miter;stroke-miterlimit:1;stroke-dasharray:none;stroke-dashoffset:0;stroke-opacity:1"
           d="M 494.6875,394.6875 L 394.6875,494.6875 L 405.3125,505.3125 L 505.3125,405.3125 L 494.6875,394.6875 z "
           id="path2227" />
        <path
           style="opacity:0.5;fill:url(#linearGradient2256);fill-opacity:1;fill-rule:nonzero;stroke:none;stroke-width:15;stroke-linecap:butt;stroke-linejoin:miter;stroke-miterlimit:1;stroke-dasharray:none;stroke-dashoffset:0;stroke-opacity:1"
           d="M 494.6875,444.6875 L 444.6875,494.6875 L 455.3125,505.3125 L 505.3125,455.3125 L 494.6875,444.6875 z "
           id="path2229" />
      </g>
    </pattern>
    <linearGradient
       x1="250"
       y1="400"
       x2="250"
       y2="20"
       id="linearGradient2289"
       xlink:href="#HiliteUnderGrad"
       gradientUnits="userSpaceOnUse" />
    <linearGradient
       x1="250"
       y1="400"
       x2="250"
       y2="20"
       id="linearGradient3049"
       xlink:href="#hiliteUnderGrad"
       gradientUnits="userSpaceOnUse" />
    <linearGradient
       x1="250"
       y1="400"
       x2="250"
       y2="20"
       id="linearGradient2307"
       xlink:href="#HiliteOverGrad"
       gradientUnits="userSpaceOnUse" />
    <linearGradient
       x1="250"
       y1="400"
       x2="250"
       y2="20"
       id="linearGradient2311"
       xlink:href="#overGrad"
       gradientUnits="userSpaceOnUse"
       gradientTransform="matrix(0.819152,0.573576,-0.573576,0.819152,164.2154,-91.90917)" />
    <linearGradient
       x1="250"
       y1="400"
       x2="250"
       y2="20"
       id="linearGradient2313"
       xlink:href="#underGrad"
       gradientUnits="userSpaceOnUse"
       gradientTransform="matrix(0.819152,0.573576,-0.573576,0.819152,164.2154,-91.90917)" />
    <linearGradient
       xlink:href="#HiliteUnderGrad"
       id="linearGradient3046"
       gradientUnits="userSpaceOnUse"
       x1="250"
       y1="400"
       x2="250"
       y2="20" />
    <linearGradient
       xlink:href="#HiliteOverGrad"
       id="linearGradient3050"
       gradientUnits="userSpaceOnUse"
       x1="250"
       y1="400"
       x2="250"
       y2="20" />
    <linearGradient
       xlink:href="#overGrad"
       id="linearGradient3058"
       gradientUnits="userSpaceOnUse"
       gradientTransform="matrix(0.819152,0.573576,-0.573576,0.819152,164.2154,-91.90917)"
       x1="250"
       y1="400"
       x2="250"
       y2="20" />
    <linearGradient
       xlink:href="#underGrad"
       id="linearGradient3060"
       gradientUnits="userSpaceOnUse"
       gradientTransform="matrix(0.819152,0.573576,-0.573576,0.819152,164.2154,-91.90917)"
       x1="250"
       y1="400"
       x2="250"
       y2="20" />
    <linearGradient
       xlink:href="#underGrad"
       id="linearGradient3067"
       gradientUnits="userSpaceOnUse"
       gradientTransform="translate(1.0667241e-4,8.8852323e-5)"
       x1="250"
       y1="400"
       x2="250"
       y2="20" />
    <linearGradient
       xlink:href="#overGrad"
       id="linearGradient3070"
       gradientUnits="userSpaceOnUse"
       gradientTransform="translate(1.0667241e-4,8.8852323e-5)"
       x1="250"
       y1="400"
       x2="250"
       y2="20" />
    <filter
       id="filter3815"
       x="-0.20886412"
       width="1.4177282"
       y="-0.15814504"
       height="1.3162901">
      <feGaussianBlur
         stdDeviation="21.524284"
         id="feGaussianBlur3817" />
    </filter>
  </defs>
  <path
     style="fill:#000000;stroke:none;stroke-width:15;stroke-linecap:round;stroke-linejoin:round;stroke-miterlimit:1;stroke-opacity:1;stroke-dasharray:none;stroke-dashoffset:0;fill-opacity:0.13333333999999999;filter:url(#filter3815)"
     id="path3045"
     d="m 367.76557,75.411344 c 8.19152,5.735766 -10.68135,224.467996 -27.88864,249.042546 -17.2073,24.57454 -47.51761,15.55876 -69.63641,12.27875 -22.1188,-3.28002 -39.32609,21.29453 -50.79763,37.67756 -22.94306,32.76607 -36.87034,35.22182 -69.6364,12.27876 -32.76607,-22.94306 -35.22182,-36.87034 -12.27876,-69.63641 11.47153,-16.38303 28.67883,-40.95758 18.03156,-60.62063 -10.64726,-19.66304 -29.48605,-45.06186 -12.27875,-69.63641 17.2073,-24.57454 216.29352,-117.119931 224.48503,-111.384166 z" />
  <path
     d="m 339.0509,76.420123 c -18.82821,7.851443 -42.6971,18.580134 -67.1454,30.350837 -26.02473,12.52968 -52.34838,26.01814 -72.63269,37.53371 -10.14215,5.7578 -18.78572,11.05911 -24.76851,15.16001 -4.20666,2.88345 -7.33145,6.15678 -7.72982,6.29933 -0.003,9e-5 -0.0233,-0.0172 -0.0256,-0.0179 5.1e-4,-0.004 -0.009,-0.0386 -0.007,-0.0436 0.002,-0.006 0.0156,-0.0188 0.0179,-0.0256 0.01,-0.0224 0.0119,-0.0643 0.0282,-0.0947 -1.64248,2.52271 -1.12682,2.96579 0.69771,8.53802 2.14711,6.55744 8.17702,16.42182 14.45297,28.01207 11.03756,20.38381 6.81764,42.31248 0.6141,57.31046 -6.20357,14.99776 -14.71408,26.62532 -20.44985,34.81684 -6.69384,9.55978 -8.45412,14.39001 -9.1213,15.96862 1.16686,1.25522 4.47302,5.1921 14.0328,11.88594 9.55979,6.69384 14.39002,8.45412 15.96863,9.1213 1.25522,-1.16686 5.1921,-4.47302 11.88594,-14.0328 5.73576,-8.19152 13.75134,-20.16563 25.7231,-31.12466 11.97175,-10.95901 31.13467,-22.42447 54.06427,-19.02422 13.03775,1.93338 24.3696,4.22583 31.26593,4.00068 5.86021,-0.19132 6.45293,0.1417 8.26175,-2.26454 -0.0229,0.0257 -0.0616,0.0421 -0.0793,0.0589 -0.006,0.004 -0.0129,0.0221 -0.0179,0.0256 -0.004,0.003 -0.0398,0.006 -0.0436,0.007 -0.001,-0.002 -0.0247,-0.0149 -0.0256,-0.0179 -0.002,-0.4231 2.00488,-4.47898 3.27568,-9.41814 1.80736,-7.02457 3.8327,-16.96003 5.77444,-28.45981 3.88316,-22.99902 7.55496,-52.34848 10.42804,-81.08914 2.69905,-26.99971 4.6171,-53.098539 5.55544,-73.476617 z M 167.03057,165.18034 c -0.0829,0.12179 -0.15148,0.26324 -0.22538,0.37627 0.0494,-0.0892 0.12688,-0.22513 0.22538,-0.37627 z m 147.44729,103.24378 c -0.10833,0.14426 -0.20965,0.2635 -0.2765,0.34049 0.0807,-0.10824 0.19012,-0.22114 0.2765,-0.34049 z"
     id="path2284"
     style="fill:url(#linearGradient3070);fill-opacity:1;fill-rule:nonzero;stroke:none" />
  <path
     d="m 367.66318,35.33965 c -9.63939,-4.951061 -207.24257,86.97732 -224.38264,111.45586 -17.2073,24.57455 1.63148,49.97337 12.27875,69.63641 10.64727,19.66305 -6.56003,44.2376 -18.03156,60.62063 -22.94306,32.76607 -20.48731,46.69335 12.27875,69.63641 32.76607,22.94306 46.69335,20.48731 69.63641,-12.27876 11.47153,-16.38303 28.67883,-40.95758 50.79763,-37.67756 22.11879,3.28001 52.42911,12.29579 69.6364,-12.27876 17.2073,-24.57454 36.08017,-243.306771 27.88865,-249.042537 -0.032,-0.0224 -0.0646,-0.05227 -0.1024,-0.07169 z M 339.0509,76.420123 c -0.93834,20.378078 -2.85639,46.476907 -5.55544,73.476617 -2.87308,28.74066 -6.54488,58.09012 -10.42836,81.08969 -1.94174,11.49979 -3.96708,21.43524 -5.77444,28.45981 -1.2708,4.93916 -3.27798,8.99505 -3.27568,9.41816 0.001,0.004 0.024,0.016 0.0256,0.0179 0.004,-0.002 0.0394,-0.005 0.0436,-0.007 0.005,-0.004 0.0123,-0.0211 0.0179,-0.0256 0.0176,-0.0171 0.0562,-0.0332 0.0793,-0.0589 -1.80883,2.40624 -2.40155,2.07323 -8.26176,2.26454 -6.89632,0.22515 -18.22817,-2.0673 -31.26593,-4.00067 -22.92959,-3.40026 -42.09251,8.06521 -54.06426,19.02423 -11.97155,10.95897 -19.98713,22.93309 -25.7229,31.12461 -6.69384,9.55978 -10.63072,12.86594 -11.88594,14.0328 -1.57861,-0.66718 -6.40884,-2.42746 -15.96862,-9.1213 -9.55979,-6.69384 -12.86594,-10.63072 -14.0328,-11.88594 0.66718,-1.57861 2.42746,-6.40884 9.1213,-15.96862 5.73576,-8.19152 14.24628,-19.81909 20.44981,-34.81706 6.20353,-14.99796 10.42345,-36.92664 -0.61411,-57.31045 -6.27594,-11.59025 -12.30585,-21.45464 -14.45296,-28.01207 -1.82453,-5.57223 -2.34019,-6.01531 -0.69771,-8.53803 -0.0163,0.0303 -0.0185,0.0723 -0.0282,0.0947 -0.003,0.007 -0.0162,0.0197 -0.0179,0.0256 -0.001,0.005 0.008,0.0395 0.007,0.0435 0.002,2.6e-4 0.0224,0.0182 0.0256,0.0179 0.39828,-0.14283 3.52316,-3.41588 7.72982,-6.29932 5.98278,-4.1009 14.62636,-9.40222 24.76851,-15.16002 20.28431,-11.51557 46.60796,-25.00403 72.63269,-37.53371 24.44831,-11.770694 48.31719,-22.499381 67.1454,-30.350837 z M 167.03057,165.18034 c -0.0985,0.15114 -0.1759,0.28713 -0.22538,0.37627 0.0741,-0.11286 0.14277,-0.25428 0.22538,-0.37627 z m 147.44729,103.24378 c -0.0861,0.11957 -0.19555,0.23238 -0.2765,0.34049 0.0669,-0.0769 0.16817,-0.19623 0.2765,-0.34049 z"
     id="path1394"
     style="fill:url(#linearGradient3067);fill-opacity:1;fill-rule:nonzero;stroke:none" />
  <path
     d="m 367.76557,35.411344 c 8.19152,5.735766 -10.68135,224.467996 -27.88864,249.042546 -17.2073,24.57454 -47.51761,15.55876 -69.63641,12.27875 -22.1188,-3.28002 -39.32609,21.29453 -50.79763,37.67756 -22.94306,32.76607 -36.87034,35.22182 -69.6364,12.27876 -32.76607,-22.94306 -35.22182,-36.87034 -12.27876,-69.63641 11.47153,-16.38303 28.67883,-40.95758 18.03156,-60.62063 -10.64726,-19.66304 -29.48605,-45.06186 -12.27875,-69.63641 17.2073,-24.57454 216.29352,-117.119931 224.48503,-111.384166 z"
     id="path1352"
     style="fill:none;stroke:#000000;stroke-width:15;stroke-linecap:round;stroke-linejoin:round;stroke-miterlimit:1;stroke-opacity:1;stroke-dasharray:none;stroke-dashoffset:0" />
  <path
     d="m 339.0509,76.420123 c -18.82821,7.851443 -42.6971,18.580134 -67.1454,30.350837 -26.02473,12.52968 -52.34838,26.01814 -72.63269,37.53371 -10.14215,5.7578 -18.78572,11.05911 -24.76851,15.16001 -4.20666,2.88345 -7.33145,6.15678 -7.72982,6.29933 -0.003,9e-5 -0.0233,-0.0172 -0.0256,-0.0179 5.1e-4,-0.004 -0.009,-0.0386 -0.007,-0.0436 0.002,-0.006 0.0156,-0.0188 0.0179,-0.0256 0.01,-0.0224 0.0119,-0.0643 0.0282,-0.0947 -1.64248,2.52271 -1.12682,2.96579 0.69771,8.53802 2.14711,6.55744 8.17702,16.42182 14.45297,28.01207 11.03756,20.38381 6.81764,42.31248 0.6141,57.31046 -6.20357,14.99776 -14.71408,26.62532 -20.44985,34.81684 -6.69384,9.55978 -8.45412,14.39001 -9.1213,15.96862 1.16686,1.25522 4.47302,5.1921 14.0328,11.88594 9.55979,6.69384 14.39002,8.45412 15.96863,9.1213 1.25522,-1.16686 5.1921,-4.47302 11.88594,-14.0328 5.73576,-8.19152 13.75134,-20.16563 25.7231,-31.12466 11.97175,-10.95901 31.13467,-22.42447 54.06427,-19.02422 13.03775,1.93338 24.3696,4.22583 31.26593,4.00068 5.86021,-0.19132 6.45293,0.1417 8.26175,-2.26454 -0.0229,0.0257 -0.0616,0.0421 -0.0793,0.0589 -0.006,0.004 -0.0129,0.0221 -0.0179,0.0256 -0.004,0.003 -0.0398,0.006 -0.0436,0.007 -0.001,-0.002 -0.0247,-0.0149 -0.0256,-0.0179 -0.002,-0.4231 2.00488,-4.47898 3.27568,-9.41814 1.80736,-7.02457 3.8327,-16.96003 5.77444,-28.45981 3.88316,-22.99902 7.55496,-52.34848 10.42804,-81.08914 2.69905,-26.99971 4.6171,-53.098539 5.55544,-73.476617 z M 167.03057,165.18034 c -0.0829,0.12179 -0.15148,0.26324 -0.22538,0.37627 0.0494,-0.0892 0.12688,-0.22513 0.22538,-0.37627 z m 147.44729,103.24378 c -0.10833,0.14426 -0.20965,0.2635 -0.2765,0.34049 0.0807,-0.10824 0.19012,-0.22114 0.2765,-0.34049 z"
     id="path2301"
     style="fill:url(#pattern3063);fill-opacity:1;fill-rule:nonzero;stroke:none" />
  <path
     style="fill:url(#linearGradient3050);fill-opacity:1;fill-rule:nonzero;stroke:none"
     id="path2291"
     d="M 146.21875,117.5 C 110.60963,118.164 82.5,146.71619 82.5,182.5 c 0,36.20811 28.79188,65 65,65 36.20811,0 65,-28.79189 65,-65 0,-36.20812 -28.79189,-65 -65,-65 -0.42431,0 -0.85901,-0.008 -1.28125,0 z" />
  <path
     style="fill:url(#linearGradient3046);fill-opacity:1;fill-rule:nonzero;stroke:none"
     id="path1373"
     d="M 146.28125,87.5 C 94.40609,88.157826 52.5,130.46969 52.5,182.5 c 0,52.44 42.56,95 95,95 52.44,0 95,-42.56 95,-95 0,-52.44 -42.56,-95 -95,-95 -0.40969,0 -0.81028,-0.0052 -1.21875,0 z m -0.0625,30 c 0.42224,-0.008 0.85694,0 1.28125,0 36.20811,0 65,28.79188 65,65 0,36.20811 -28.79189,65 -65,65 -36.20812,0 -65,-28.79189 -65,-65 0,-35.78381 28.10963,-64.336 63.71875,-65 z" />
  <path
     style="fill:none;stroke:#000000;stroke-width:15;stroke-linecap:round;stroke-linejoin:round;stroke-miterlimit:1;stroke-opacity:1;stroke-dasharray:none;stroke-dashoffset:0"
     id="path1351"
     d="m 242.5,182.5 c 0,52.46705 -42.53295,95 -95,95 -52.46705,0 -95,-42.53295 -95,-95 0,-52.46705 42.53295,-95 95,-95 52.46705,0 95,42.53295 95,95 l 0,0 z" />
  <path
     d="m 96.6938,132.00726 c 12.92559,-7.09954 27.29543,-12.37286 42.23751,-11.97431 18.79168,-0.0924 38.87997,4.01465 52.90819,17.37887 9.77276,9.10597 7.80058,25.75926 -1.44336,34.4839 -11.57677,11.49084 -28.29431,16.89093 -38.00947,30.39696 -3.39647,2.61201 -0.0471,10.62324 -5.42369,9.34932 -5.21188,0 -10.42375,0 -15.63563,-1e-5 0.14126,-12.69094 8.62885,-23.83646 19.06921,-30.34066 7.90089,-5.75891 17.5698,-9.8151 23.34977,-18.01196 4.14184,-6.4289 3.49413,-16.05926 -3.20377,-20.54975 -11.95458,-9.67084 -28.60456,-11.11485 -43.23551,-8.34327 -8.41262,1.77462 -16.46459,5.15595 -23.72217,9.75156 -2.29703,-4.04688 -4.59405,-8.09377 -6.89108,-12.14065 z m 44.85135,91.95261 c 6.60918,-0.30205 15.18038,3.9886 14.31121,11.6311 -1.47184,7.81736 -10.95337,10.37173 -17.83845,9.07709 -6.18941,-0.72547 -12.581,-6.76835 -9.92449,-13.34043 2.15105,-5.17 8.18244,-7.44292 13.45174,-7.36776 l -1e-5,0 z"
     id="text2311"
     style="fill:#000000;fill-opacity:1;stroke:none"
     transform="rotate(0,147.5,182.5)" />
</svg>
