<?xml version="1.0" encoding="UTF-8" standalone="no"?>
<svg
   xmlns:dc="http://purl.org/dc/elements/1.1/"
   xmlns:cc="http://creativecommons.org/ns#"
   xmlns:rdf="http://www.w3.org/1999/02/22-rdf-syntax-ns#"
   xmlns:svg="http://www.w3.org/2000/svg"
   xmlns="http://www.w3.org/2000/svg"
   xmlns:xlink="http://www.w3.org/1999/xlink"
   version="1.0"
   width="500"
   height="500"
   id="svg2">
  <metadata
     id="metadata45">
    <rdf:RDF>
      <cc:Work
         rdf:about="">
        <dc:format>image/svg+xml</dc:format>
        <dc:type
           rdf:resource="http://purl.org/dc/dcmitype/StillImage" />
      </cc:Work>
    </rdf:RDF>
  </metadata>
  <defs
     id="defs1">
    <pattern
       xlink:href="#pattern1350"
       id="pattern3024"
       patternTransform="translate(-5.3126201,-5.3124271)" />
    <pattern
       patternTransform="matrix(0.707107,-0.707107,0.707107,0.707107,-82.78213,238.2843)"
       id="pattern1350"
       xlink:href="#pattern2270" />
    <linearGradient
       id="underGrad">
      <stop
         style="stop-color:#dddddd;stop-opacity:0.9"
         offset="0"
         id="stop2214" />
      <stop
         style="stop-color:#ffffff;stop-opacity:0.9"
         offset="1"
         id="stop2216" />
    </linearGradient>
    <linearGradient
       id="overGrad">
      <stop
         style="stop-color:#cccccc;stop-opacity:0.7"
         offset="0"
         id="stop2187" />
      <stop
         style="stop-color:#ffffff;stop-opacity:0.7"
         offset="1"
         id="stop2189" />
    </linearGradient>
    <linearGradient
       id="patternGrad">
      <stop
         style="stop-color:#bbbbbb;stop-opacity:0.8"
         offset="0"
         id="stop2252" />
      <stop
         style="stop-color:#eeeeee;stop-opacity:0.8"
         offset="1"
         id="stop2254" />
    </linearGradient>
    <linearGradient
       x1="250"
       y1="400"
       x2="250"
       y2="20"
       id="linearGradient2256"
       xlink:href="#patternGrad"
       gradientUnits="userSpaceOnUse" />
    <pattern
       patternUnits="userSpaceOnUse"
       width="510.625"
       height="510.625"
       patternTransform="translate(-5.3125,-5.3125)"
       id="pattern2270">
      <g
         id="g2249"
         transform="translate(5.3125,5.3125)">
        <path
           style="opacity:0.5;fill:url(#linearGradient2256);fill-opacity:1;fill-rule:nonzero;stroke:none;stroke-width:15;stroke-linecap:butt;stroke-linejoin:miter;stroke-miterlimit:1;stroke-dasharray:none;stroke-dashoffset:0;stroke-opacity:1"
           d="M 44.6875,-5.3125 L -5.3125,44.6875 L 5.3125,55.3125 L 55.3125,5.3125 L 44.6875,-5.3125 z "
           id="path1320" />
        <path
           style="opacity:0.5;fill:url(#linearGradient2256);fill-opacity:1;fill-rule:nonzero;stroke:none;stroke-width:15;stroke-linecap:butt;stroke-linejoin:miter;stroke-miterlimit:1;stroke-dasharray:none;stroke-dashoffset:0;stroke-opacity:1"
           d="M 94.6875,-5.3125 L -5.3125,94.6875 L 5.3125,105.3125 L 105.3125,5.3125 L 94.6875,-5.3125 z "
           id="path2195" />
        <path
           style="opacity:0.5;fill:url(#linearGradient2256);fill-opacity:1;fill-rule:nonzero;stroke:none;stroke-width:15;stroke-linecap:butt;stroke-linejoin:miter;stroke-miterlimit:1;stroke-dasharray:none;stroke-dashoffset:0;stroke-opacity:1"
           d="M 144.6875,-5.3125 L -5.3125,144.6875 L 5.3125,155.3125 L 155.3125,5.3125 L 144.6875,-5.3125 z "
           id="path2197" />
        <path
           style="opacity:0.5;fill:url(#linearGradient2256);fill-opacity:1;fill-rule:nonzero;stroke:none;stroke-width:15;stroke-linecap:butt;stroke-linejoin:miter;stroke-miterlimit:1;stroke-dasharray:none;stroke-dashoffset:0;stroke-opacity:1"
           d="M 194.6875,-5.3125 L -5.3125,194.6875 L 5.3125,205.3125 L 205.3125,5.3125 L 194.6875,-5.3125 z "
           id="path2199" />
        <path
           style="opacity:0.5;fill:url(#linearGradient2256);fill-opacity:1;fill-rule:nonzero;stroke:none;stroke-width:15;stroke-linecap:butt;stroke-linejoin:miter;stroke-miterlimit:1;stroke-dasharray:none;stroke-dashoffset:0;stroke-opacity:1"
           d="M 244.6875,-5.3125 L -5.3125,244.6875 L 5.3125,255.3125 L 255.3125,5.3125 L 244.6875,-5.3125 z "
           id="path2201" />
        <path
           style="opacity:0.5;fill:url(#linearGradient2256);fill-opacity:1;fill-rule:nonzero;stroke:none;stroke-width:15;stroke-linecap:butt;stroke-linejoin:miter;stroke-miterlimit:1;stroke-dasharray:none;stroke-dashoffset:0;stroke-opacity:1"
           d="M 294.6875,-5.3125 L -5.3125,294.6875 L 5.3125,305.3125 L 305.3125,5.3125 L 294.6875,-5.3125 z "
           id="path2203" />
        <path
           style="opacity:0.5;fill:url(#linearGradient2256);fill-opacity:1;fill-rule:nonzero;stroke:none;stroke-width:15;stroke-linecap:butt;stroke-linejoin:miter;stroke-miterlimit:1;stroke-dasharray:none;stroke-dashoffset:0;stroke-opacity:1"
           d="M 344.6875,-5.3125 L -5.3125,344.6875 L 5.3125,355.3125 L 355.3125,5.3125 L 344.6875,-5.3125 z "
           id="path2205" />
        <path
           style="opacity:0.5;fill:url(#linearGradient2256);fill-opacity:1;fill-rule:nonzero;stroke:none;stroke-width:15;stroke-linecap:butt;stroke-linejoin:miter;stroke-miterlimit:1;stroke-dasharray:none;stroke-dashoffset:0;stroke-opacity:1"
           d="M 394.6875,-5.3125 L -5.3125,394.6875 L 5.3125,405.3125 L 405.3125,5.3125 L 394.6875,-5.3125 z "
           id="path2207" />
        <path
           style="opacity:0.5;fill:url(#linearGradient2256);fill-opacity:1;fill-rule:nonzero;stroke:none;stroke-width:15;stroke-linecap:butt;stroke-linejoin:miter;stroke-miterlimit:1;stroke-dasharray:none;stroke-dashoffset:0;stroke-opacity:1"
           d="M 444.6875,-5.3125 L -5.3125,444.6875 L 5.3125,455.3125 L 455.3125,5.3125 L 444.6875,-5.3125 z "
           id="path2209" />
        <path
           style="opacity:0.5;fill:url(#linearGradient2256);fill-opacity:1;fill-rule:nonzero;stroke:none;stroke-width:15;stroke-linecap:butt;stroke-linejoin:miter;stroke-miterlimit:1;stroke-dasharray:none;stroke-dashoffset:0;stroke-opacity:1"
           d="M 494.6875,-5.3125 L -5.3125,494.6875 L 5.3125,505.3125 L 505.3125,5.3125 L 494.6875,-5.3125 z "
           id="path2211" />
        <path
           style="opacity:0.5;fill:url(#linearGradient2256);fill-opacity:1;fill-rule:nonzero;stroke:none;stroke-width:15;stroke-linecap:butt;stroke-linejoin:miter;stroke-miterlimit:1;stroke-dasharray:none;stroke-dashoffset:0;stroke-opacity:1"
           d="M 494.6875,44.6875 L 44.6875,494.6875 L 55.3125,505.3125 L 505.3125,55.3125 L 494.6875,44.6875 z "
           id="path2213" />
        <path
           style="opacity:0.5;fill:url(#linearGradient2256);fill-opacity:1;fill-rule:nonzero;stroke:none;stroke-width:15;stroke-linecap:butt;stroke-linejoin:miter;stroke-miterlimit:1;stroke-dasharray:none;stroke-dashoffset:0;stroke-opacity:1"
           d="M 494.6875,94.6875 L 94.6875,494.6875 L 105.3125,505.3125 L 505.3125,105.3125 L 494.6875,94.6875 z "
           id="path2215" />
        <path
           style="opacity:0.5;fill:url(#linearGradient2256);fill-opacity:1;fill-rule:nonzero;stroke:none;stroke-width:15;stroke-linecap:butt;stroke-linejoin:miter;stroke-miterlimit:1;stroke-dasharray:none;stroke-dashoffset:0;stroke-opacity:1"
           d="M 494.6875,144.6875 L 144.6875,494.6875 L 155.3125,505.3125 L 505.3125,155.3125 L 494.6875,144.6875 z "
           id="path2217" />
        <path
           style="opacity:0.5;fill:url(#linearGradient2256);fill-opacity:1;fill-rule:nonzero;stroke:none;stroke-width:15;stroke-linecap:butt;stroke-linejoin:miter;stroke-miterlimit:1;stroke-dasharray:none;stroke-dashoffset:0;stroke-opacity:1"
           d="M 494.6875,194.6875 L 194.6875,494.6875 L 205.3125,505.3125 L 505.3125,205.3125 L 494.6875,194.6875 z "
           id="path2219" />
        <path
           style="opacity:0.5;fill:url(#linearGradient2256);fill-opacity:1;fill-rule:nonzero;stroke:none;stroke-width:15;stroke-linecap:butt;stroke-linejoin:miter;stroke-miterlimit:1;stroke-dasharray:none;stroke-dashoffset:0;stroke-opacity:1"
           d="M 494.6875,244.6875 L 244.6875,494.6875 L 255.3125,505.3125 L 505.3125,255.3125 L 494.6875,244.6875 z "
           id="path2221" />
        <path
           style="opacity:0.5;fill:url(#linearGradient2256);fill-opacity:1;fill-rule:nonzero;stroke:none;stroke-width:15;stroke-linecap:butt;stroke-linejoin:miter;stroke-miterlimit:1;stroke-dasharray:none;stroke-dashoffset:0;stroke-opacity:1"
           d="M 494.6875,294.6875 L 294.6875,494.6875 L 305.3125,505.3125 L 505.3125,305.3125 L 494.6875,294.6875 z "
           id="path2223" />
        <path
           style="opacity:0.5;fill:url(#linearGradient2256);fill-opacity:1;fill-rule:nonzero;stroke:none;stroke-width:15;stroke-linecap:butt;stroke-linejoin:miter;stroke-miterlimit:1;stroke-dasharray:none;stroke-dashoffset:0;stroke-opacity:1"
           d="M 494.6875,344.6875 L 344.6875,494.6875 L 355.3125,505.3125 L 505.3125,355.3125 L 494.6875,344.6875 z "
           id="path2225" />
        <path
           style="opacity:0.5;fill:url(#linearGradient2256);fill-opacity:1;fill-rule:nonzero;stroke:none;stroke-width:15;stroke-linecap:butt;stroke-linejoin:miter;stroke-miterlimit:1;stroke-dasharray:none;stroke-dashoffset:0;stroke-opacity:1"
           d="M 494.6875,394.6875 L 394.6875,494.6875 L 405.3125,505.3125 L 505.3125,405.3125 L 494.6875,394.6875 z "
           id="path2227" />
        <path
           style="opacity:0.5;fill:url(#linearGradient2256);fill-opacity:1;fill-rule:nonzero;stroke:none;stroke-width:15;stroke-linecap:butt;stroke-linejoin:miter;stroke-miterlimit:1;stroke-dasharray:none;stroke-dashoffset:0;stroke-opacity:1"
           d="M 494.6875,444.6875 L 444.6875,494.6875 L 455.3125,505.3125 L 505.3125,455.3125 L 494.6875,444.6875 z "
           id="path2229" />
      </g>
    </pattern>
    <linearGradient
       x1="250"
       y1="400"
       x2="250"
       y2="20"
       id="linearGradient2286"
       xlink:href="#underGrad"
       gradientUnits="userSpaceOnUse"
       gradientTransform="matrix(0.707107,-0.707107,0.707107,0.707107,-75.26912,238.2843)" />
    <linearGradient
       x1="250"
       y1="400"
       x2="250"
       y2="20"
       id="linearGradient2301"
       xlink:href="#overGrad"
       gradientUnits="userSpaceOnUse"
       gradientTransform="matrix(0.707107,-0.707107,0.707107,0.707107,-75.26912,238.2843)" />
    <filter
       id="filter3792"
       x="-0.1799945"
       width="1.359989"
       y="-0.1800055"
       height="1.360011">
      <feGaussianBlur
         stdDeviation="21.168586"
         id="feGaussianBlur3794" />
    </filter>
    <linearGradient
       xlink:href="#underGrad"
       id="linearGradient3028"
       gradientUnits="userSpaceOnUse"
       gradientTransform="translate(-1.1815594e-4,7.488426e-5)"
       x1="250"
       y1="400"
       x2="250"
       y2="20" />
    <linearGradient
       xlink:href="#overGrad"
       id="linearGradient3031"
       gradientUnits="userSpaceOnUse"
       gradientTransform="translate(-1.1815594e-4,7.488426e-5)"
       x1="250"
       y1="400"
       x2="250"
       y2="20" />
  </defs>
  <path
     d="m 178.28426,148.28426 c 0,15.29031 20,24.90323 40,30 20,5.09677 20,19.80646 20,30 0,13.9627 0,46.03635 0,60 0,10.19354 0,24.90323 -20,30 -20,5.09677 -40,14.70969 -40,30 0,15.29031 90,100 100,100 10,0 100,-84.70969 100,-100 0,-15.29031 -20,-24.90323 -40,-30 -20,-5.09677 -20,-19.80646 -20,-30 0,-13.96365 0,-46.03729 0,-60 0,-10.19354 0,-24.90323 20,-30 20,-5.09677 40,-14.70969 40,-30 0,-15.29031 -90,-99.999998 -100,-99.999998 -10,0 -100,84.769418 -100,99.999998 z"
     style="fill:#000000;fill-opacity:0.13333333;stroke:none;filter:url(#filter3792)"
     id="path3022"
     transform="matrix(0.707107,0.707107,-0.707107,0.707107,221.7157,-115.2691)" />
  <path
     id="path2288"
     style="fill:url(#linearGradient3031);fill-opacity:1;fill-rule:nonzero;stroke:none"
     d="m 358.85082,101.15039 c -0.35337,-0.034 -0.45624,-0.0772 -0.8176,-0.11049 -11.6261,-1.06959 -27.53313,-1.877478 -43.42079,-2.099222 -15.88765,-0.221743 -31.9432,0.146513 -43.64176,1.082762 -0.0693,0.006 -0.0856,0.0165 -0.15464,0.0221 1.34249,3.06134 2.99602,6.46176 4.97185,9.78901 8.79539,14.81129 10.49409,34.16345 5.34749,47.64134 -5.14659,13.47788 -13.3887,20.63655 -16.99266,24.24051 -9.87313,9.87312 -32.55263,32.55262 -42.42642,42.42642 -3.60396,3.60396 -10.76263,11.84607 -24.24051,16.99266 -13.47789,5.1466 -32.83005,3.4479 -47.64134,-5.34749 -3.33626,-1.98118 -6.74348,-3.64988 -9.81111,-4.99395 -7.1e-4,0.0106 9.2e-4,0.035 0,0.0441 -0.004,0.0317 -0.0184,0.0786 -0.0221,0.11045 -7.1e-4,0.009 8.5e-4,0.0331 0,0.0441 -0.93762,11.69554 -1.28491,27.73639 -1.06066,43.61966 0.22424,15.88327 1.02671,31.7987 2.09922,43.42079 0.0333,0.36123 0.0764,0.46435 0.11049,0.81759 0.35324,0.0341 0.45636,0.0772 0.81759,0.11049 11.6221,1.07251 27.53752,1.87498 43.42079,2.09922 15.88327,0.22425 31.92412,-0.12304 43.61966,-1.06066 0.0106,-7e-4 0.0349,8.5e-4 0.0441,0 0.0318,-0.004 0.0788,-0.0184 0.11045,-0.0221 0.009,-7.1e-4 0.0332,9.2e-4 0.0441,0 -1.34407,-3.06763 -3.01276,-6.47484 -4.99394,-9.81111 -8.7954,-14.81129 -10.49409,-34.16345 -5.3475,-47.64133 5.14659,-13.47789 13.3887,-20.63655 16.99267,-24.24051 9.87379,-9.8738 32.55329,-32.55329 42.42642,-42.42642 3.60396,-3.60397 10.76262,-11.84608 24.24051,-16.99267 13.47788,-5.14659 32.83004,-3.4479 47.64133,5.3475 3.33627,1.98118 6.74348,3.64987 9.81111,4.99394 7.1e-4,-0.0106 -9.2e-4,-0.035 0,-0.0441 0.004,-0.0317 0.0185,-0.0787 0.0221,-0.11045 7.1e-4,-0.009 -8.5e-4,-0.0331 0,-0.0441 0.93762,-11.69554 1.28491,-27.73639 1.06066,-43.61966 -0.22424,-15.88327 -1.02671,-31.79869 -2.09922,-43.42079 -0.0333,-0.36123 -0.0764,-0.46435 -0.11049,-0.81759 z m -0.35356,99.83467 c -0.8746,1.14882 -1.24431,1.87751 -1.32582,2.2539 -0.01,0.0528 -0.0235,0.11582 -0.0221,0.15465 0.002,0.0182 0.0181,0.0513 0.0221,0.0662 0.004,0.009 -0.004,0.0363 0,0.0441 0.002,0.003 0.0195,0.0189 0.0221,0.0221 0.003,0.003 0.019,0.0196 0.0221,0.0221 0.004,0.002 0.0405,-0.001 0.0441,0 0.004,7.1e-4 0.0176,0.0219 0.0221,0.0221 0.009,7.1e-4 0.0346,9.2e-4 0.0441,0 0.005,-7.1e-4 0.0169,-0.0211 0.0221,-0.0221 0.006,-0.001 0.0387,0.002 0.0441,0 0.005,-0.002 0.0167,-0.0195 0.0221,-0.0221 0.0112,-0.006 0.0543,-0.0157 0.0662,-0.0221 0.0125,-0.007 0.0317,-0.036 0.0442,-0.0442 0.0189,-0.0132 0.0687,-0.0288 0.0883,-0.0442 0.28521,-0.23288 0.62586,-0.72147 0.7513,-1.32583 0.042,-0.20247 0.0884,-0.86861 0.13259,-1.10485 z M 258.99408,101.526 c -0.23637,0.0441 -0.90224,0.0906 -1.10485,0.13259 -0.61887,0.12811 -1.11976,0.48281 -1.34792,0.77339 -0.0151,0.0193 -0.032,0.0694 -0.0442,0.0883 -0.008,0.0122 -0.0378,0.0321 -0.0442,0.0442 -0.003,0.006 0.003,0.0384 0,0.0441 -0.003,0.006 -0.0197,0.0169 -0.0221,0.0221 -0.001,0.006 0.001,0.0389 0,0.0441 -7.1e-4,0.005 -0.0214,0.0171 -0.0221,0.0221 -0.001,0.01 -2.8e-4,0.0352 0,0.0441 0,0.004 0.0211,0.0182 0.0221,0.0221 0.002,0.008 -0.004,0.0371 0,0.0441 0.003,0.003 0.0192,0.0192 0.0221,0.0221 0.003,0.003 0.0186,0.0197 0.0221,0.0221 0.004,0.001 0.0395,-0.002 0.0441,0 0.005,7.1e-4 0.0168,0.021 0.0221,0.0221 0.006,0.001 0.0381,-4.9e-4 0.0441,0 0.31024,0.0111 1.05823,-0.32004 2.40858,-1.34792 z M 142.78547,216.45299 c -0.006,-0.004 -0.0364,0.002 -0.0441,0 -0.004,0 -0.0397,1.4e-4 -0.0441,0 -0.005,7e-4 -0.0392,-7.8e-4 -0.0441,0 -0.0156,0.004 -0.0492,0.0153 -0.0663,0.0221 -0.0291,0.0129 -0.0788,0.0463 -0.11045,0.0663 -0.0196,0.0125 -0.0685,0.0289 -0.0883,0.0442 -0.28737,0.23024 -0.62586,0.72146 -0.7513,1.32583 -0.042,0.20247 -0.0884,0.86861 -0.13258,1.10485 0.93861,-1.23289 1.30175,-1.97084 1.34792,-2.32019 7.1e-4,-0.008 -4.2e-4,-0.0371 0,-0.0441 0,-0.007 2.1e-4,-0.0378 0,-0.0441 -7e-4,-0.012 0.002,-0.0336 0,-0.0441 -7e-4,-0.005 -0.0204,-0.0176 -0.0221,-0.0221 -0.001,-0.004 0.002,-0.0403 0,-0.0441 -0.003,-0.003 -0.0193,-0.0193 -0.0221,-0.0221 -0.003,-0.003 -0.0188,-0.02 -0.0221,-0.0221 z m 100.71855,100.71855 c -0.004,-0.002 -0.04,0.002 -0.0441,0 -0.004,-0.001 -0.0168,-0.0211 -0.0221,-0.0221 -0.0106,-0.002 -0.0321,9.9e-4 -0.0441,0 -0.006,-7.1e-4 -0.0374,-7e-5 -0.0441,0 -0.007,0 -0.0366,-7.1e-4 -0.0441,0 -0.34936,0.0462 -1.08731,0.40932 -2.3202,1.34792 0.23625,-0.0442 0.90238,-0.0906 1.10486,-0.13258 0.60437,-0.12543 1.09555,-0.46395 1.32582,-0.7513 0.0155,-0.0197 0.0314,-0.0692 0.0442,-0.0883 0.0202,-0.0315 0.0534,-0.0814 0.0663,-0.11045 0.007,-0.0169 0.018,-0.0505 0.0221,-0.0663 7.1e-4,-0.005 -4.9e-4,-0.0394 0,-0.0441 0,-0.004 5e-4,-0.04 0,-0.0441 -0.002,-0.008 0.004,-0.0373 0,-0.0441 -0.002,-0.003 -0.0197,-0.0191 -0.0221,-0.0221 -0.003,-0.003 -0.0189,-0.0195 -0.0221,-0.0221 z" />
  <path
     id="path1402"
     style="fill:url(#linearGradient3028);fill-opacity:1;fill-rule:nonzero;stroke:none"
     d="m 384.17353,75.473013 c -8.80817,-6.962868 -130.55911,-10.508734 -141.24462,0.176777 -10.81189,10.811885 -3.46711,31.75139 7.07107,49.49749 10.53818,17.7461 0.13685,28.14743 -7.07107,35.35535 -9.87312,9.87312 -32.55263,32.55263 -42.42642,42.42642 -7.20792,7.20792 -17.60925,17.60925 -35.35535,7.07107 -17.7461,-10.53818 -38.6856,-17.88296 -49.49749,-7.07107 -10.81189,10.81189 -7.07107,134.35033 0,141.4214 7.07107,7.07107 130.60951,10.81189 141.4214,0 10.81189,-10.81189 3.46711,-31.75139 -7.07107,-49.49749 -10.53818,-17.7461 -0.13685,-28.14743 7.07107,-35.35535 9.87379,-9.87379 32.55329,-32.55329 42.42642,-42.42642 7.20792,-7.20792 17.60925,-17.60925 35.35535,-7.07107 17.7461,10.53818 38.6856,17.88296 49.49749,7.07107 10.81189,-10.81189 7.07107,-134.35033 0,-141.4214 -0.0552,-0.05522 -0.10742,-0.121948 -0.17678,-0.176777 z m -25.32327,25.676827 c 0.0341,0.35324 0.0772,0.45636 0.11049,0.81759 1.07251,11.6221 1.87498,27.53752 2.09922,43.42079 0.22425,15.88327 -0.12304,31.92412 -1.06066,43.61966 -7e-4,0.0106 8.5e-4,0.0349 0,0.0441 -0.004,0.0318 -0.0184,0.0788 -0.0221,0.11045 -7.1e-4,0.009 9.2e-4,0.0332 0,0.0441 -3.06763,-1.34407 -6.47484,-3.01277 -9.81111,-4.99395 -14.81129,-8.79539 -34.16345,-10.49409 -47.64133,-5.34749 -13.47792,5.14677 -20.63659,13.38888 -24.24055,16.99284 -9.87313,9.87313 -32.55263,32.55263 -42.42642,42.42642 -3.60396,3.60396 -11.84607,10.76263 -16.99267,24.24051 -5.14659,13.47789 -3.44789,32.83005 5.3475,47.64134 1.98118,3.33626 3.64988,6.74348 4.99394,9.81111 -0.0106,7e-4 -0.035,-9.2e-4 -0.0441,0 -0.0317,0.004 -0.0786,0.0184 -0.11045,0.0221 -0.009,7e-4 -0.0331,-8.5e-4 -0.0441,0 -11.69554,0.93761 -27.73639,1.2849 -43.61967,1.06066 -15.88327,-0.22425 -31.79869,-1.02671 -43.42078,-2.09923 -0.36124,-0.0333 -0.46435,-0.0764 -0.8176,-0.11048 -0.0341,-0.35324 -0.0771,-0.45636 -0.11048,-0.81759 -1.07251,-11.6221 -1.87498,-27.53752 -2.09923,-43.42079 -0.22424,-15.88327 0.12305,-31.92412 1.06066,-43.61967 7.1e-4,-0.0106 -8.4e-4,-0.0349 0,-0.0441 0.004,-0.0318 0.0184,-0.0788 0.0221,-0.11045 7e-4,-0.009 -9.2e-4,-0.0332 0,-0.0441 3.06762,1.34407 6.47484,3.01276 9.81111,4.99394 14.81128,8.79539 34.16345,10.49409 47.64133,5.3475 13.47774,-5.14674 20.63641,-13.38885 24.24037,-16.99281 9.87379,-9.87379 32.5533,-32.5533 42.42642,-42.42642 3.60396,-3.60396 11.84607,-10.76263 16.99267,-24.24051 5.14659,-13.47789 3.44789,-32.83005 -5.3475,-47.64134 -1.97583,-3.32725 -3.62936,-6.72767 -4.97185,-9.78901 0.069,-0.006 0.0854,-0.0165 0.15465,-0.0221 11.69855,-0.936246 27.7541,-1.304502 43.64176,-1.082759 15.88765,0.221744 31.79468,1.029632 43.42079,2.099229 0.36136,0.0332 0.46422,0.0765 0.81759,0.11048 z m -0.35355,99.83467 c -0.0442,0.23624 -0.0906,0.90238 -0.13258,1.10485 -0.12542,0.60439 -0.46608,1.09296 -0.7513,1.32583 -0.0197,0.0155 -0.0693,0.0312 -0.0883,0.0442 -0.0125,0.008 -0.0318,0.0374 -0.0442,0.0442 -0.012,0.006 -0.0547,0.0168 -0.0662,0.0221 -0.006,0.003 -0.0169,0.0197 -0.0221,0.0221 -0.006,0.001 -0.0389,-0.001 -0.0441,0 -0.005,7.1e-4 -0.0171,0.0213 -0.0221,0.0221 -0.009,7.1e-4 -0.0353,3.5e-4 -0.0441,0 -0.004,0 -0.0183,-0.0211 -0.0221,-0.0221 -0.004,-0.001 -0.0407,0.002 -0.0441,0 -0.003,-0.003 -0.0192,-0.0192 -0.0221,-0.0221 -0.003,-0.003 -0.0198,-0.0186 -0.0221,-0.0221 -0.004,-0.008 0.003,-0.0349 0,-0.0441 -0.004,-0.0151 -0.0206,-0.048 -0.0221,-0.0662 -0.001,-0.0388 0.0122,-0.10197 0.0221,-0.15465 0.0815,-0.37639 0.45122,-1.10508 1.32583,-2.2539 z m -99.50318,-99.45906 c -1.35035,1.02789 -2.09834,1.35906 -2.40858,1.34792 -0.006,-7e-4 -0.0385,8.5e-4 -0.0441,0 -0.006,-0.001 -0.0168,-0.0211 -0.0221,-0.0221 -0.004,-0.001 -0.0399,0.002 -0.0441,0 -0.003,-0.002 -0.019,-0.0195 -0.0221,-0.0221 -0.003,-0.003 -0.0196,-0.019 -0.0221,-0.0221 -0.004,-0.007 0.002,-0.0363 0,-0.0441 -7.1e-4,-0.004 -0.0219,-0.0176 -0.0221,-0.0221 -7.1e-4,-0.009 -9.9e-4,-0.0345 0,-0.0441 7e-4,-0.005 0.0211,-0.0168 0.0221,-0.0221 0.001,-0.006 -0.002,-0.0387 0,-0.0441 0.002,-0.005 0.0195,-0.0167 0.0221,-0.0221 0.003,-0.006 -0.003,-0.0383 0,-0.0441 0.006,-0.0121 0.0363,-0.032 0.0442,-0.0442 0.0121,-0.0192 0.0294,-0.0687 0.0442,-0.0883 0.22819,-0.29056 0.72902,-0.64531 1.34792,-0.7734 0.20261,-0.0419 0.86848,-0.0885 1.10485,-0.13258 z M 142.78488,216.45247 c 0.003,0.002 0.0191,0.0197 0.0221,0.0221 0.003,0.003 0.0195,0.019 0.0221,0.0221 0.002,0.004 -0.002,0.04 0,0.0441 0.001,0.004 0.0211,0.0168 0.0221,0.0221 0.002,0.0106 -9.9e-4,0.0321 0,0.0441 7e-4,0.006 7e-5,0.0374 0,0.0441 0,0.007 7e-4,0.0366 0,0.0441 -0.0462,0.34935 -0.40932,1.0873 -1.34793,2.3202 0.0442,-0.23625 0.0906,-0.90239 0.13259,-1.10486 0.12542,-0.60438 0.46395,-1.09556 0.7513,-1.32582 0.0197,-0.0155 0.0691,-0.0314 0.0883,-0.0442 0.0315,-0.0202 0.0814,-0.0534 0.11045,-0.0663 0.0169,-0.007 0.0505,-0.018 0.0662,-0.0221 0.005,-7.1e-4 0.0394,5e-4 0.0441,0 0.004,0 0.04,-4.9e-4 0.0441,0 0.008,0.002 0.0373,-0.004 0.0441,0 z m 100.71855,100.71855 c 0.003,0.003 0.0193,0.0193 0.0221,0.0221 0.003,0.003 0.0199,0.0188 0.0221,0.0221 0.004,0.006 -0.002,0.0364 0,0.0441 0,0.004 -1.4e-4,0.0397 0,0.0441 -7.1e-4,0.005 7.8e-4,0.0392 0,0.0441 -0.004,0.0156 -0.0153,0.0492 -0.0221,0.0663 -0.0129,0.0291 -0.0463,0.0788 -0.0663,0.11045 -0.0125,0.0196 -0.0289,0.0685 -0.0442,0.0883 -0.23024,0.28738 -0.72146,0.62586 -1.32582,0.7513 -0.20247,0.042 -0.86861,0.0884 -1.10486,0.13259 1.23289,-0.93861 1.97085,-1.30175 2.3202,-1.34793 0.008,-7e-4 0.037,4.3e-4 0.0441,0 0.007,0 0.0378,-2.1e-4 0.0441,0 0.012,7.1e-4 0.0336,-0.002 0.0441,0 0.005,7.1e-4 0.0176,0.0204 0.0221,0.0221 0.004,0.001 0.0403,-0.002 0.0441,0 z" />
  <path
     id="path1352"
     style="fill:none;stroke:#000000;stroke-width:15;stroke-linecap:round;stroke-linejoin:round;stroke-miterlimit:1;stroke-opacity:1;stroke-dasharray:none;stroke-dashoffset:0"
     d="m 242.92891,75.64979 c -10.81189,10.811885 -3.46711,31.75139 7.07107,49.49749 10.53818,17.7461 0.13685,28.14743 -7.07107,35.35535 -9.87312,9.87312 -32.55263,32.55263 -42.42642,42.42642 -7.20792,7.20792 -17.60925,17.60925 -35.35535,7.07107 -17.7461,-10.53818 -38.6856,-17.88296 -49.49749,-7.07107 -10.81189,10.81189 -7.07107,134.35033 0,141.4214 7.07107,7.07107 130.60951,10.81189 141.4214,0 10.81189,-10.81189 3.46711,-31.75139 -7.07107,-49.49749 -10.53818,-17.7461 -0.13685,-28.14743 7.07107,-35.35535 9.87379,-9.87379 32.55329,-32.55329 42.42642,-42.42642 7.20792,-7.20792 17.60925,-17.60925 35.35535,-7.07107 17.7461,10.53818 38.6856,17.88296 49.49749,7.07107 10.81189,-10.81189 7.07107,-134.35033 0,-141.4214 -7.07107,-7.07107 -130.65175,-10.76965 -141.4214,0 z" />
  <path
     id="path2303"
     style="fill:url(#pattern3024);fill-opacity:1;fill-rule:nonzero;stroke:none"
     d="m 358.85082,101.15039 c -0.35337,-0.034 -0.45624,-0.0772 -0.8176,-0.11049 -11.6261,-1.06959 -27.53313,-1.877478 -43.42079,-2.099222 -15.88765,-0.221743 -31.9432,0.146513 -43.64176,1.082762 -0.0693,0.006 -0.0856,0.0165 -0.15464,0.0221 1.34249,3.06134 2.99602,6.46176 4.97185,9.78901 8.79539,14.81129 10.49409,34.16345 5.34749,47.64134 -5.14659,13.47788 -13.3887,20.63655 -16.99266,24.24051 -9.87313,9.87312 -32.55263,32.55262 -42.42642,42.42642 -3.60396,3.60396 -10.76263,11.84607 -24.24051,16.99266 -13.47789,5.1466 -32.83005,3.4479 -47.64134,-5.34749 -3.33626,-1.98118 -6.74348,-3.64988 -9.81111,-4.99395 -7.1e-4,0.0106 9.2e-4,0.035 0,0.0441 -0.004,0.0317 -0.0184,0.0786 -0.0221,0.11045 -7.1e-4,0.009 8.5e-4,0.0331 0,0.0441 -0.93762,11.69554 -1.28491,27.73639 -1.06066,43.61966 0.22424,15.88327 1.02671,31.7987 2.09922,43.42079 0.0333,0.36123 0.0764,0.46435 0.11049,0.81759 0.35324,0.0341 0.45636,0.0772 0.81759,0.11049 11.6221,1.07251 27.53752,1.87498 43.42079,2.09922 15.88327,0.22425 31.92412,-0.12304 43.61966,-1.06066 0.0106,-7e-4 0.0349,8.5e-4 0.0441,0 0.0318,-0.004 0.0788,-0.0184 0.11045,-0.0221 0.009,-7.1e-4 0.0332,9.2e-4 0.0441,0 -1.34407,-3.06763 -3.01276,-6.47484 -4.99394,-9.81111 -8.7954,-14.81129 -10.49409,-34.16345 -5.3475,-47.64133 5.14659,-13.47789 13.3887,-20.63655 16.99267,-24.24051 9.87379,-9.8738 32.55329,-32.55329 42.42642,-42.42642 3.60396,-3.60397 10.76262,-11.84608 24.24051,-16.99267 13.47788,-5.14659 32.83004,-3.4479 47.64133,5.3475 3.33627,1.98118 6.74348,3.64987 9.81111,4.99394 7.1e-4,-0.0106 -9.2e-4,-0.035 0,-0.0441 0.004,-0.0317 0.0185,-0.0787 0.0221,-0.11045 7.1e-4,-0.009 -8.5e-4,-0.0331 0,-0.0441 0.93762,-11.69554 1.28491,-27.73639 1.06066,-43.61966 -0.22424,-15.88327 -1.02671,-31.79869 -2.09922,-43.42079 -0.0333,-0.36123 -0.0764,-0.46435 -0.11049,-0.81759 z m -0.35356,99.83467 c -0.8746,1.14882 -1.24431,1.87751 -1.32582,2.2539 -0.01,0.0528 -0.0235,0.11582 -0.0221,0.15465 0.002,0.0182 0.0181,0.0513 0.0221,0.0662 0.004,0.009 -0.004,0.0363 0,0.0441 0.002,0.003 0.0195,0.0189 0.0221,0.0221 0.003,0.003 0.019,0.0196 0.0221,0.0221 0.004,0.002 0.0405,-0.001 0.0441,0 0.004,7.1e-4 0.0176,0.0219 0.0221,0.0221 0.009,7.1e-4 0.0346,9.2e-4 0.0441,0 0.005,-7.1e-4 0.0169,-0.0211 0.0221,-0.0221 0.006,-0.001 0.0387,0.002 0.0441,0 0.005,-0.002 0.0167,-0.0195 0.0221,-0.0221 0.0112,-0.006 0.0543,-0.0157 0.0662,-0.0221 0.0125,-0.007 0.0317,-0.036 0.0442,-0.0442 0.0189,-0.0132 0.0687,-0.0288 0.0883,-0.0442 0.28521,-0.23288 0.62586,-0.72147 0.7513,-1.32583 0.042,-0.20247 0.0884,-0.86861 0.13259,-1.10485 z M 258.99408,101.526 c -0.23637,0.0441 -0.90224,0.0906 -1.10485,0.13259 -0.61887,0.12811 -1.11976,0.48281 -1.34792,0.77339 -0.0151,0.0193 -0.032,0.0694 -0.0442,0.0883 -0.008,0.0122 -0.0378,0.0321 -0.0442,0.0442 -0.003,0.006 0.003,0.0384 0,0.0441 -0.003,0.006 -0.0197,0.0169 -0.0221,0.0221 -0.001,0.006 0.001,0.0389 0,0.0441 -7.1e-4,0.005 -0.0214,0.0171 -0.0221,0.0221 -0.001,0.01 -2.8e-4,0.0352 0,0.0441 0,0.004 0.0211,0.0182 0.0221,0.0221 0.002,0.008 -0.004,0.0371 0,0.0441 0.003,0.003 0.0192,0.0192 0.0221,0.0221 0.003,0.003 0.0186,0.0197 0.0221,0.0221 0.004,0.001 0.0395,-0.002 0.0441,0 0.005,7.1e-4 0.0168,0.021 0.0221,0.0221 0.006,0.001 0.0381,-4.9e-4 0.0441,0 0.31024,0.0111 1.05823,-0.32004 2.40858,-1.34792 z M 142.78547,216.45299 c -0.006,-0.004 -0.0364,0.002 -0.0441,0 -0.004,0 -0.0397,1.4e-4 -0.0441,0 -0.005,7e-4 -0.0392,-7.8e-4 -0.0441,0 -0.0156,0.004 -0.0492,0.0153 -0.0663,0.0221 -0.0291,0.0129 -0.0788,0.0463 -0.11045,0.0663 -0.0196,0.0125 -0.0685,0.0289 -0.0883,0.0442 -0.28737,0.23024 -0.62586,0.72146 -0.7513,1.32583 -0.042,0.20247 -0.0884,0.86861 -0.13258,1.10485 0.93861,-1.23289 1.30175,-1.97084 1.34792,-2.32019 7.1e-4,-0.008 -4.2e-4,-0.0371 0,-0.0441 0,-0.007 2.1e-4,-0.0378 0,-0.0441 -7e-4,-0.012 0.002,-0.0336 0,-0.0441 -7e-4,-0.005 -0.0204,-0.0176 -0.0221,-0.0221 -0.001,-0.004 0.002,-0.0403 0,-0.0441 -0.003,-0.003 -0.0193,-0.0193 -0.0221,-0.0221 -0.003,-0.003 -0.0188,-0.02 -0.0221,-0.0221 z m 100.71855,100.71855 c -0.004,-0.002 -0.04,0.002 -0.0441,0 -0.004,-0.001 -0.0168,-0.0211 -0.0221,-0.0221 -0.0106,-0.002 -0.0321,9.9e-4 -0.0441,0 -0.006,-7.1e-4 -0.0374,-7e-5 -0.0441,0 -0.007,0 -0.0366,-7.1e-4 -0.0441,0 -0.34936,0.0462 -1.08731,0.40932 -2.3202,1.34792 0.23625,-0.0442 0.90238,-0.0906 1.10486,-0.13258 0.60437,-0.12543 1.09555,-0.46395 1.32582,-0.7513 0.0155,-0.0197 0.0314,-0.0692 0.0442,-0.0883 0.0202,-0.0315 0.0534,-0.0814 0.0663,-0.11045 0.007,-0.0169 0.018,-0.0505 0.0221,-0.0663 7.1e-4,-0.005 -4.9e-4,-0.0394 0,-0.0441 0,-0.004 5e-4,-0.04 0,-0.0441 -0.002,-0.008 0.004,-0.0373 0,-0.0441 -0.002,-0.003 -0.0197,-0.0191 -0.0221,-0.0221 -0.003,-0.003 -0.0189,-0.0195 -0.0221,-0.0221 z" />
</svg>
