<?xml version="1.0" encoding="UTF-8" standalone="no"?>
<svg
   xmlns:dc="http://purl.org/dc/elements/1.1/"
   xmlns:cc="http://creativecommons.org/ns#"
   xmlns:rdf="http://www.w3.org/1999/02/22-rdf-syntax-ns#"
   xmlns:svg="http://www.w3.org/2000/svg"
   xmlns="http://www.w3.org/2000/svg"
   xmlns:xlink="http://www.w3.org/1999/xlink"
   version="1.0"
   width="500"
   height="500"
   id="svg2">
  <metadata
     id="metadata50">
    <rdf:RDF>
      <cc:Work
         rdf:about="">
        <dc:format>image/svg+xml</dc:format>
        <dc:type
           rdf:resource="http://purl.org/dc/dcmitype/StillImage" />
      </cc:Work>
    </rdf:RDF>
  </metadata>
  <defs
     id="defs1">
    <pattern
       xlink:href="#pattern2270"
       id="pattern3214"
       patternTransform="translate(-5.3125,-5.3125)" />
    <linearGradient
       id="underGrad">
      <stop
         style="stop-color:#dddddd;stop-opacity:0.9"
         offset="0"
         id="stop2214" />
      <stop
         style="stop-color:#ffffff;stop-opacity:0.9"
         offset="1"
         id="stop2216" />
    </linearGradient>
    <linearGradient
       id="overGrad">
      <stop
         style="stop-color:#cccccc;stop-opacity:0.7"
         offset="0"
         id="stop2187" />
      <stop
         style="stop-color:#ffffff;stop-opacity:0.7"
         offset="1"
         id="stop2189" />
    </linearGradient>
    <linearGradient
       id="patternGrad">
      <stop
         style="stop-color:#bbbbbb;stop-opacity:0.8"
         offset="0"
         id="stop2252" />
      <stop
         style="stop-color:#eeeeee;stop-opacity:0.8"
         offset="1"
         id="stop2254" />
    </linearGradient>
    <linearGradient
       x1="250"
       y1="400"
       x2="250"
       y2="20"
       id="linearGradient2256"
       xlink:href="#patternGrad"
       gradientUnits="userSpaceOnUse" />
    <pattern
       id="pattern2270"
       patternTransform="translate(-5.3125,-5.3125)"
       height="510.625"
       width="510.625"
       patternUnits="userSpaceOnUse">
      <g
         transform="translate(5.3125,5.3125)"
         id="g2249">
        <path
           id="path1320"
           d="M 44.6875,-5.3125 L -5.3125,44.6875 L 5.3125,55.3125 L 55.3125,5.3125 L 44.6875,-5.3125 z "
           style="opacity:0.5;fill:url(#linearGradient2256);fill-opacity:1;fill-rule:nonzero;stroke:none;stroke-width:15;stroke-linecap:butt;stroke-linejoin:miter;stroke-miterlimit:1;stroke-dasharray:none;stroke-dashoffset:0;stroke-opacity:1" />
        <path
           id="path2195"
           d="M 94.6875,-5.3125 L -5.3125,94.6875 L 5.3125,105.3125 L 105.3125,5.3125 L 94.6875,-5.3125 z "
           style="opacity:0.5;fill:url(#linearGradient2256);fill-opacity:1;fill-rule:nonzero;stroke:none;stroke-width:15;stroke-linecap:butt;stroke-linejoin:miter;stroke-miterlimit:1;stroke-dasharray:none;stroke-dashoffset:0;stroke-opacity:1" />
        <path
           id="path2197"
           d="M 144.6875,-5.3125 L -5.3125,144.6875 L 5.3125,155.3125 L 155.3125,5.3125 L 144.6875,-5.3125 z "
           style="opacity:0.5;fill:url(#linearGradient2256);fill-opacity:1;fill-rule:nonzero;stroke:none;stroke-width:15;stroke-linecap:butt;stroke-linejoin:miter;stroke-miterlimit:1;stroke-dasharray:none;stroke-dashoffset:0;stroke-opacity:1" />
        <path
           id="path2199"
           d="M 194.6875,-5.3125 L -5.3125,194.6875 L 5.3125,205.3125 L 205.3125,5.3125 L 194.6875,-5.3125 z "
           style="opacity:0.5;fill:url(#linearGradient2256);fill-opacity:1;fill-rule:nonzero;stroke:none;stroke-width:15;stroke-linecap:butt;stroke-linejoin:miter;stroke-miterlimit:1;stroke-dasharray:none;stroke-dashoffset:0;stroke-opacity:1" />
        <path
           id="path2201"
           d="M 244.6875,-5.3125 L -5.3125,244.6875 L 5.3125,255.3125 L 255.3125,5.3125 L 244.6875,-5.3125 z "
           style="opacity:0.5;fill:url(#linearGradient2256);fill-opacity:1;fill-rule:nonzero;stroke:none;stroke-width:15;stroke-linecap:butt;stroke-linejoin:miter;stroke-miterlimit:1;stroke-dasharray:none;stroke-dashoffset:0;stroke-opacity:1" />
        <path
           id="path2203"
           d="M 294.6875,-5.3125 L -5.3125,294.6875 L 5.3125,305.3125 L 305.3125,5.3125 L 294.6875,-5.3125 z "
           style="opacity:0.5;fill:url(#linearGradient2256);fill-opacity:1;fill-rule:nonzero;stroke:none;stroke-width:15;stroke-linecap:butt;stroke-linejoin:miter;stroke-miterlimit:1;stroke-dasharray:none;stroke-dashoffset:0;stroke-opacity:1" />
        <path
           id="path2205"
           d="M 344.6875,-5.3125 L -5.3125,344.6875 L 5.3125,355.3125 L 355.3125,5.3125 L 344.6875,-5.3125 z "
           style="opacity:0.5;fill:url(#linearGradient2256);fill-opacity:1;fill-rule:nonzero;stroke:none;stroke-width:15;stroke-linecap:butt;stroke-linejoin:miter;stroke-miterlimit:1;stroke-dasharray:none;stroke-dashoffset:0;stroke-opacity:1" />
        <path
           id="path2207"
           d="M 394.6875,-5.3125 L -5.3125,394.6875 L 5.3125,405.3125 L 405.3125,5.3125 L 394.6875,-5.3125 z "
           style="opacity:0.5;fill:url(#linearGradient2256);fill-opacity:1;fill-rule:nonzero;stroke:none;stroke-width:15;stroke-linecap:butt;stroke-linejoin:miter;stroke-miterlimit:1;stroke-dasharray:none;stroke-dashoffset:0;stroke-opacity:1" />
        <path
           id="path2209"
           d="M 444.6875,-5.3125 L -5.3125,444.6875 L 5.3125,455.3125 L 455.3125,5.3125 L 444.6875,-5.3125 z "
           style="opacity:0.5;fill:url(#linearGradient2256);fill-opacity:1;fill-rule:nonzero;stroke:none;stroke-width:15;stroke-linecap:butt;stroke-linejoin:miter;stroke-miterlimit:1;stroke-dasharray:none;stroke-dashoffset:0;stroke-opacity:1" />
        <path
           id="path2211"
           d="M 494.6875,-5.3125 L -5.3125,494.6875 L 5.3125,505.3125 L 505.3125,5.3125 L 494.6875,-5.3125 z "
           style="opacity:0.5;fill:url(#linearGradient2256);fill-opacity:1;fill-rule:nonzero;stroke:none;stroke-width:15;stroke-linecap:butt;stroke-linejoin:miter;stroke-miterlimit:1;stroke-dasharray:none;stroke-dashoffset:0;stroke-opacity:1" />
        <path
           id="path2213"
           d="M 494.6875,44.6875 L 44.6875,494.6875 L 55.3125,505.3125 L 505.3125,55.3125 L 494.6875,44.6875 z "
           style="opacity:0.5;fill:url(#linearGradient2256);fill-opacity:1;fill-rule:nonzero;stroke:none;stroke-width:15;stroke-linecap:butt;stroke-linejoin:miter;stroke-miterlimit:1;stroke-dasharray:none;stroke-dashoffset:0;stroke-opacity:1" />
        <path
           id="path2215"
           d="M 494.6875,94.6875 L 94.6875,494.6875 L 105.3125,505.3125 L 505.3125,105.3125 L 494.6875,94.6875 z "
           style="opacity:0.5;fill:url(#linearGradient2256);fill-opacity:1;fill-rule:nonzero;stroke:none;stroke-width:15;stroke-linecap:butt;stroke-linejoin:miter;stroke-miterlimit:1;stroke-dasharray:none;stroke-dashoffset:0;stroke-opacity:1" />
        <path
           id="path2217"
           d="M 494.6875,144.6875 L 144.6875,494.6875 L 155.3125,505.3125 L 505.3125,155.3125 L 494.6875,144.6875 z "
           style="opacity:0.5;fill:url(#linearGradient2256);fill-opacity:1;fill-rule:nonzero;stroke:none;stroke-width:15;stroke-linecap:butt;stroke-linejoin:miter;stroke-miterlimit:1;stroke-dasharray:none;stroke-dashoffset:0;stroke-opacity:1" />
        <path
           id="path2219"
           d="M 494.6875,194.6875 L 194.6875,494.6875 L 205.3125,505.3125 L 505.3125,205.3125 L 494.6875,194.6875 z "
           style="opacity:0.5;fill:url(#linearGradient2256);fill-opacity:1;fill-rule:nonzero;stroke:none;stroke-width:15;stroke-linecap:butt;stroke-linejoin:miter;stroke-miterlimit:1;stroke-dasharray:none;stroke-dashoffset:0;stroke-opacity:1" />
        <path
           id="path2221"
           d="M 494.6875,244.6875 L 244.6875,494.6875 L 255.3125,505.3125 L 505.3125,255.3125 L 494.6875,244.6875 z "
           style="opacity:0.5;fill:url(#linearGradient2256);fill-opacity:1;fill-rule:nonzero;stroke:none;stroke-width:15;stroke-linecap:butt;stroke-linejoin:miter;stroke-miterlimit:1;stroke-dasharray:none;stroke-dashoffset:0;stroke-opacity:1" />
        <path
           id="path2223"
           d="M 494.6875,294.6875 L 294.6875,494.6875 L 305.3125,505.3125 L 505.3125,305.3125 L 494.6875,294.6875 z "
           style="opacity:0.5;fill:url(#linearGradient2256);fill-opacity:1;fill-rule:nonzero;stroke:none;stroke-width:15;stroke-linecap:butt;stroke-linejoin:miter;stroke-miterlimit:1;stroke-dasharray:none;stroke-dashoffset:0;stroke-opacity:1" />
        <path
           id="path2225"
           d="M 494.6875,344.6875 L 344.6875,494.6875 L 355.3125,505.3125 L 505.3125,355.3125 L 494.6875,344.6875 z "
           style="opacity:0.5;fill:url(#linearGradient2256);fill-opacity:1;fill-rule:nonzero;stroke:none;stroke-width:15;stroke-linecap:butt;stroke-linejoin:miter;stroke-miterlimit:1;stroke-dasharray:none;stroke-dashoffset:0;stroke-opacity:1" />
        <path
           id="path2227"
           d="M 494.6875,394.6875 L 394.6875,494.6875 L 405.3125,505.3125 L 505.3125,405.3125 L 494.6875,394.6875 z "
           style="opacity:0.5;fill:url(#linearGradient2256);fill-opacity:1;fill-rule:nonzero;stroke:none;stroke-width:15;stroke-linecap:butt;stroke-linejoin:miter;stroke-miterlimit:1;stroke-dasharray:none;stroke-dashoffset:0;stroke-opacity:1" />
        <path
           id="path2229"
           d="M 494.6875,444.6875 L 444.6875,494.6875 L 455.3125,505.3125 L 505.3125,455.3125 L 494.6875,444.6875 z "
           style="opacity:0.5;fill:url(#linearGradient2256);fill-opacity:1;fill-rule:nonzero;stroke:none;stroke-width:15;stroke-linecap:butt;stroke-linejoin:miter;stroke-miterlimit:1;stroke-dasharray:none;stroke-dashoffset:0;stroke-opacity:1" />
      </g>
    </pattern>
    <linearGradient
       x1="250"
       y1="400"
       x2="250"
       y2="20"
       id="linearGradient2454"
       xlink:href="#underGrad"
       gradientUnits="userSpaceOnUse" />
    <linearGradient
       x1="250"
       y1="400"
       x2="250"
       y2="20"
       id="linearGradient2472"
       xlink:href="#overGrad"
       gradientUnits="userSpaceOnUse" />
    <linearGradient
       x1="250"
       y1="400"
       x2="250"
       y2="20"
       id="linearGradient2493"
       xlink:href="#underGrad"
       gradientUnits="userSpaceOnUse" />
    <linearGradient
       x1="250"
       y1="400"
       x2="250"
       y2="20"
       id="linearGradient2508"
       xlink:href="#underGrad"
       gradientUnits="userSpaceOnUse" />
    <filter
       id="filter3806"
       x="-0.18137282"
       width="1.3627456"
       y="-0.1786478"
       height="1.3572956">
      <feGaussianBlur
         stdDeviation="28.753058"
         id="feGaussianBlur3808" />
    </filter>
    <linearGradient
       xlink:href="#underGrad"
       id="linearGradient3218"
       gradientUnits="userSpaceOnUse"
       x1="250"
       y1="400"
       x2="250"
       y2="20" />
    <linearGradient
       xlink:href="#overGrad"
       id="linearGradient3221"
       gradientUnits="userSpaceOnUse"
       x1="250"
       y1="400"
       x2="250"
       y2="20" />
    <linearGradient
       xlink:href="#underGrad"
       id="linearGradient3225"
       gradientUnits="userSpaceOnUse"
       x1="250"
       y1="400"
       x2="250"
       y2="20" />
    <linearGradient
       xlink:href="#underGrad"
       id="linearGradient3229"
       gradientUnits="userSpaceOnUse"
       x1="250"
       y1="400"
       x2="250"
       y2="20" />
  </defs>
  <path
     id="path3031"
     d="M 243.84375,61.71875 C 203.30294,61.51525 141.63715,72.97303 120.5625,118.5 c -4.1449,8.95411 -7.45981,28.01358 -8.28125,47 -11.03013,-2.12453 -23.68933,0.79198 -28.34375,7 -12.69637,16.93427 10.91615,28.38534 7.125,44.9375 -3.7253,16.26464 -41.412461,16.86768 -36.90625,40.53125 3.533631,18.55623 33.36795,33.38112 36.40625,22.9375 2.29771,-7.89797 11.07668,-26.44382 22.875,-12.21875 2.36367,2.84985 12.59474,9.36729 25.6875,17.1875 -0.60319,7.26605 0.10587,13.49945 1.1875,21.8125 6.81005,5.42575 26.991,4.92707 37.71875,0.90625 10.85688,6.31397 20.70425,12.14794 27.5625,16.53125 -35.98494,19.31385 -67.71435,35.26346 -75.875,38.375 -15.90666,6.06497 -10.20943,-5.22289 -28.53125,-11.0625 -18.3218,-5.83958 -19.43398,-18.01451 -33.96875,-7.3125 -15.098163,11.11682 -16.621779,20.87227 -11,30.375 8.958,15.14207 35.98109,15.52232 33.65625,17.84375 -20.82889,20.79849 -24.17022,29.27635 16.65625,52.25 16.46229,9.26356 32.6806,-10.64198 38.0625,-20.09375 3.95033,-6.93764 -13.38241,-24.18377 1.15625,-32.25 8.67057,-4.81053 69.62993,-35.15071 94.9375,-46.03125 35.7341,18.40651 93.42663,43.8181 93.71875,50.25 0.62432,13.74631 -22.09033,11.66216 -5.625,35.3125 5.69482,8.1799 28.67199,10.05744 55.15625,9.28125 18.63048,-0.54601 44.59306,-25.35608 20.21875,-33.375 -12.86164,-4.23135 -18.52173,-18.46133 -19.28125,-18.03125 -20.91701,11.84416 -17.84905,10.00259 36.875,-21.25 15.01568,-8.57538 17.16309,-22.23118 -1.0625,-36.25 -16.78024,-12.90706 -58.46876,-12.80549 -58.46875,4.5625 0,7.56954 0.69125,16.73084 -12.84375,19.78125 -6.59114,1.48545 -34.76041,-12.56316 -68.59375,-31.5625 7.15064,-4.82886 14.8112,-10.14751 22.46875,-15.46875 5.37977,-0.0614 10.47552,-0.94782 13.625,-2.84375 0.005,0.0867 -0.005,0.22843 0,0.3125 4.63906,3.83226 26.66119,5.36074 37.03125,-0.5 1.56343,-6.43002 -0.67311,-18.89001 -1.8125,-27 0.94282,-0.30404 1.8284,-0.54145 2.59375,-0.65625 13.60826,-2.04117 20.59806,1.5905 49.3125,-0.84375 9.9314,-0.8419 17.28616,-9.06626 22.40625,-35.0625 3.602,-18.28843 -6.961,-54.85475 -26.28125,-37.96875 -17.41704,15.22257 9.73984,28.55901 -13.34375,19.59375 -4.45141,-1.72885 -7.24473,-3.97988 -8.53125,-7.34375 -0.003,-0.009 0.003,-0.0223 0,-0.0312 2.58512,-7.59924 3.8676,-15.88027 4.15625,-24.46875 1.24895,-3.23544 2.74013,-6.76687 4.4375,-10.6875 2.71162,-6.26336 -0.15464,-10.45732 -5.90625,-12.6875 -2.97837,-19.5074 -9.91565,-38.76379 -18.15625,-53.4688 C 344.24658,83.73814 287.05916,64.99606 259.75,62.46875 c -4.74979,-0.43957 -10.11471,-0.72093 -15.90625,-0.75 z m -45.4375,59.75 c 9.95135,-0.0833 18.87734,1.25991 23.375,4.53125 19.63023,14.27787 -3.41798,33.70428 -11.75,40.0625 -13.1522,10.03652 -47.17277,18.0904 -54.09375,10.375 -8.97769,-10.00819 -14.07492,-31.65154 0,-44.6875 6.47429,-5.99639 25.88316,-10.14236 42.46875,-10.28125 z m 87.40625,0 c 17.07541,-0.28093 38.13949,3.98504 44.9375,10.28125 14.07492,13.03596 8.97769,34.67931 0,44.6875 -6.92098,7.7154 -40.9728,-0.33848 -54.125,-10.375 -8.33202,-6.35822 -31.38023,-25.78464 -11.75,-40.0625 4.12286,-2.99872 11.99324,-4.3841 20.9375,-4.53125 z M 226.1875,192.75 c 5.09516,0 17.59375,9.00121 17.59375,15.0625 0,8.40224 15.5127,-22.71111 19.65625,-9.875 4.95686,15.35562 8.625,14.08261 8.625,30.34375 0,17.17624 -1.24522,1.375 -28.96875,1.375 -6.93919,0 -29.65625,7.26519 -29.65625,-4.5625 0,-8.25965 9.10861,-19.49874 12.75,-32.34375 z m -92.40625,32.8125 c 5.92718,5.22951 11.3418,11.1652 11.59375,17.5625 -3.98303,-2.71857 -6.91539,-4.80464 -8.5,-6.09375 -5.50637,-4.47951 -5.1267,-7.79151 -3.09375,-11.46875 z m 129.1875,50.3125 c 6.57919,-0.0467 14.45526,0.78287 22.9375,2.46875 -0.0223,0.45451 -0.0439,0.99804 -0.0625,1.46875 -10.97868,6.63733 -23.14606,13.6906 -35.75,20.8125 0.0667,-7.85874 0.21875,-13.28666 0.21875,-23 3.20369,-1.15268 7.53911,-1.71367 12.65625,-1.75 z"
     style="fill:#000000;fill-opacity:0.13333333;stroke:none;filter:url(#filter3806)" />
  <path
     id="path2482"
     style="fill:url(#linearGradient3229);fill-opacity:1;fill-rule:evenodd;stroke:none"
     d="m 357.57198,129.33166 c -4.66592,0.83027 -9.39826,2.17131 -13.79839,3.9879 -19.56797,8.07857 -16.47423,28.11609 -14.00146,45.30714 1.87357,13.02526 7.37513,13.27937 3.24935,26.52626 -5.45919,17.52813 -182.13303,110.28128 -203.13895,118.29055 -15.90664,6.06497 -10.21365,-5.18526 -28.53546,-11.02486 -18.321835,-5.83958 -19.442852,-18.03831 -33.977632,-7.3363 -15.098159,11.11681 -16.603452,20.89731 -10.981674,30.40003 8.36313,14.13655 32.452276,15.41322 33.722789,17.40859 0.02257,0.0419 0.0558,0.10576 0.05791,0.14844 -0.0017,0.0343 -0.02459,0.099 -0.03984,0.13396 -0.02339,0.044 -0.05599,0.0995 -0.101394,0.1448 -20.828903,20.7985 -24.157599,29.26928 16.668881,52.24293 16.46231,9.26356 32.67989,-10.61876 38.06178,-20.07053 3.95032,-6.93765 -13.40819,-24.21424 1.13048,-32.28048 10.17546,-5.64546 92.57944,-46.54491 104.5732,-49.75864 18.7928,-5.03553 86.61887,-61.02315 104.40136,-63.69045 13.60823,-2.04118 20.57374,1.58123 49.28818,-0.85301 9.93138,-0.8419 17.29042,-9.05279 22.41052,-35.04902 3.60196,-18.28844 -6.95587,-54.869 -26.27613,-37.983 -12.17832,10.64391 -2.56573,20.38692 -3.57292,22.20782 -0.47845,0.73555 -2.90223,0.0661 -9.75516,-2.59546 -12.94957,-5.02937 -12.07625,-14.62289 0.0168,-42.55569 5.44774,-12.58327 -11.53087,-16.7811 -29.40222,-13.60098 z M 115.45502,386.31015 c 0.036,0.0974 0.0754,0.2164 0.12667,0.35845 -0.037,-0.10989 -0.0877,-0.23134 -0.12667,-0.35845 z m 0.14295,0.45078 c 0.0297,0.0823 0.0453,0.16016 0.0742,0.24078 -0.0272,-0.074 -0.0442,-0.15366 -0.0742,-0.24078 z m 0.12124,0.32768 c 0.0225,0.0627 0.0442,0.1257 0.0633,0.17922 0.0257,0.072 0.0421,0.10376 0.0579,0.14845 -0.0158,-0.0368 -0.0368,-0.096 -0.0579,-0.14845 -0.0211,-0.0524 -0.0379,-0.11218 -0.0633,-0.17922 z" />
  <path
     id="path2320"
     style="fill:none;stroke:#000000;stroke-width:10;stroke-linecap:butt;stroke-linejoin:round;stroke-miterlimit:3.71086669;stroke-opacity:1;stroke-dasharray:none"
     d="M 101.19728,312.44564 C 82.875484,306.60606 81.743661,294.42417 67.208886,305.12618 52.110727,316.243 50.606041,326.00092 56.22782,335.50365 c 8.957996,15.14207 35.957092,15.52239 33.632251,17.84382 -20.828893,20.79849 -24.157842,29.25857 16.668629,52.23222 16.46229,9.26356 32.68222,-10.61661 38.06412,-20.06838 3.95033,-6.93764 -13.39709,-24.20137 1.14157,-32.2676 10.17544,-5.64545 92.57853,-46.55974 104.57229,-49.77347 18.79282,-5.03553 86.60665,-61.02667 104.38914,-63.69398 13.60826,-2.04117 20.58628,1.59893 49.30072,-0.83532 9.9314,-0.8419 17.29851,-9.06036 22.4186,-35.0566 3.602,-18.28843 -6.95701,-54.86173 -26.27726,-37.97573 -17.41704,15.22257 9.73543,28.56036 -13.34816,19.5951 -12.94956,-5.02937 -12.05112,-14.60261 0.0419,-42.53541 6.87003,-15.86855 -21.96478,-18.38672 -43.21822,-9.61229 -19.56796,8.07858 -16.46212,28.11061 -13.98935,45.30166 1.87357,13.02525 7.37959,13.28051 3.25381,26.52739 -5.45918,17.52813 -182.14301,110.29049 -203.14893,118.29976 -15.90666,6.06497 -10.20984,-5.19957 -28.53166,-11.03918 z" />
  <path
     id="path2497"
     style="fill:url(#linearGradient3225);fill-opacity:1;fill-rule:evenodd;stroke:none"
     d="m 111.71038,125.38246 c -10.76276,-1.73687 -22.790623,1.20973 -27.292348,7.21408 -12.696341,16.93427 10.942526,28.37217 7.151368,44.92432 -3.725259,16.26464 -41.420899,16.88606 -36.914685,40.54963 3.533649,18.55622 33.378348,33.36553 36.416652,22.92192 2.297685,-7.89798 11.076293,-26.4385 22.874593,-12.21342 7.4288,8.95677 92.2342,53.96413 101.01423,62.74416 13.7573,13.7573 119.55631,57.31052 119.95185,66.01991 0.62431,13.74631 -22.08852,11.65966 -5.62319,35.30998 5.69482,8.17991 28.64863,10.05337 55.13288,9.27717 18.63049,-0.54599 44.59575,-25.3199 20.22144,-33.33883 -12.15831,-3.99996 -17.87172,-16.95579 -19.1026,-17.99679 -0.005,-0.004 -0.0206,-0.0327 -0.0254,-0.0362 -0.005,-0.003 -0.0263,-0.003 -0.0308,-0.005 -0.004,-0.002 -0.0266,-0.004 -0.0308,-0.005 -0.004,-10e-4 -0.0269,-0.004 -0.0308,-0.005 -0.004,-9e-5 -0.0274,-0.006 -0.0308,-0.005 -6.20973,3.51624 -10.33016,5.82929 -11.5902,6.524 2.49686,-1.46816 16.86462,-9.73402 48.43155,-27.76171 15.01563,-8.57537 17.16335,-22.24788 -1.06225,-36.26668 -16.78022,-12.90707 -58.43288,-12.78892 -58.43287,4.57906 0,7.56953 0.69029,16.70678 -12.84469,19.75719 -17.90945,4.03626 -195.09173,-106.2673 -212.53091,-120.45432 -13.20575,-10.74308 7.52585,-14.65816 3.42218,-33.44511 -4.10366,-18.78693 -5.84981,-24.27356 -15.61624,-32.54999 -3.60344,-3.05367 -8.38621,-4.91813 -13.45831,-5.73666 z" />
  <path
     id="path2318"
     style="fill:none;stroke:#000000;stroke-width:10;stroke-linecap:butt;stroke-linejoin:round;stroke-miterlimit:3.71086669;stroke-opacity:1;stroke-dasharray:none"
     d="m 140.27885,163.58047 c -4.10367,-18.78693 -5.83866,-24.27082 -15.6051,-32.54723 -11.24973,-9.53341 -34.119868,-7.36901 -40.743093,1.46497 -12.696371,16.93427 10.924824,28.37344 7.13367,44.9256 -3.725297,16.26464 -41.40632,16.888 -36.900109,40.55157 3.533631,18.55623 33.373479,33.37392 36.411784,22.9303 2.297709,-7.89797 11.068018,-26.43314 22.866338,-12.20807 7.42876,8.95678 92.2602,53.95838 101.04024,62.73842 13.75731,13.7573 119.54085,57.32042 119.93641,66.02983 0.62432,13.74631 -22.09163,11.6576 -5.6263,35.30794 5.69482,8.1799 28.65372,10.0543 55.13798,9.27811 18.63048,-0.54601 44.60786,-25.33573 20.23355,-33.35465 -12.86164,-4.23135 -18.51859,-18.47679 -19.27811,-18.04671 -20.91701,11.84416 -17.86635,10.02119 36.8577,-21.2314 15.01568,-8.57538 17.16343,-22.24422 -1.06216,-36.26304 -16.78024,-12.90706 -58.44953,-12.80347 -58.44952,4.56452 0,7.56954 0.68951,16.71602 -12.84549,19.76643 -17.90941,4.03627 -195.08688,-106.2801 -212.52606,-120.46713 -13.20576,-10.74307 7.52194,-14.65252 3.41827,-33.43946 z" />
  <path
     id="path2456"
     style="fill:url(#linearGradient3221);fill-opacity:1;stroke:none"
     d="m 243.78125,51.78125 c -6.63691,0.09613 -14.05183,0.68112 -21.59375,1.5625 5.86856,1.108882 12.08174,3.147027 19.3125,8.40625 1.36426,0.992283 2.60899,2.291041 3.90625,3.46875 1.29726,-1.17771 2.54199,-2.476467 3.90625,-3.46875 6.68319,-4.860951 12.45748,-6.943769 17.9375,-8.125 -3.23592,-0.647308 -6.07156,-1.11379 -8.21875,-1.3125 -3.79737,-0.351426 -8.27762,-0.528361 -13.21875,-0.53125 -0.66927,-3.91e-4 -1.34467,-0.0099 -2.03125,0 z M 353.25,158.3125 c -10.91686,10.92373 -21.16415,10.82069 -28.78125,11.125 -8.05658,0.32186 -15.23893,-0.64126 -22.5,-2.15625 -0.21222,-0.0443 -0.41321,-0.11151 -0.625,-0.15625 1.66649,6.05043 2.78125,13.56605 2.78125,21.15625 0,2.33043 0.0203,4.34478 -0.1875,7.1875 -0.20503,2.80452 0.60081,6.53999 -4.4375,15.21875 1.65597,0.69974 3.2457,1.5469 4.75,2.53125 6.9333,-4.24608 13.81222,-8.09375 13.8125,-8.09375 1.1e-4,0 3.56285,2.0311 5.25,2.96875 0.7971,-3.81106 1.98266,-7.9045 4.40625,-12.75 7.00232,-13.99977 17.67173,-18.60235 20.125,-20.25 1.03497,-0.6951 1.41507,-0.82763 1.59375,-0.9375 0.049,-0.0325 0.094,-0.0765 0.125,-0.125 0.008,-0.0131 0.0236,-0.047 0.0312,-0.0625 0.0939,-0.20237 0.22978,-0.62283 0.71875,-1.625 1.68714,-3.45788 2.56504,-8.403 2.9375,-14.03125 z m -77.875,4.0625 c 0.12893,0.96202 0.18736,1.97818 0.25,3.03125 0.0508,0.0187 0.10592,0.0439 0.15625,0.0625 -0.0144,-0.87219 -0.0992,-1.75038 -0.40625,-3.09375 z m 0.34375,4.21875 c 0.007,0.23183 0.0629,0.42284 0.0937,0.625 -0.009,-0.22737 -0.006,-0.45268 0,-0.625 -0.004,-1.4e-4 -0.0273,-5e-5 -0.0312,0 -0.0127,6e-4 -0.0514,4.1e-4 -0.0625,0 z m -87.03125,0.71875 c -7.20827,1.49656 -14.37616,2.44456 -22.375,2.125 -1.32347,-0.0529 -2.84132,-0.13738 -4.3125,-0.21875 3.07724,3.1702 6.25635,6.76736 9.21875,11.90625 4.06586,7.05308 7.60938,17.85661 5.625,29.46875 -1.28495,7.5191 -2.29599,14.89831 -3.3125,21.84375 17.73407,-4.4e-4 38.84375,-2.7e-4 38.84375,0 0,0.0178 0,0.053 0,0.0937 0,0.0815 0,0.19714 0,0.375 0,0.036 0,0.0223 0,0.0625 0,0.37223 0,1.95951 0,2.65625 5.04687,-3e-5 5.6182,10e-6 10.09375,0 0.32756,-4.87368 1.84011,-9.59368 4.40625,-13.75 -5.0278,0.23565 -11.09566,0.19547 -19.78125,-3.625 C 197.03319,213.82474 185.5,197.64514 185.5,185.09375 c -1e-5,-7.81918 1.43132,-13.37213 3.1875,-17.78125 z m 92.875,0.40625 c 0.35258,0.15784 0.88406,0.36753 1.1875,0.5 -0.23424,-0.11594 -0.62765,-0.30423 -1.1875,-0.5 z m 1.21875,0.53125 c 0.0485,0.0213 0.0933,0.0481 0.125,0.0625 -0.0315,-0.0177 -0.0795,-0.0393 -0.125,-0.0625 z m 0.1875,0.0937 c 0.0144,0.006 0.0225,0.0283 0.0312,0.0312 -0.006,-0.005 -0.0194,-0.0234 -0.0312,-0.0312 z m 4.6875,68.59375 c -0.002,0.003 0.002,0.0274 0,0.0312 1.1e-4,0.004 -6.1e-4,0.0259 0,0.0312 0.028,0.1841 0.22581,0.93173 0.28125,1.21875 1.2e-4,-0.0885 10e-4,-0.18123 0,-0.25 -0.003,-0.20259 0.008,-0.51536 0,-0.625 -0.0426,-0.0711 -0.12697,-0.24562 -0.1875,-0.34375 -0.003,-0.005 0.003,-0.0267 0,-0.0312 -0.006,-0.008 -0.0254,-0.0255 -0.0312,-0.0312 -0.003,-0.002 -0.0286,0.002 -0.0312,0 -0.002,0.002 -0.0294,-0.003 -0.0312,0 z" />
  <path
     id="path2443"
     style="fill:url(#linearGradient3218);fill-opacity:1;stroke:none"
     d="M 242.4086,21.71875 C 201.91456,22.24868 143.41842,34.395748 123.00235,78.5 c -8.5571,18.485688 -13.55501,80.04583 -0.46875,95.125 6.54311,7.53958 27.35268,18.90163 25.125,31.9375 -2.17027,12.69974 -3.79996,26.37714 -4.90625,32.0625 -2.21258,11.37072 -1.46497,18.80323 0,30.0625 7.32483,5.8359 30.14242,4.82072 40,-0.0625 -0.30875,-9.15604 -0.035,-26.14191 0,-29.5 0,-17.46026 0,22.26478 0,29.5 0,0.0613 0,0.19362 0,0.25 4.63906,5.77493 23.00426,6.1236 30,-0.46875 0,0.075 0,0.14583 0,0.21875 15.13798,5.28662 23.1158,7.67789 39.71875,-0.21875 0,-12.28697 0.28125,-17.49428 0.28125,-29.78125 7.32272,-2.6347 20.51422,-2.27837 35.59375,0.71875 -0.35108,7.15384 -0.26957,16.26403 0.21875,29.28125 8.30146,3.58808 23.99841,4.06436 30.75,0 0.006,0.10364 -0.006,0.21257 0,0.3125 4.63908,3.83226 26.66119,5.36074 37.03125,-0.5 1.75507,-7.21814 -1.30091,-22.09107 -2.1875,-29.8125 -0.44329,-3.86072 -3.28527,-20.71354 0.78125,-28.84375 4.06652,-8.13022 15.03547,-7.53396 22.71875,-23.28125 15.36655,-31.49456 4.07946,-79.21367 -12.4375,-108.6875 -18.53468,-33.074352 -75.72209,-51.816441 -103.03125,-54.34375 -5.78881,-0.535722 -12.50352,-0.845241 -19.78125,-0.75 z m 1.75,30.0625 c 0.68658,-0.0099 1.36198,-3.91e-4 2.03125,0 4.94113,0.0029 9.42138,0.179824 13.21875,0.53125 2.14719,0.19871 4.98283,0.665192 8.21875,1.3125 -5.48002,1.181231 -11.25431,3.264049 -17.9375,8.125 -1.36426,0.992283 -2.60899,2.29104 -3.90625,3.46875 -1.29726,-1.177709 -2.54199,-2.476467 -3.90625,-3.46875 -7.23076,-5.259223 -13.44394,-7.297368 -19.3125,-8.40625 7.54192,-0.88138 14.95684,-1.466372 21.59375,-1.5625 z m -44.5625,29.6875 c 10.44852,-0.211282 19.93993,1.12361 24.625,4.53125 19.63025,14.27787 -3.41798,33.70428 -11.75,40.0625 -13.15218,10.03652 -47.20402,18.0904 -54.125,10.375 -8.97769,-10.0082 -14.07492,-31.65154 0,-44.6875 6.31244,-5.846482 24.95031,-9.951651 41.25,-10.28125 z m 88.03125,0 c 17.17971,-0.39403 38.68356,3.910088 45.5625,10.28125 14.07494,13.03596 8.97769,34.67931 0,44.6875 -6.92096,7.71539 -40.9728,-0.33848 -54.125,-10.375 -8.33202,-6.35822 -31.38023,-25.78464 -11.75,-40.0625 4.02916,-2.930569 11.62159,-4.331917 20.3125,-4.53125 z m -59,71.28125 c 5.09513,0 17.59375,9.00121 17.59375,15.0625 0,0.68925 0.11842,1.14052 0.3125,1.34375 2.25736,2.03234 15.55629,-22.95176 19.34375,-11.21875 4.95685,15.35563 8.625,14.08261 8.625,30.34375 3e-5,17.17625 -1.24522,1.375 -28.96875,1.375 -6.93919,1e-5 -29.65625,7.26519 -29.65625,-4.5625 -1e-5,-8.25965 9.10861,-19.49874 12.75,-32.34375 z m 125,5.5625 c -0.37246,5.62825 -1.25036,10.57337 -2.9375,14.03125 -0.48897,1.00217 -0.62486,1.42263 -0.71875,1.625 -0.008,0.0155 -0.0236,0.0494 -0.0312,0.0625 -0.031,0.0485 -0.076,0.0925 -0.125,0.125 -0.17868,0.10987 -0.55878,0.2424 -1.59375,0.9375 -2.45327,1.64765 -13.12268,6.25023 -20.125,20.25 -2.42359,4.8455 -3.60915,8.93894 -4.40625,12.75 -1.68715,-0.93765 -5.24989,-2.96875 -5.25,-2.96875 -2.8e-4,0 -6.8792,3.84767 -13.8125,8.09375 -1.5043,-0.98435 -3.09403,-1.83151 -4.75,-2.53125 5.03831,-8.67876 4.23247,-12.41423 4.4375,-15.21875 0.20782,-2.84272 0.1875,-4.85707 0.1875,-7.1875 0,-7.5902 -1.11476,-15.10582 -2.78125,-21.15625 0.21179,0.0447 0.41278,0.11197 0.625,0.15625 7.26107,1.51499 14.44342,2.47811 22.5,2.15625 7.6171,-0.30431 17.86439,-0.20127 28.78125,-11.125 z m -77.875,4.0625 c 0.30706,1.34337 0.39187,2.22156 0.40625,3.09375 -0.0503,-0.0186 -0.10544,-0.0438 -0.15625,-0.0625 -0.0626,-1.05307 -0.12107,-2.06923 -0.25,-3.03125 z m 0.34375,4.21875 c 0.0111,4.1e-4 0.0499,6e-4 0.0625,0 0.004,-5e-5 0.0276,-1.4e-4 0.0312,0 -0.006,0.17232 -0.009,0.39763 0,0.625 -0.0308,-0.20216 -0.0868,-0.39317 -0.0937,-0.625 z m -87.03125,0.71875 c -1.75618,4.40912 -3.18751,9.96207 -3.1875,17.78125 0,12.55139 11.53319,28.73099 21.59375,33.15625 8.68559,3.82047 14.75345,3.86065 19.78125,3.625 -2.56614,4.15632 -4.07869,8.87632 -4.40625,13.75 -4.47555,1e-5 -5.04688,-3e-5 -10.09375,0 0,-0.69674 0,-2.28402 0,-2.65625 0,-0.0402 0,-0.0265 0,-0.0625 0,-0.17786 0,-0.29345 0,-0.375 0,-0.0408 0,-0.0759 0,-0.0937 0,-2.7e-4 -21.10968,-4.4e-4 -38.84375,0 1.01651,-6.94544 2.02755,-14.32465 3.3125,-21.84375 1.98438,-11.61214 -1.55914,-22.41567 -5.625,-29.46875 -2.9624,-5.13889 -6.14151,-8.73605 -9.21875,-11.90625 1.47118,0.0814 2.98903,0.16588 4.3125,0.21875 7.99884,0.31956 15.16673,-0.62844 22.375,-2.125 z m 92.875,0.40625 c 0.55985,0.19577 0.95326,0.38406 1.1875,0.5 -0.30344,-0.13247 -0.83492,-0.34216 -1.1875,-0.5 z m 1.21875,0.53125 c 0.0455,0.0232 0.0935,0.0448 0.125,0.0625 -0.0317,-0.0144 -0.0765,-0.0412 -0.125,-0.0625 z m 0.1875,0.0937 c 0.0118,0.008 0.0254,0.0263 0.0312,0.0312 -0.009,-0.003 -0.0169,-0.0248 -0.0312,-0.0312 z m 4.6875,68.59375 c 0.002,-0.003 0.0292,0.002 0.0312,0 0.003,0.002 0.0284,-0.002 0.0312,0 0.006,0.006 0.025,0.0231 0.0312,0.0312 0.003,0.005 -0.003,0.0262 0,0.0312 0.0605,0.0981 0.14492,0.27265 0.1875,0.34375 0.008,0.10964 -0.003,0.42241 0,0.625 10e-4,0.0688 1.2e-4,0.16146 0,0.25 -0.0554,-0.28702 -0.25325,-1.03465 -0.28125,-1.21875 -6.1e-4,-0.005 1.1e-4,-0.0277 0,-0.0312 0.002,-0.004 -0.002,-0.0284 0,-0.0312 z" />
  <path
     id="path3659"
     style="fill:none;stroke:#000000;stroke-width:10;stroke-linecap:round;stroke-linejoin:round;stroke-miterlimit:3.71086669"
     d="m 351.72049,237.63495 c -0.44329,-3.86072 -3.29163,-20.73902 0.77489,-28.86923 4.06653,-8.13022 15.04792,-7.51235 22.7312,-23.25964 15.36656,-31.49457 4.0714,-79.21352 -12.44556,-108.687353 -18.53467,-33.074353 -75.72872,-51.837221 -103.03788,-54.36453 -37.99835,-3.516533 -115.08881,4.011667 -139.17413,56.04249 -8.55711,18.48569 -13.54436,80.035183 -0.4581,95.114353 6.54313,7.53958 27.34053,18.90178 25.11285,31.93765 -2.17025,12.69974 -3.81123,26.4009 -4.91752,32.08626 -2.21258,11.37072 -1.46497,18.80281 0,30.06208 7.32483,5.83589 30.14242,4.82114 40,-0.0621 -0.32933,-9.76644 0,-28.46047 0,-30 0,-19.9716 0,23.42268 0,30.24416 4.63906,5.77494 23.02546,6.10403 30.0212,-0.48832 0.41839,-10.74308 -0.0212,-3.57496 -0.0212,-29.75584 0,-10 0,20 0,30 15.13798,5.28662 23.14229,7.67368 39.74524,-0.22296 0,-12.28697 0.25476,-17.49007 0.25476,-29.77704 7.32272,-2.6347 20.51497,-2.27524 35.5945,0.72188 -0.3511,7.15384 -0.24416,16.2503 0.24416,29.26752 8.30148,3.58809 23.9809,4.07934 30.73249,0.015 -0.12404,-9.20588 -0.57467,-20.55681 -0.73249,-25.38579 -0.73248,-22.41284 0.008,14.15328 0.74058,25.67911 4.63906,3.83226 26.6624,5.36226 37.03246,-0.49848 1.75506,-7.21814 -1.31086,-22.07779 -2.19745,-29.79922 z M 226.18817,152.76237 c 5.09516,0 17.59651,9.00182 17.59651,15.06311 0,8.40224 15.52473,-22.73336 19.66828,-9.89725 4.95686,15.35562 8.61881,14.09773 8.61881,30.35887 0,17.17624 -1.26002,1.38118 -28.98355,1.38118 -6.93919,0 -29.63526,7.24968 -29.63526,-4.57801 0,-8.25965 9.09382,-19.48289 12.73521,-32.3279 z m 38.70157,-66.753333 c 11.99377,-8.723558 55.50345,-3.858126 65.86232,5.736094 14.07492,13.035959 8.97769,34.668899 0,44.677089 -6.92098,7.7154 -40.97007,-0.32236 -54.12227,-10.35888 -8.33202,-6.35822 -31.37028,-25.77644 -11.74005,-40.054303 z m -43.10454,-5e-6 c 19.63023,14.277868 -3.40803,33.696088 -11.74005,40.054308 -13.1522,10.03652 -47.20129,18.07428 -54.12227,10.35888 -8.97769,-10.00819 -14.07492,-31.64113 0,-44.677089 10.35887,-9.594225 53.86855,-14.459657 65.86232,-5.736099 z" />
  <path
     id="path2474"
     style="fill:url(#pattern3214);fill-opacity:1;stroke:none"
     d="m 243.78125,51.78125 c -6.63691,0.09613 -14.05183,0.68112 -21.59375,1.5625 5.86856,1.108882 12.08174,3.147027 19.3125,8.40625 1.36426,0.992283 2.60899,2.291041 3.90625,3.46875 1.29726,-1.17771 2.54199,-2.476467 3.90625,-3.46875 6.68319,-4.860951 12.45748,-6.943769 17.9375,-8.125 -3.23592,-0.647308 -6.07156,-1.11379 -8.21875,-1.3125 -3.79737,-0.351426 -8.27762,-0.528361 -13.21875,-0.53125 -0.66927,-3.91e-4 -1.34467,-0.0099 -2.03125,0 z M 353.25,158.3125 c -10.91686,10.92373 -21.16415,10.82069 -28.78125,11.125 -8.05658,0.32186 -15.23893,-0.64126 -22.5,-2.15625 -0.21222,-0.0443 -0.41321,-0.11151 -0.625,-0.15625 1.66649,6.05043 2.78125,13.56605 2.78125,21.15625 0,2.33043 0.0203,4.34478 -0.1875,7.1875 -0.20503,2.80452 0.60081,6.53999 -4.4375,15.21875 1.65597,0.69974 3.2457,1.5469 4.75,2.53125 6.9333,-4.24608 13.81222,-8.09375 13.8125,-8.09375 1.1e-4,0 3.56285,2.0311 5.25,2.96875 0.7971,-3.81106 1.98266,-7.9045 4.40625,-12.75 7.00232,-13.99977 17.67173,-18.60235 20.125,-20.25 1.03497,-0.6951 1.41507,-0.82763 1.59375,-0.9375 0.049,-0.0325 0.094,-0.0765 0.125,-0.125 0.008,-0.0131 0.0236,-0.047 0.0312,-0.0625 0.0939,-0.20237 0.22978,-0.62283 0.71875,-1.625 1.68714,-3.45788 2.56504,-8.403 2.9375,-14.03125 z m -77.875,4.0625 c 0.12893,0.96202 0.18736,1.97818 0.25,3.03125 0.0508,0.0187 0.10592,0.0439 0.15625,0.0625 -0.0144,-0.87219 -0.0992,-1.75038 -0.40625,-3.09375 z m 0.34375,4.21875 c 0.007,0.23183 0.0629,0.42284 0.0937,0.625 -0.009,-0.22737 -0.006,-0.45268 0,-0.625 -0.004,-1.4e-4 -0.0273,-5e-5 -0.0312,0 -0.0127,6e-4 -0.0514,4.1e-4 -0.0625,0 z m -87.03125,0.71875 c -7.20827,1.49656 -14.37616,2.44456 -22.375,2.125 -1.32347,-0.0529 -2.84132,-0.13738 -4.3125,-0.21875 3.07724,3.1702 6.25635,6.76736 9.21875,11.90625 4.06586,7.05308 7.60938,17.85661 5.625,29.46875 -1.28495,7.5191 -2.29599,14.89831 -3.3125,21.84375 17.73407,-4.4e-4 38.84375,-2.7e-4 38.84375,0 0,0.0178 0,0.053 0,0.0937 0,0.0815 0,0.19714 0,0.375 0,0.036 0,0.0223 0,0.0625 0,0.37223 0,1.95951 0,2.65625 5.04687,-3e-5 5.6182,10e-6 10.09375,0 0.32756,-4.87368 1.84011,-9.59368 4.40625,-13.75 -5.0278,0.23565 -11.09566,0.19547 -19.78125,-3.625 C 197.03319,213.82474 185.5,197.64514 185.5,185.09375 c -1e-5,-7.81918 1.43132,-13.37213 3.1875,-17.78125 z m 92.875,0.40625 c 0.35258,0.15784 0.88406,0.36753 1.1875,0.5 -0.23424,-0.11594 -0.62765,-0.30423 -1.1875,-0.5 z m 1.21875,0.53125 c 0.0485,0.0213 0.0933,0.0481 0.125,0.0625 -0.0315,-0.0177 -0.0795,-0.0393 -0.125,-0.0625 z m 0.1875,0.0937 c 0.0144,0.006 0.0225,0.0283 0.0312,0.0312 -0.006,-0.005 -0.0194,-0.0234 -0.0312,-0.0312 z m 4.6875,68.59375 c -0.002,0.003 0.002,0.0274 0,0.0312 1.1e-4,0.004 -6.1e-4,0.0259 0,0.0312 0.028,0.1841 0.22581,0.93173 0.28125,1.21875 1.2e-4,-0.0885 10e-4,-0.18123 0,-0.25 -0.003,-0.20259 0.008,-0.51536 0,-0.625 -0.0426,-0.0711 -0.12697,-0.24562 -0.1875,-0.34375 -0.003,-0.005 0.003,-0.0267 0,-0.0312 -0.006,-0.008 -0.0254,-0.0255 -0.0312,-0.0312 -0.003,-0.002 -0.0286,0.002 -0.0312,0 -0.002,0.002 -0.0294,-0.003 -0.0312,0 z" />
</svg>
