<?xml version="1.0" encoding="UTF-8" standalone="no"?>
<svg
   xmlns:a="http://ns.adobe.com/AdobeSVGViewerExtensions/3.0/"
   xmlns:dc="http://purl.org/dc/elements/1.1/"
   xmlns:cc="http://creativecommons.org/ns#"
   xmlns:rdf="http://www.w3.org/1999/02/22-rdf-syntax-ns#"
   xmlns:svg="http://www.w3.org/2000/svg"
   xmlns="http://www.w3.org/2000/svg"
   xmlns:xlink="http://www.w3.org/1999/xlink"
   version="1.0"
   width="500"
   height="500"
   id="svg2">
  <metadata
     id="metadata16">
    <rdf:RDF>
      <cc:Work
         rdf:about="">
        <dc:format>image/svg+xml</dc:format>
        <dc:type
           rdf:resource="http://purl.org/dc/dcmitype/StillImage" />
      </cc:Work>
    </rdf:RDF>
  </metadata>
  <defs
     id="defs1">
    <linearGradient
       x1="27.4023"
       y1="304.52881"
       x2="27.4023"
       y2="412.12839"
       id="XMLID_1_"
       gradientUnits="userSpaceOnUse"
       gradientTransform="matrix(0.7,0,0,0.7,210.9908,-16.65302)">
      <stop
         style="stop-color:#ed4f1a;stop-opacity:1"
         offset="0"
         id="stop18" />
      <stop
         style="stop-color:#fdc253;stop-opacity:1"
         offset="1"
         id="stop20" />
      <a:midPointStop
         offset="0"
         style="stop-color:#999999" />
      <a:midPointStop
         offset="0.5"
         style="stop-color:#999999" />
      <a:midPointStop
         offset="1"
         style="stop-color:#555555" />
    </linearGradient>
    <linearGradient
       x1="18.721331"
       y1="200.65417"
       x2="479.37491"
       y2="200.52928"
       id="linearGradient3514"
       xlink:href="#XMLID_1_"
       gradientUnits="userSpaceOnUse" />
    <linearGradient
       xlink:href="#XMLID_1_"
       id="linearGradient3005"
       gradientUnits="userSpaceOnUse"
       x1="18.721331"
       y1="200.65417"
       x2="479.37491"
       y2="200.52928"
       gradientTransform="translate(0,-40)" />
    <linearGradient
       xlink:href="#XMLID_1_"
       id="linearGradient3010"
       gradientUnits="userSpaceOnUse"
       x1="18.721331"
       y1="200.65417"
       x2="479.37491"
       y2="200.52928" />
    <filter
       id="filter3783"
       x="-0.16059403"
       width="1.3211881"
       y="-0.20474059"
       height="1.4094812">
      <feGaussianBlur
         stdDeviation="29.153671"
         id="feGaussianBlur3785" />
    </filter>
    <linearGradient
       xlink:href="#XMLID_1_"
       id="linearGradient2999"
       gradientUnits="userSpaceOnUse"
       x1="18.721331"
       y1="200.65417"
       x2="479.37491"
       y2="200.52928" />
  </defs>
  <path
     style="fill:#000000;fill-opacity:0.13333333999999999;fill-rule:evenodd;stroke:none;stroke-width:10;stroke-linecap:round;stroke-linejoin:round;stroke-miterlimit:4;stroke-opacity:1;stroke-dasharray:none;filter:url(#filter3783)"
     d="M 140.1875 88.53125 C 121.81753 88.650865 101.49985 90.29801 92.40625 92.8125 C 100.56006 102.25416 122.1548 131.37627 143.9375 161.75 C 83.943333 180.63626 32.155499 214.56779 32.15625 261.625 C 32.1548 307.22536 70.830966 342.69921 126.5625 363.75 C 107.54789 394.03717 92.042257 419.87466 88.8125 428.8125 C 100.02268 430.90324 112.14466 430.16869 121.71875 430.03125 C 128.18119 424.14528 142.92154 402.49856 160.9375 374.375 C 189.29459 381.39817 220.38779 385.21189 252.09375 385.3125 C 268.05262 385.36315 283.9239 384.35401 299.40625 382.40625 C 313.00075 402.29578 325.24146 420.03409 331.6875 428.6875 C 349.76691 431.77958 393.04399 430.02318 407.59375 426 C 400.41911 417.69216 382.83373 394.10527 363.875 367.875 C 424.17305 347.4257 467.84451 310.07791 467.84375 261.625 C 467.84434 216.85394 422.43295 183.94923 367.40625 164.59375 C 389.08911 130.30035 407.6251 99.82712 411.1875 89.96875 C 399.97732 87.87801 387.85534 88.64381 378.28125 88.78125 C 371.07265 95.346815 353.58813 121.52428 332.71875 154.4375 C 305.04726 147.81976 276.8528 144.40625 252.09375 144.40625 C 238.38789 144.40625 223.50698 145.44681 208.1875 147.5 C 191.67022 123.27136 175.94058 100.33397 168.3125 90.09375 C 161.53272 88.934219 151.20948 88.459481 140.1875 88.53125 z M 248.4375 176.53125 C 249.38548 176.51369 250.33285 176.53125 251.28125 176.53125 C 272.51112 176.53125 293.38367 180.74445 311.625 188.09375 C 300.624 205.81294 289.35588 224.10987 278.625 241.59375 C 260.46888 271.17559 250.16327 287.64736 243.59375 300.90625 C 249.73779 309.60052 259.24227 323.51986 269.5625 338.65625 C 264.45974 339.11201 259.28864 339.34375 254.125 339.34375 C 232.37642 339.34375 210.08107 335.21838 190.375 327.5 C 200.73359 310.7935 211.29898 293.63566 221.375 277.21875 C 239.53112 247.63691 249.83673 231.16514 256.40625 217.90625 C 249.9946 208.83328 239.92555 194.03192 229.0625 178.09375 C 235.46017 177.19153 241.939 176.65161 248.4375 176.53125 z M 169.96875 198.53125 C 187.23688 223.31612 200.46608 243.28977 200.71875 245.875 C 200.8822 247.54725 193.1524 259.97225 181.59375 277.84375 C 174.90839 288.18035 167.57588 299.55749 160.125 311.125 C 140.82075 296.87706 128.18677 277.67921 128.1875 254.4375 C 129.26861 232.93051 145.86265 212.90027 169.96875 198.53125 z M 341.6875 204.875 C 359.36875 218.30848 370.83605 235.57218 371.75 254.5625 C 372.89461 283.38733 355.86098 305.99492 330.28125 320.59375 C 312.89689 295.65054 299.53508 275.53459 299.28125 272.9375 C 299.1178 271.26525 306.8476 258.809 318.40625 240.9375 C 325.63544 229.76004 333.6038 217.43408 341.6875 204.875 z "
     id="path2995" />
  <path
     id="path3524"
     style="fill:#010101;fill-opacity:1;fill-rule:evenodd;stroke:#010101;stroke-width:10;stroke-linecap:round;stroke-linejoin:round;stroke-miterlimit:4;stroke-opacity:1;stroke-dasharray:none"
     d="m 278.63055,201.59036 c -18.15612,29.58184 -28.47404,46.05433 -35.04356,59.31322 19.82512,28.05404 71.98519,106.1444 88.11132,127.79272 18.07941,3.09208 61.35113,1.31401 75.90089,-2.70917 -18.65614,-21.60277 -107.66918,-146.30105 -108.3286,-153.04802 -0.16345,-1.67225 7.57233,-14.12074 19.13098,-31.99224" />
  <path
     id="path2064"
     style="fill:#010101;fill-opacity:1;fill-rule:evenodd;stroke:#010101;stroke-width:10;stroke-linecap:round;stroke-linejoin:round;stroke-miterlimit:4;stroke-opacity:1;stroke-dasharray:none"
     d="m 181.59842,237.85259 c -35.0766,54.23391 -86.569006,133.75938 -92.786967,150.9666 11.210177,2.09074 23.322027,1.34106 32.896117,1.20362 13.09173,-11.92389 60.0994,-88.35434 99.66188,-152.81371" />
  <path
     id="path2208"
     style="fill:url(#linearGradient2999);fill-opacity:1;fill-rule:nonzero;stroke:#010101;stroke-width:10;stroke-linecap:round;stroke-linejoin:round;stroke-miterlimit:3.13260007;stroke-dasharray:none"
     d="m 252.08554,104.40476 c -86.71049,0 -219.915731,41.71736 -219.914526,117.20628 -0.0024,75.49196 105.952736,123.3274 219.914526,123.68904 109.80254,0.34847 215.74464,-48.20018 215.74345,-123.68904 0.001,-75.48892 -129.03414,-117.20628 -215.74345,-117.20628 z m -0.79306,32.11167 c 60.69651,0 118.36968,34.47622 120.46637,78.04204 2.09832,52.84223 -56.92172,84.80008 -117.61907,84.8001 -60.69736,0 -125.94537,-32.08967 -125.94372,-84.93408 2.09669,-41.71052 62.39907,-77.90806 123.09642,-77.90806 z" />
  <path
     id="path2118"
     style="fill:#010101;fill-opacity:1;fill-rule:evenodd;stroke:#010101;stroke-width:10;stroke-linecap:round;stroke-linejoin:round;stroke-miterlimit:4;stroke-opacity:1;stroke-dasharray:none"
     d="m 221.36945,237.2091 c 18.15612,-29.58184 28.47404,-46.05433 35.04356,-59.31322 C 236.58789,149.84184 184.42782,71.751478 168.30169,50.10316 150.22228,47.011076 106.95056,48.789144 92.400804,52.812328 111.05694,74.415103 200.06998,199.11338 200.7294,205.86035 c 0.16345,1.67225 -7.57233,14.12074 -19.13098,31.99224" />
  <path
     id="path3522"
     style="fill:#010101;fill-opacity:1;fill-rule:evenodd;stroke:#010101;stroke-width:10;stroke-linecap:round;stroke-linejoin:round;stroke-miterlimit:4;stroke-opacity:1;stroke-dasharray:none"
     d="m 318.40158,200.94687 c 35.0766,-54.23391 86.56901,-133.759382 92.78697,-150.966602 -11.21018,-2.09074 -23.32203,-1.34106 -32.89612,-1.20362 -13.09173,11.92389 -60.0994,88.354342 -99.66188,152.813712" />
</svg>
