<?xml version="1.0" encoding="UTF-8" standalone="no"?>
<svg
   xmlns:dc="http://purl.org/dc/elements/1.1/"
   xmlns:cc="http://creativecommons.org/ns#"
   xmlns:rdf="http://www.w3.org/1999/02/22-rdf-syntax-ns#"
   xmlns:svg="http://www.w3.org/2000/svg"
   xmlns="http://www.w3.org/2000/svg"
   xmlns:xlink="http://www.w3.org/1999/xlink"
   version="1.0"
   width="500"
   height="500"
   id="svg2">
  <metadata
     id="metadata46">
    <rdf:RDF>
      <cc:Work
         rdf:about="">
        <dc:format>image/svg+xml</dc:format>
        <dc:type
           rdf:resource="http://purl.org/dc/dcmitype/StillImage" />
      </cc:Work>
    </rdf:RDF>
  </metadata>
  <defs
     id="defs1">
    <pattern
       xlink:href="#pattern2362"
       id="pattern3205"
       patternTransform="translate(-5.3125001,-5.312509)" />
    <pattern
       xlink:href="#pattern2270"
       id="pattern2362"
       patternTransform="translate(-5.312503,-5.312509)" />
    <linearGradient
       id="underGrad">
      <stop
         style="stop-color:#dddddd;stop-opacity:0.9"
         offset="0"
         id="stop2214" />
      <stop
         style="stop-color:#ffffff;stop-opacity:0.9"
         offset="1"
         id="stop2216" />
    </linearGradient>
    <linearGradient
       id="overGrad">
      <stop
         style="stop-color:#cccccc;stop-opacity:0.7"
         offset="0"
         id="stop2187" />
      <stop
         style="stop-color:#ffffff;stop-opacity:0.7"
         offset="1"
         id="stop2189" />
    </linearGradient>
    <linearGradient
       id="patternGrad">
      <stop
         style="stop-color:#bbbbbb;stop-opacity:0.8"
         offset="0"
         id="stop2252" />
      <stop
         style="stop-color:#eeeeee;stop-opacity:0.8"
         offset="1"
         id="stop2254" />
    </linearGradient>
    <linearGradient
       x1="250"
       y1="400"
       x2="250"
       y2="20"
       id="linearGradient2256"
       xlink:href="#patternGrad"
       gradientUnits="userSpaceOnUse" />
    <pattern
       patternUnits="userSpaceOnUse"
       width="510.625"
       height="510.625"
       patternTransform="translate(-5.3125,-5.3125)"
       id="pattern2270">
      <g
         id="g2249"
         transform="translate(5.3125,5.3125)">
        <path
           style="opacity:0.5;fill:url(#linearGradient2256);fill-opacity:1;fill-rule:nonzero;stroke:none;stroke-width:15;stroke-linecap:butt;stroke-linejoin:miter;stroke-miterlimit:1;stroke-dasharray:none;stroke-dashoffset:0;stroke-opacity:1"
           d="M 44.6875,-5.3125 L -5.3125,44.6875 L 5.3125,55.3125 L 55.3125,5.3125 L 44.6875,-5.3125 z "
           id="path1320" />
        <path
           style="opacity:0.5;fill:url(#linearGradient2256);fill-opacity:1;fill-rule:nonzero;stroke:none;stroke-width:15;stroke-linecap:butt;stroke-linejoin:miter;stroke-miterlimit:1;stroke-dasharray:none;stroke-dashoffset:0;stroke-opacity:1"
           d="M 94.6875,-5.3125 L -5.3125,94.6875 L 5.3125,105.3125 L 105.3125,5.3125 L 94.6875,-5.3125 z "
           id="path2195" />
        <path
           style="opacity:0.5;fill:url(#linearGradient2256);fill-opacity:1;fill-rule:nonzero;stroke:none;stroke-width:15;stroke-linecap:butt;stroke-linejoin:miter;stroke-miterlimit:1;stroke-dasharray:none;stroke-dashoffset:0;stroke-opacity:1"
           d="M 144.6875,-5.3125 L -5.3125,144.6875 L 5.3125,155.3125 L 155.3125,5.3125 L 144.6875,-5.3125 z "
           id="path2197" />
        <path
           style="opacity:0.5;fill:url(#linearGradient2256);fill-opacity:1;fill-rule:nonzero;stroke:none;stroke-width:15;stroke-linecap:butt;stroke-linejoin:miter;stroke-miterlimit:1;stroke-dasharray:none;stroke-dashoffset:0;stroke-opacity:1"
           d="M 194.6875,-5.3125 L -5.3125,194.6875 L 5.3125,205.3125 L 205.3125,5.3125 L 194.6875,-5.3125 z "
           id="path2199" />
        <path
           style="opacity:0.5;fill:url(#linearGradient2256);fill-opacity:1;fill-rule:nonzero;stroke:none;stroke-width:15;stroke-linecap:butt;stroke-linejoin:miter;stroke-miterlimit:1;stroke-dasharray:none;stroke-dashoffset:0;stroke-opacity:1"
           d="M 244.6875,-5.3125 L -5.3125,244.6875 L 5.3125,255.3125 L 255.3125,5.3125 L 244.6875,-5.3125 z "
           id="path2201" />
        <path
           style="opacity:0.5;fill:url(#linearGradient2256);fill-opacity:1;fill-rule:nonzero;stroke:none;stroke-width:15;stroke-linecap:butt;stroke-linejoin:miter;stroke-miterlimit:1;stroke-dasharray:none;stroke-dashoffset:0;stroke-opacity:1"
           d="M 294.6875,-5.3125 L -5.3125,294.6875 L 5.3125,305.3125 L 305.3125,5.3125 L 294.6875,-5.3125 z "
           id="path2203" />
        <path
           style="opacity:0.5;fill:url(#linearGradient2256);fill-opacity:1;fill-rule:nonzero;stroke:none;stroke-width:15;stroke-linecap:butt;stroke-linejoin:miter;stroke-miterlimit:1;stroke-dasharray:none;stroke-dashoffset:0;stroke-opacity:1"
           d="M 344.6875,-5.3125 L -5.3125,344.6875 L 5.3125,355.3125 L 355.3125,5.3125 L 344.6875,-5.3125 z "
           id="path2205" />
        <path
           style="opacity:0.5;fill:url(#linearGradient2256);fill-opacity:1;fill-rule:nonzero;stroke:none;stroke-width:15;stroke-linecap:butt;stroke-linejoin:miter;stroke-miterlimit:1;stroke-dasharray:none;stroke-dashoffset:0;stroke-opacity:1"
           d="M 394.6875,-5.3125 L -5.3125,394.6875 L 5.3125,405.3125 L 405.3125,5.3125 L 394.6875,-5.3125 z "
           id="path2207" />
        <path
           style="opacity:0.5;fill:url(#linearGradient2256);fill-opacity:1;fill-rule:nonzero;stroke:none;stroke-width:15;stroke-linecap:butt;stroke-linejoin:miter;stroke-miterlimit:1;stroke-dasharray:none;stroke-dashoffset:0;stroke-opacity:1"
           d="M 444.6875,-5.3125 L -5.3125,444.6875 L 5.3125,455.3125 L 455.3125,5.3125 L 444.6875,-5.3125 z "
           id="path2209" />
        <path
           style="opacity:0.5;fill:url(#linearGradient2256);fill-opacity:1;fill-rule:nonzero;stroke:none;stroke-width:15;stroke-linecap:butt;stroke-linejoin:miter;stroke-miterlimit:1;stroke-dasharray:none;stroke-dashoffset:0;stroke-opacity:1"
           d="M 494.6875,-5.3125 L -5.3125,494.6875 L 5.3125,505.3125 L 505.3125,5.3125 L 494.6875,-5.3125 z "
           id="path2211" />
        <path
           style="opacity:0.5;fill:url(#linearGradient2256);fill-opacity:1;fill-rule:nonzero;stroke:none;stroke-width:15;stroke-linecap:butt;stroke-linejoin:miter;stroke-miterlimit:1;stroke-dasharray:none;stroke-dashoffset:0;stroke-opacity:1"
           d="M 494.6875,44.6875 L 44.6875,494.6875 L 55.3125,505.3125 L 505.3125,55.3125 L 494.6875,44.6875 z "
           id="path2213" />
        <path
           style="opacity:0.5;fill:url(#linearGradient2256);fill-opacity:1;fill-rule:nonzero;stroke:none;stroke-width:15;stroke-linecap:butt;stroke-linejoin:miter;stroke-miterlimit:1;stroke-dasharray:none;stroke-dashoffset:0;stroke-opacity:1"
           d="M 494.6875,94.6875 L 94.6875,494.6875 L 105.3125,505.3125 L 505.3125,105.3125 L 494.6875,94.6875 z "
           id="path2215" />
        <path
           style="opacity:0.5;fill:url(#linearGradient2256);fill-opacity:1;fill-rule:nonzero;stroke:none;stroke-width:15;stroke-linecap:butt;stroke-linejoin:miter;stroke-miterlimit:1;stroke-dasharray:none;stroke-dashoffset:0;stroke-opacity:1"
           d="M 494.6875,144.6875 L 144.6875,494.6875 L 155.3125,505.3125 L 505.3125,155.3125 L 494.6875,144.6875 z "
           id="path2217" />
        <path
           style="opacity:0.5;fill:url(#linearGradient2256);fill-opacity:1;fill-rule:nonzero;stroke:none;stroke-width:15;stroke-linecap:butt;stroke-linejoin:miter;stroke-miterlimit:1;stroke-dasharray:none;stroke-dashoffset:0;stroke-opacity:1"
           d="M 494.6875,194.6875 L 194.6875,494.6875 L 205.3125,505.3125 L 505.3125,205.3125 L 494.6875,194.6875 z "
           id="path2219" />
        <path
           style="opacity:0.5;fill:url(#linearGradient2256);fill-opacity:1;fill-rule:nonzero;stroke:none;stroke-width:15;stroke-linecap:butt;stroke-linejoin:miter;stroke-miterlimit:1;stroke-dasharray:none;stroke-dashoffset:0;stroke-opacity:1"
           d="M 494.6875,244.6875 L 244.6875,494.6875 L 255.3125,505.3125 L 505.3125,255.3125 L 494.6875,244.6875 z "
           id="path2221" />
        <path
           style="opacity:0.5;fill:url(#linearGradient2256);fill-opacity:1;fill-rule:nonzero;stroke:none;stroke-width:15;stroke-linecap:butt;stroke-linejoin:miter;stroke-miterlimit:1;stroke-dasharray:none;stroke-dashoffset:0;stroke-opacity:1"
           d="M 494.6875,294.6875 L 294.6875,494.6875 L 305.3125,505.3125 L 505.3125,305.3125 L 494.6875,294.6875 z "
           id="path2223" />
        <path
           style="opacity:0.5;fill:url(#linearGradient2256);fill-opacity:1;fill-rule:nonzero;stroke:none;stroke-width:15;stroke-linecap:butt;stroke-linejoin:miter;stroke-miterlimit:1;stroke-dasharray:none;stroke-dashoffset:0;stroke-opacity:1"
           d="M 494.6875,344.6875 L 344.6875,494.6875 L 355.3125,505.3125 L 505.3125,355.3125 L 494.6875,344.6875 z "
           id="path2225" />
        <path
           style="opacity:0.5;fill:url(#linearGradient2256);fill-opacity:1;fill-rule:nonzero;stroke:none;stroke-width:15;stroke-linecap:butt;stroke-linejoin:miter;stroke-miterlimit:1;stroke-dasharray:none;stroke-dashoffset:0;stroke-opacity:1"
           d="M 494.6875,394.6875 L 394.6875,494.6875 L 405.3125,505.3125 L 505.3125,405.3125 L 494.6875,394.6875 z "
           id="path2227" />
        <path
           style="opacity:0.5;fill:url(#linearGradient2256);fill-opacity:1;fill-rule:nonzero;stroke:none;stroke-width:15;stroke-linecap:butt;stroke-linejoin:miter;stroke-miterlimit:1;stroke-dasharray:none;stroke-dashoffset:0;stroke-opacity:1"
           d="M 494.6875,444.6875 L 444.6875,494.6875 L 455.3125,505.3125 L 505.3125,455.3125 L 494.6875,444.6875 z "
           id="path2229" />
      </g>
    </pattern>
    <linearGradient
       x1="250"
       y1="400"
       x2="250"
       y2="20"
       id="linearGradient2337"
       xlink:href="#underGrad"
       gradientUnits="userSpaceOnUse" />
    <linearGradient
       x1="250"
       y1="400"
       x2="250"
       y2="20"
       id="linearGradient2358"
       xlink:href="#overGrad"
       gradientUnits="userSpaceOnUse" />
    <filter
       id="filter3793"
       x="-0.17289838"
       width="1.3457968"
       y="-0.18770999"
       height="1.37542">
      <feGaussianBlur
         stdDeviation="26.804564"
         id="feGaussianBlur3795" />
    </filter>
    <linearGradient
       xlink:href="#underGrad"
       id="linearGradient3210"
       gradientUnits="userSpaceOnUse"
       x1="250"
       y1="400"
       x2="250"
       y2="20" />
    <linearGradient
       xlink:href="#overGrad"
       id="linearGradient3213"
       gradientUnits="userSpaceOnUse"
       x1="250"
       y1="400"
       x2="250"
       y2="20" />
  </defs>
  <path
     d="m 88.322372,127.44944 c -48.621501,60.22925 -40.220993,148.68126 19.331758,198.65195 40.75842,34.20036 95.09625,41.6486 141.64336,24.25164 16.12115,22.16166 33.46345,22.22684 52.73476,8.47339 l -4.69271,5.68976 c 30.64177,25.7115 80.9012,80.93824 119.46845,34.97557 38.56726,-45.96266 -25.31394,-86.51129 -55.95572,-112.2228 l -2.70791,3.27577 c 8.52326,-19.98327 4.6572,-36.01997 -18.81644,-47.48577 9.04981,-48.86091 -7.72092,-101.07986 -48.4793,-135.28022 -60.25707,-50.561677 -150.19691,-42.692953 -200.758594,17.5641 -0.394994,0.47075 -0.797248,0.93804 -1.185121,1.41239 -0.192423,0.23532 -0.391869,0.45804 -0.582533,0.69422 z m 25.154558,20.29131 c 0.44582,-0.55231 0.90771,-1.08177 1.36592,-1.62785 39.10104,-46.598793 108.63689,-52.682391 155.2357,-13.58135 46.59877,39.10104 52.68237,108.63686 13.58135,155.23566 -39.10105,46.59881 -108.63689,52.6824 -155.2357,13.58136 C 82.371513,262.70577 75.880119,194.31789 113.47693,147.74075 z"
     style="fill:#000000;fill-opacity:0.13333333;stroke:none;filter:url(#filter3793)"
     id="path3023"
     transform="matrix(-1,0,0,1,485.58962,0)" />
  <path
     id="path2340"
     style="fill:url(#linearGradient3213);fill-opacity:1;fill-rule:nonzero;stroke:none"
     d="m 210.39971,294.71257 c -1.39762,1.73772 -2.43975,2.90978 -2.95357,3.33499 -0.72677,-0.23313 -2.68031,-0.93197 -6.49026,-3.65106 -8.50064,-6.03773 -19.52099,-7.22837 -29.11524,-3.14613 -9.59426,4.08223 -16.38655,12.85198 -17.93069,23.16361 -12.83112,11.14895 -25.71166,22.20619 -36.51591,27.94809 -7.52939,4.00151 -12.92928,4.95793 -15.52048,4.74206 -2.59122,-0.21586 -4.45252,-0.15296 -10.13045,-6.91967 -5.6244,-6.70289 -5.21172,-8.44002 -4.95112,-11.10248 0.26063,-2.66242 2.23441,-7.98303 7.59596,-14.81811 8.34443,-10.6377 23.17384,-22.52203 37.52322,-34.13733 9.1652,-1.39025 17.17868,-6.93299 21.69939,-15.02601 4.52076,-8.09305 5.04104,-17.82741 1.419,-26.36059 -1.21926,-2.85858 -1.58283,-4.37561 -1.70578,-5.0957 0.5207,-0.45771 1.88443,-1.31183 3.82499,-2.39368 5.29218,12.66094 12.52808,24.75089 21.77978,35.77663 9.25846,11.03381 19.91177,20.2723 31.47116,27.68538 z" />
  <path
     id="path2326"
     style="fill:url(#linearGradient3210);fill-opacity:1;fill-rule:nonzero;stroke:none"
     d="m 397.26725,87.449445 c 48.6215,60.229245 40.22099,148.681255 -19.33176,198.651945 -40.75842,34.20036 -95.09625,41.6486 -141.64336,24.25164 -16.12115,22.16166 -33.46345,22.22684 -52.73476,8.47339 l 4.69271,5.68976 c -30.64177,25.7115 -80.9012,80.93824 -119.46845,34.97557 -38.56726,-45.96266 25.31394,-86.51129 55.95572,-112.2228 l 2.70791,3.27577 c -8.52326,-19.98327 -4.6572,-36.01997 18.81644,-47.48577 -9.04981,-48.86091 7.72092,-101.07986 48.4793,-135.28022 60.25707,-50.561677 150.19691,-42.692953 200.75859,17.564102 0.395,0.470751 0.79725,0.938042 1.18512,1.412391 0.19243,0.23532 0.39187,0.458036 0.58254,0.694222 z m -24.71263,20.817965 c -0.14554,-0.18262 -0.29506,-0.34471 -0.44193,-0.52666 -0.44582,-0.55231 -0.90771,-1.08177 -1.36592,-1.62785 C 331.64573,59.514107 262.10988,53.430509 215.51107,92.531554 168.9123,131.63259 162.8287,201.16841 201.92972,247.76721 c 39.10105,46.59881 108.63689,52.6824 155.2357,13.58136 45.8728,-38.49186 52.4961,-106.51701 15.3892,-153.08116 z M 210.41956,294.73623 c -11.55939,-7.4131 -22.2127,-16.65158 -31.47116,-27.68538 -9.25169,-11.02576 -16.4876,-23.11568 -21.77978,-35.77663 -1.94057,1.08185 -3.30429,1.93596 -3.82499,2.39368 0.12294,0.7201 0.48651,2.23711 1.70577,5.0957 3.62205,8.53318 3.10176,18.26754 -1.41898,26.36058 -4.52072,8.09304 -12.53419,13.63579 -21.69941,15.02602 -14.34939,11.61531 -29.17879,23.49962 -37.52321,34.13733 -5.36155,6.83506 -7.33535,12.15569 -7.59596,14.8181 -0.26061,2.66247 -0.67328,4.3996 4.95112,11.10249 5.67794,6.76671 7.53923,6.7038 10.13045,6.91966 2.59123,0.21587 7.9911,-0.74053 15.52047,-4.74204 10.80424,-5.74194 23.68481,-16.79915 36.51593,-27.9481 1.54413,-10.31164 8.33641,-19.08138 17.93068,-23.16363 9.59425,-4.08223 20.61462,-2.89158 29.11523,3.14616 3.80995,2.71909 5.76349,3.41791 6.49028,3.65105 0.5138,-0.42521 1.55594,-1.59726 2.95356,-3.33499 z" />
  <path
     id="path1351"
     style="fill:none;stroke:#000000;stroke-width:15;stroke-linecap:round;stroke-linejoin:round;stroke-miterlimit:1;stroke-opacity:1;stroke-dasharray:none;stroke-dashoffset:0"
     d="m 397.26725,87.449445 c 48.6215,60.229245 40.22099,148.681255 -19.33176,198.651945 -40.75842,34.20036 -95.09625,41.6486 -141.64336,24.25164 -16.12115,22.16166 -33.46345,22.22684 -52.73476,8.47339 l 4.69271,5.68976 c -30.64177,25.7115 -80.9012,80.93824 -119.46845,34.97557 -38.56726,-45.96266 25.31394,-86.51129 55.95572,-112.2228 l 2.70791,3.27577 c -8.52326,-19.98327 -4.6572,-36.01997 18.81644,-47.48577 -9.04981,-48.86091 7.72092,-101.07986 48.4793,-135.28022 60.25707,-50.561677 150.19691,-42.692953 200.75859,17.564102 0.395,0.470751 0.79725,0.938042 1.18512,1.412391 0.19243,0.23532 0.39187,0.458036 0.58254,0.694222 z m -25.15456,20.291305 c -0.44582,-0.55231 -0.90771,-1.08177 -1.36592,-1.62785 C 331.64573,59.514107 262.10988,53.430509 215.51107,92.531554 168.9123,131.63259 162.8287,201.16841 201.92972,247.76721 c 39.10105,46.59881 108.63689,52.6824 155.2357,13.58136 46.05269,-38.6428 52.54408,-107.03068 14.94727,-153.60782 z" />
  <path
     id="path2244"
     style="fill:#0000ff;fill-opacity:1;fill-rule:evenodd;stroke:#000000;stroke-width:5;stroke-linecap:round;stroke-linejoin:round;stroke-miterlimit:4;stroke-opacity:1;stroke-dasharray:none;display:inline"
     d="m 346.33621,166.87546 c 3.2861,-0.0465 6.35433,1.67966 8.01095,4.51803 1.65661,2.83835 1.65662,6.34955 0,9.18792 -1.65663,2.83838 -4.72485,4.5645 -8.01095,4.51803 l -121.49318,0 c -3.2861,0.0465 -6.35433,-1.67966 -8.01095,-4.51803 -1.65661,-2.83835 -1.65662,-6.34957 0,-9.18792 1.65663,-2.83838 4.72485,-4.5645 8.01095,-4.51803 l 121.49318,0 z" />
  <path
     id="path2360"
     style="fill:url(#pattern3205);fill-opacity:1;fill-rule:nonzero;stroke:none"
     d="m 210.39971,294.71257 c -1.39762,1.73772 -2.43975,2.90978 -2.95357,3.33499 -0.72677,-0.23313 -2.68031,-0.93197 -6.49026,-3.65106 -8.50064,-6.03773 -19.52099,-7.22837 -29.11524,-3.14613 -9.59426,4.08223 -16.38655,12.85198 -17.93069,23.16361 -12.83112,11.14895 -25.71166,22.20619 -36.51591,27.94809 -7.52939,4.00151 -12.92928,4.95793 -15.52048,4.74206 -2.59122,-0.21586 -4.45252,-0.15296 -10.13045,-6.91967 -5.6244,-6.70289 -5.21172,-8.44002 -4.95112,-11.10248 0.26063,-2.66242 2.23441,-7.98303 7.59596,-14.81811 8.34443,-10.6377 23.17384,-22.52203 37.52322,-34.13733 9.1652,-1.39025 17.17868,-6.93299 21.69939,-15.02601 4.52076,-8.09305 5.04104,-17.82741 1.419,-26.36059 -1.21926,-2.85858 -1.58283,-4.37561 -1.70578,-5.0957 0.5207,-0.45771 1.88443,-1.31183 3.82499,-2.39368 5.29218,12.66094 12.52808,24.75089 21.77978,35.77663 9.25846,11.03381 19.91177,20.2723 31.47116,27.68538 z" />
</svg>
