<?xml version="1.0" encoding="UTF-8" standalone="no"?>
<svg
   xmlns:dc="http://purl.org/dc/elements/1.1/"
   xmlns:cc="http://creativecommons.org/ns#"
   xmlns:rdf="http://www.w3.org/1999/02/22-rdf-syntax-ns#"
   xmlns:svg="http://www.w3.org/2000/svg"
   xmlns="http://www.w3.org/2000/svg"
   xmlns:xlink="http://www.w3.org/1999/xlink"
   version="1.0"
   width="500"
   height="500"
   id="svg2">
  <metadata
     id="metadata72">
    <rdf:RDF>
      <cc:Work
         rdf:about="">
        <dc:format>image/svg+xml</dc:format>
        <dc:type
           rdf:resource="http://purl.org/dc/dcmitype/StillImage" />
        <dc:title />
      </cc:Work>
    </rdf:RDF>
  </metadata>
  <defs
     id="defs1">
    <pattern
       xlink:href="#pattern2309"
       id="pattern3060"
       patternTransform="translate(-5.3123697,-5.3124246)" />
    <pattern
       patternTransform="matrix(0.819152,0.573576,-0.573576,0.819152,162.9108,-99.30804)"
       id="pattern2309"
       xlink:href="#pattern2270" />
    <linearGradient
       id="underGrad">
      <stop
         id="stop2214"
         style="stop-color:#dddddd;stop-opacity:0.9"
         offset="0" />
      <stop
         id="stop2216"
         style="stop-color:#ffffff;stop-opacity:0.9"
         offset="1" />
    </linearGradient>
    <linearGradient
       id="overGrad">
      <stop
         id="stop2187"
         style="stop-color:#cccccc;stop-opacity:0.7"
         offset="0" />
      <stop
         id="stop2189"
         style="stop-color:#ffffff;stop-opacity:0.7"
         offset="1" />
    </linearGradient>
    <linearGradient
       id="patternGrad">
      <stop
         id="stop2252"
         style="stop-color:#bbbbbb;stop-opacity:0.8"
         offset="0" />
      <stop
         id="stop2254"
         style="stop-color:#eeeeee;stop-opacity:0.8"
         offset="1" />
    </linearGradient>
    <linearGradient
       id="HiliteUnderGrad">
      <stop
         id="stop15"
         style="stop-color:#dddd00;stop-opacity:0.9"
         offset="0" />
      <stop
         id="stop17"
         style="stop-color:#ffff00;stop-opacity:0.9"
         offset="1" />
    </linearGradient>
    <linearGradient
       id="HiliteOverGrad">
      <stop
         id="stop20"
         style="stop-color:#cccc00;stop-opacity:0.7"
         offset="0" />
      <stop
         id="stop22"
         style="stop-color:#ffff00;stop-opacity:0.7"
         offset="1" />
    </linearGradient>
    <linearGradient
       id="HilitePatternGrad">
      <stop
         id="stop25"
         style="stop-color:#bbbb00;stop-opacity:0.8"
         offset="0" />
      <stop
         id="stop27"
         style="stop-color:#eeee00;stop-opacity:0.8"
         offset="1" />
    </linearGradient>
    <linearGradient
       x1="250"
       y1="400"
       x2="250"
       y2="20"
       id="linearGradient2256"
       xlink:href="#patternGrad"
       gradientUnits="userSpaceOnUse" />
    <pattern
       patternUnits="userSpaceOnUse"
       width="510.625"
       height="510.625"
       patternTransform="translate(-5.3125,-5.3125)"
       id="pattern2270">
      <g
         id="g2249"
         transform="translate(5.3125,5.3125)">
        <path
           style="opacity:0.5;fill:url(#linearGradient2256);fill-opacity:1;fill-rule:nonzero;stroke:none;stroke-width:15;stroke-linecap:butt;stroke-linejoin:miter;stroke-miterlimit:1;stroke-dasharray:none;stroke-dashoffset:0;stroke-opacity:1"
           d="M 44.6875,-5.3125 L -5.3125,44.6875 L 5.3125,55.3125 L 55.3125,5.3125 L 44.6875,-5.3125 z "
           id="path1320" />
        <path
           style="opacity:0.5;fill:url(#linearGradient2256);fill-opacity:1;fill-rule:nonzero;stroke:none;stroke-width:15;stroke-linecap:butt;stroke-linejoin:miter;stroke-miterlimit:1;stroke-dasharray:none;stroke-dashoffset:0;stroke-opacity:1"
           d="M 94.6875,-5.3125 L -5.3125,94.6875 L 5.3125,105.3125 L 105.3125,5.3125 L 94.6875,-5.3125 z "
           id="path2195" />
        <path
           style="opacity:0.5;fill:url(#linearGradient2256);fill-opacity:1;fill-rule:nonzero;stroke:none;stroke-width:15;stroke-linecap:butt;stroke-linejoin:miter;stroke-miterlimit:1;stroke-dasharray:none;stroke-dashoffset:0;stroke-opacity:1"
           d="M 144.6875,-5.3125 L -5.3125,144.6875 L 5.3125,155.3125 L 155.3125,5.3125 L 144.6875,-5.3125 z "
           id="path2197" />
        <path
           style="opacity:0.5;fill:url(#linearGradient2256);fill-opacity:1;fill-rule:nonzero;stroke:none;stroke-width:15;stroke-linecap:butt;stroke-linejoin:miter;stroke-miterlimit:1;stroke-dasharray:none;stroke-dashoffset:0;stroke-opacity:1"
           d="M 194.6875,-5.3125 L -5.3125,194.6875 L 5.3125,205.3125 L 205.3125,5.3125 L 194.6875,-5.3125 z "
           id="path2199" />
        <path
           style="opacity:0.5;fill:url(#linearGradient2256);fill-opacity:1;fill-rule:nonzero;stroke:none;stroke-width:15;stroke-linecap:butt;stroke-linejoin:miter;stroke-miterlimit:1;stroke-dasharray:none;stroke-dashoffset:0;stroke-opacity:1"
           d="M 244.6875,-5.3125 L -5.3125,244.6875 L 5.3125,255.3125 L 255.3125,5.3125 L 244.6875,-5.3125 z "
           id="path2201" />
        <path
           style="opacity:0.5;fill:url(#linearGradient2256);fill-opacity:1;fill-rule:nonzero;stroke:none;stroke-width:15;stroke-linecap:butt;stroke-linejoin:miter;stroke-miterlimit:1;stroke-dasharray:none;stroke-dashoffset:0;stroke-opacity:1"
           d="M 294.6875,-5.3125 L -5.3125,294.6875 L 5.3125,305.3125 L 305.3125,5.3125 L 294.6875,-5.3125 z "
           id="path2203" />
        <path
           style="opacity:0.5;fill:url(#linearGradient2256);fill-opacity:1;fill-rule:nonzero;stroke:none;stroke-width:15;stroke-linecap:butt;stroke-linejoin:miter;stroke-miterlimit:1;stroke-dasharray:none;stroke-dashoffset:0;stroke-opacity:1"
           d="M 344.6875,-5.3125 L -5.3125,344.6875 L 5.3125,355.3125 L 355.3125,5.3125 L 344.6875,-5.3125 z "
           id="path2205" />
        <path
           style="opacity:0.5;fill:url(#linearGradient2256);fill-opacity:1;fill-rule:nonzero;stroke:none;stroke-width:15;stroke-linecap:butt;stroke-linejoin:miter;stroke-miterlimit:1;stroke-dasharray:none;stroke-dashoffset:0;stroke-opacity:1"
           d="M 394.6875,-5.3125 L -5.3125,394.6875 L 5.3125,405.3125 L 405.3125,5.3125 L 394.6875,-5.3125 z "
           id="path2207" />
        <path
           style="opacity:0.5;fill:url(#linearGradient2256);fill-opacity:1;fill-rule:nonzero;stroke:none;stroke-width:15;stroke-linecap:butt;stroke-linejoin:miter;stroke-miterlimit:1;stroke-dasharray:none;stroke-dashoffset:0;stroke-opacity:1"
           d="M 444.6875,-5.3125 L -5.3125,444.6875 L 5.3125,455.3125 L 455.3125,5.3125 L 444.6875,-5.3125 z "
           id="path2209" />
        <path
           style="opacity:0.5;fill:url(#linearGradient2256);fill-opacity:1;fill-rule:nonzero;stroke:none;stroke-width:15;stroke-linecap:butt;stroke-linejoin:miter;stroke-miterlimit:1;stroke-dasharray:none;stroke-dashoffset:0;stroke-opacity:1"
           d="M 494.6875,-5.3125 L -5.3125,494.6875 L 5.3125,505.3125 L 505.3125,5.3125 L 494.6875,-5.3125 z "
           id="path2211" />
        <path
           style="opacity:0.5;fill:url(#linearGradient2256);fill-opacity:1;fill-rule:nonzero;stroke:none;stroke-width:15;stroke-linecap:butt;stroke-linejoin:miter;stroke-miterlimit:1;stroke-dasharray:none;stroke-dashoffset:0;stroke-opacity:1"
           d="M 494.6875,44.6875 L 44.6875,494.6875 L 55.3125,505.3125 L 505.3125,55.3125 L 494.6875,44.6875 z "
           id="path2213" />
        <path
           style="opacity:0.5;fill:url(#linearGradient2256);fill-opacity:1;fill-rule:nonzero;stroke:none;stroke-width:15;stroke-linecap:butt;stroke-linejoin:miter;stroke-miterlimit:1;stroke-dasharray:none;stroke-dashoffset:0;stroke-opacity:1"
           d="M 494.6875,94.6875 L 94.6875,494.6875 L 105.3125,505.3125 L 505.3125,105.3125 L 494.6875,94.6875 z "
           id="path2215" />
        <path
           style="opacity:0.5;fill:url(#linearGradient2256);fill-opacity:1;fill-rule:nonzero;stroke:none;stroke-width:15;stroke-linecap:butt;stroke-linejoin:miter;stroke-miterlimit:1;stroke-dasharray:none;stroke-dashoffset:0;stroke-opacity:1"
           d="M 494.6875,144.6875 L 144.6875,494.6875 L 155.3125,505.3125 L 505.3125,155.3125 L 494.6875,144.6875 z "
           id="path2217" />
        <path
           style="opacity:0.5;fill:url(#linearGradient2256);fill-opacity:1;fill-rule:nonzero;stroke:none;stroke-width:15;stroke-linecap:butt;stroke-linejoin:miter;stroke-miterlimit:1;stroke-dasharray:none;stroke-dashoffset:0;stroke-opacity:1"
           d="M 494.6875,194.6875 L 194.6875,494.6875 L 205.3125,505.3125 L 505.3125,205.3125 L 494.6875,194.6875 z "
           id="path2219" />
        <path
           style="opacity:0.5;fill:url(#linearGradient2256);fill-opacity:1;fill-rule:nonzero;stroke:none;stroke-width:15;stroke-linecap:butt;stroke-linejoin:miter;stroke-miterlimit:1;stroke-dasharray:none;stroke-dashoffset:0;stroke-opacity:1"
           d="M 494.6875,244.6875 L 244.6875,494.6875 L 255.3125,505.3125 L 505.3125,255.3125 L 494.6875,244.6875 z "
           id="path2221" />
        <path
           style="opacity:0.5;fill:url(#linearGradient2256);fill-opacity:1;fill-rule:nonzero;stroke:none;stroke-width:15;stroke-linecap:butt;stroke-linejoin:miter;stroke-miterlimit:1;stroke-dasharray:none;stroke-dashoffset:0;stroke-opacity:1"
           d="M 494.6875,294.6875 L 294.6875,494.6875 L 305.3125,505.3125 L 505.3125,305.3125 L 494.6875,294.6875 z "
           id="path2223" />
        <path
           style="opacity:0.5;fill:url(#linearGradient2256);fill-opacity:1;fill-rule:nonzero;stroke:none;stroke-width:15;stroke-linecap:butt;stroke-linejoin:miter;stroke-miterlimit:1;stroke-dasharray:none;stroke-dashoffset:0;stroke-opacity:1"
           d="M 494.6875,344.6875 L 344.6875,494.6875 L 355.3125,505.3125 L 505.3125,355.3125 L 494.6875,344.6875 z "
           id="path2225" />
        <path
           style="opacity:0.5;fill:url(#linearGradient2256);fill-opacity:1;fill-rule:nonzero;stroke:none;stroke-width:15;stroke-linecap:butt;stroke-linejoin:miter;stroke-miterlimit:1;stroke-dasharray:none;stroke-dashoffset:0;stroke-opacity:1"
           d="M 494.6875,394.6875 L 394.6875,494.6875 L 405.3125,505.3125 L 505.3125,405.3125 L 494.6875,394.6875 z "
           id="path2227" />
        <path
           style="opacity:0.5;fill:url(#linearGradient2256);fill-opacity:1;fill-rule:nonzero;stroke:none;stroke-width:15;stroke-linecap:butt;stroke-linejoin:miter;stroke-miterlimit:1;stroke-dasharray:none;stroke-dashoffset:0;stroke-opacity:1"
           d="M 494.6875,444.6875 L 444.6875,494.6875 L 455.3125,505.3125 L 505.3125,455.3125 L 494.6875,444.6875 z "
           id="path2229" />
      </g>
    </pattern>
    <linearGradient
       x1="250"
       y1="400"
       x2="250"
       y2="20"
       id="linearGradient2289"
       xlink:href="#HiliteUnderGrad"
       gradientUnits="userSpaceOnUse" />
    <linearGradient
       x1="250"
       y1="400"
       x2="250"
       y2="20"
       id="linearGradient3049"
       xlink:href="#hiliteUnderGrad"
       gradientUnits="userSpaceOnUse" />
    <linearGradient
       x1="250"
       y1="400"
       x2="250"
       y2="20"
       id="linearGradient2307"
       xlink:href="#HiliteOverGrad"
       gradientUnits="userSpaceOnUse" />
    <linearGradient
       x1="250"
       y1="400"
       x2="250"
       y2="20"
       id="linearGradient2311"
       xlink:href="#overGrad"
       gradientUnits="userSpaceOnUse"
       gradientTransform="matrix(0.819152,0.573576,-0.573576,0.819152,164.2154,-91.90917)" />
    <linearGradient
       x1="250"
       y1="400"
       x2="250"
       y2="20"
       id="linearGradient2313"
       xlink:href="#underGrad"
       gradientUnits="userSpaceOnUse"
       gradientTransform="matrix(0.819152,0.573576,-0.573576,0.819152,164.2154,-91.90917)" />
    <linearGradient
       xlink:href="#HiliteUnderGrad"
       id="linearGradient3045"
       gradientUnits="userSpaceOnUse"
       x1="250"
       y1="400"
       x2="250"
       y2="20" />
    <linearGradient
       xlink:href="#HiliteOverGrad"
       id="linearGradient3048"
       gradientUnits="userSpaceOnUse"
       x1="250"
       y1="400"
       x2="250"
       y2="20" />
    <linearGradient
       xlink:href="#overGrad"
       id="linearGradient3055"
       gradientUnits="userSpaceOnUse"
       gradientTransform="matrix(0.819152,0.573576,-0.573576,0.819152,164.2154,-91.90917)"
       x1="250"
       y1="400"
       x2="250"
       y2="20" />
    <linearGradient
       xlink:href="#underGrad"
       id="linearGradient3057"
       gradientUnits="userSpaceOnUse"
       gradientTransform="matrix(0.819152,0.573576,-0.573576,0.819152,164.2154,-91.90917)"
       x1="250"
       y1="400"
       x2="250"
       y2="20" />
    <linearGradient
       xlink:href="#underGrad"
       id="linearGradient3064"
       gradientUnits="userSpaceOnUse"
       gradientTransform="translate(1.1024888e-4,8.730576e-5)"
       x1="250"
       y1="400"
       x2="250"
       y2="20" />
    <linearGradient
       xlink:href="#overGrad"
       id="linearGradient3067"
       gradientUnits="userSpaceOnUse"
       gradientTransform="translate(1.1024888e-4,8.730576e-5)"
       x1="250"
       y1="400"
       x2="250"
       y2="20" />
    <filter
       id="filter3839"
       x="-0.20886425"
       width="1.4177285"
       y="-0.15814496"
       height="1.3162899">
      <feGaussianBlur
         stdDeviation="21.524282"
         id="feGaussianBlur3841" />
    </filter>
  </defs>
  <path
     style="fill:#000000;stroke:none;stroke-width:14.99999522999999968;stroke-linecap:round;stroke-linejoin:round;stroke-miterlimit:1;stroke-opacity:1;stroke-dasharray:none;stroke-dashoffset:0;fill-opacity:0.13333333999999999;filter:url(#filter3839)"
     id="path3837"
     d="m 134.45915,82.46672 c 8.19152,-5.73576 207.27768,86.80976 224.48496,111.38432 17.20728,24.57456 -1.63152,49.97336 -12.2788,69.6364 -10.64728,19.66304 6.56,44.2376 18.03152,60.62064 22.94304,32.76608 20.48728,46.69336 -12.2788,69.6364 -32.76608,22.94304 -46.69336,20.48728 -69.6364,-12.2788 -11.47152,-16.38304 -28.6788,-40.9576 -50.7976,-37.6776 -22.1188,3.28 -52.42912,12.29576 -69.6364,-12.2788 -17.20728,-24.57456 -36.08,-243.3068 -27.88848,-249.04256 z" />
  <path
     d="m 163.1738,83.475517 c 0.93832,20.378073 2.85635,46.476923 5.55538,73.476633 2.87307,28.74065 6.54485,58.09011 10.42831,81.08969 1.94174,11.49978 3.96707,21.43524 5.77442,28.45981 1.27079,4.93916 3.27798,8.99505 3.27568,9.41815 -0.001,0.003 -0.0241,0.016 -0.0256,0.0179 -0.004,-0.002 -0.0393,-0.005 -0.0435,-0.008 -0.005,-0.004 -0.0123,-0.0211 -0.0179,-0.0256 -0.0178,-0.0167 -0.0563,-0.0332 -0.0793,-0.0589 1.80882,2.40624 2.40154,2.07322 8.26175,2.26454 6.89633,0.22515 18.22817,-2.06729 31.26594,-4.00066 22.92959,-3.40024 42.0925,8.06524 54.06425,19.02427 11.97154,10.95898 19.98711,22.93311 25.72287,31.12463 6.69383,9.55979 10.63071,12.86595 11.88593,14.03281 1.57861,-0.66718 6.40884,-2.42746 15.96863,-9.12129 9.55979,-6.69383 12.86595,-10.63071 14.03281,-11.88593 -0.66718,-1.57861 -2.42746,-6.40884 -9.12129,-15.96863 -5.73576,-8.19152 -14.24626,-19.81909 -20.44979,-34.81707 -6.20352,-14.99797 -10.42343,-36.92664 0.61414,-57.31046 6.27596,-11.59023 12.30588,-21.45462 14.45299,-28.01205 1.82453,-5.57223 2.34019,-6.01531 0.69772,-8.53803 0.0163,0.0303 0.0185,0.0723 0.0282,0.0947 0.002,0.007 0.0163,0.0197 0.0179,0.0256 0.001,0.005 -0.008,0.0394 -0.008,0.0435 -0.002,5.4e-4 -0.0224,0.0181 -0.0256,0.0179 -0.39837,-0.14255 -3.52316,-3.41588 -7.72981,-6.29933 -5.98278,-4.10091 -14.62636,-9.40223 -24.7685,-15.16003 C 282.66754,139.84457 256.3439,126.3561 230.31917,113.8264 205.87087,102.05568 182.002,91.326979 163.1738,83.475517 z m 24.57291,192.004013 c 0.0861,0.11952 0.19555,0.23238 0.27649,0.34048 -0.0669,-0.0769 -0.16816,-0.19623 -0.27649,-0.34048 z M 335.19407,172.23585 c 0.0985,0.15114 0.1759,0.28713 0.22538,0.37628 -0.0741,-0.11287 -0.14277,-0.25429 -0.22538,-0.37628 z"
     id="path2284"
     style="fill:url(#linearGradient3067);fill-opacity:1;fill-rule:nonzero;stroke:none" />
  <path
     d="m 134.35676,42.538417 c -7.94934,7.364699 10.85081,224.492303 27.99087,248.970863 17.20728,24.57456 47.5176,15.5588 69.6364,12.2788 22.1188,-3.28 39.32608,21.29456 50.7976,37.6776 22.94304,32.76608 36.87032,35.22184 69.6364,12.2788 32.76608,-22.94304 35.22184,-36.87032 12.2788,-69.6364 -11.47152,-16.38304 -28.6788,-40.9576 -18.03152,-60.62064 10.64728,-19.66304 29.48608,-45.06184 12.2788,-69.6364 C 341.73683,129.27648 142.65067,36.73096 134.45915,42.46672 c -0.032,0.02243 -0.0712,0.0428 -0.10239,0.0717 z m 28.81704,40.9371 c 18.8282,7.851462 42.69707,18.580163 67.14537,30.350883 26.02473,12.5297 52.34837,26.01817 72.63267,37.53376 10.14215,5.7578 18.78572,11.05912 24.7685,15.16003 4.20665,2.88345 7.33144,6.15678 7.72982,6.29933 0.004,-8e-5 0.0232,-0.0171 0.0256,-0.0179 -6.6e-4,-0.004 0.009,-0.0386 0.008,-0.0435 -0.002,-0.006 -0.0156,-0.0188 -0.0179,-0.0256 -0.01,-0.0224 -0.012,-0.0642 -0.0282,-0.0947 1.64247,2.52272 1.12682,2.9658 -0.69772,8.53803 -2.14711,6.55743 -8.17703,16.42182 -14.45298,28.01205 -11.03758,20.38381 -6.81767,42.31249 -0.61414,57.31046 6.20356,14.99777 14.71406,26.62534 20.44982,34.81686 6.69383,9.55979 8.45411,14.39002 9.12129,15.96863 -1.16686,1.25522 -4.47302,5.1921 -14.03281,11.88593 -9.55979,6.69383 -14.39002,8.45411 -15.96863,9.12129 -1.25522,-1.16686 -5.1921,-4.47302 -11.88593,-14.03281 -5.73576,-8.19152 -13.75133,-20.16565 -25.72308,-31.12467 -11.97174,-10.95902 -31.13466,-22.4245 -54.06425,-19.02426 -13.03777,1.93336 -24.36961,4.2258 -31.26594,4.00065 -5.86021,-0.19132 -6.45293,0.1417 -8.26175,-2.26454 0.0229,0.0257 0.0616,0.0421 0.0793,0.0589 0.006,0.005 0.013,0.022 0.0179,0.0256 0.004,0.003 0.0398,0.006 0.0434,0.008 0.001,-0.002 0.0247,-0.0148 0.0256,-0.0179 0.002,-0.42311 -2.00489,-4.47899 -3.27568,-9.41815 -1.80735,-7.02457 -3.83268,-16.96003 -5.77442,-28.45982 -3.88346,-22.99957 -7.55524,-52.34904 -10.42831,-81.08969 -2.69902,-26.99971 -4.61705,-53.09855 -5.55538,-73.47663 z m 24.57291,192.004013 c 0.10833,0.14425 0.20965,0.2635 0.27649,0.34048 -0.0807,-0.10827 -0.19012,-0.22113 -0.27649,-0.34048 z M 335.19407,172.23585 c 0.0829,0.12182 0.15148,0.26324 0.22538,0.37628 -0.0494,-0.0892 -0.12688,-0.22514 -0.22538,-0.37628 z"
     id="path1394"
     style="fill:url(#linearGradient3064);fill-opacity:1;fill-rule:nonzero;stroke:none" />
  <path
     d="m 134.45915,42.46672 c 8.19152,-5.73576 207.27768,86.80976 224.48496,111.38432 17.20728,24.57456 -1.63152,49.97336 -12.2788,69.6364 -10.64728,19.66304 6.56,44.2376 18.03152,60.62064 22.94304,32.76608 20.48728,46.69336 -12.2788,69.6364 -32.76608,22.94304 -46.69336,20.48728 -69.6364,-12.2788 -11.47152,-16.38304 -28.6788,-40.9576 -50.7976,-37.6776 -22.1188,3.28 -52.42912,12.29576 -69.6364,-12.2788 -17.20728,-24.57456 -36.08,-243.3068 -27.88848,-249.04256 z"
     id="path1352"
     style="fill:none;stroke:#000000;stroke-width:15;stroke-linecap:round;stroke-linejoin:round;stroke-miterlimit:1;stroke-opacity:1;stroke-dasharray:none;stroke-dashoffset:0" />
  <path
     d="m 163.1738,83.475517 c 0.93832,20.378073 2.85635,46.476923 5.55538,73.476633 2.87307,28.74065 6.54485,58.09011 10.42831,81.08969 1.94174,11.49978 3.96707,21.43524 5.77442,28.45981 1.27079,4.93916 3.27798,8.99505 3.27568,9.41815 -0.001,0.003 -0.0241,0.016 -0.0256,0.0179 -0.004,-0.002 -0.0393,-0.005 -0.0435,-0.008 -0.005,-0.004 -0.0123,-0.0211 -0.0179,-0.0256 -0.0178,-0.0167 -0.0563,-0.0332 -0.0793,-0.0589 1.80882,2.40624 2.40154,2.07322 8.26175,2.26454 6.89633,0.22515 18.22817,-2.06729 31.26594,-4.00066 22.92959,-3.40024 42.0925,8.06524 54.06425,19.02427 11.97154,10.95898 19.98711,22.93311 25.72287,31.12463 6.69383,9.55979 10.63071,12.86595 11.88593,14.03281 1.57861,-0.66718 6.40884,-2.42746 15.96863,-9.12129 9.55979,-6.69383 12.86595,-10.63071 14.03281,-11.88593 -0.66718,-1.57861 -2.42746,-6.40884 -9.12129,-15.96863 -5.73576,-8.19152 -14.24626,-19.81909 -20.44979,-34.81707 -6.20352,-14.99797 -10.42343,-36.92664 0.61414,-57.31046 6.27596,-11.59023 12.30588,-21.45462 14.45299,-28.01205 1.82453,-5.57223 2.34019,-6.01531 0.69772,-8.53803 0.0163,0.0303 0.0185,0.0723 0.0282,0.0947 0.002,0.007 0.0163,0.0197 0.0179,0.0256 0.001,0.005 -0.008,0.0394 -0.008,0.0435 -0.002,5.4e-4 -0.0224,0.0181 -0.0256,0.0179 -0.39837,-0.14255 -3.52316,-3.41588 -7.72981,-6.29933 -5.98278,-4.10091 -14.62636,-9.40223 -24.7685,-15.16003 C 282.66754,139.84457 256.3439,126.3561 230.31917,113.8264 205.87087,102.05568 182.002,91.326979 163.1738,83.475517 z m 24.57291,192.004013 c 0.0861,0.11952 0.19555,0.23238 0.27649,0.34048 -0.0669,-0.0769 -0.16816,-0.19623 -0.27649,-0.34048 z M 335.19407,172.23585 c 0.0985,0.15114 0.1759,0.28713 0.22538,0.37628 -0.0741,-0.11287 -0.14277,-0.25429 -0.22538,-0.37628 z"
     id="path2301"
     style="fill:url(#pattern3060);fill-opacity:1;fill-rule:nonzero;stroke:none" />
  <path
     style="fill:url(#linearGradient3048);fill-opacity:1;fill-rule:nonzero;stroke:none"
     id="path2291"
     d="m 351.21875,117.5 c -35.60912,0.664 -63.71875,29.21619 -63.71875,65 0,36.20811 28.79188,65 65,65 36.20811,0 65,-28.79189 65,-65 0,-36.20812 -28.79189,-65 -65,-65 -0.42431,0 -0.85901,-0.008 -1.28125,0 z" />
  <path
     style="fill:url(#linearGradient3045);fill-opacity:1;fill-rule:nonzero;stroke:none"
     id="path1373"
     d="M 351.28125,87.5 C 299.40609,88.157826 257.5,130.46969 257.5,182.5 c 0,52.44 42.56,95 95,95 52.44,0 95,-42.56 95,-95 0,-52.44 -42.56,-95 -95,-95 -0.40969,0 -0.81028,-0.0052 -1.21875,0 z m -0.0625,30 c 0.42224,-0.008 0.85694,0 1.28125,0 36.20811,0 65,28.79188 65,65 0,36.20811 -28.79189,65 -65,65 -36.20812,0 -65,-28.79189 -65,-65 0,-35.78381 28.10963,-64.336 63.71875,-65 z" />
  <path
     style="fill:none;stroke:#000000;stroke-width:15;stroke-linecap:round;stroke-linejoin:round;stroke-miterlimit:1;stroke-opacity:1;stroke-dasharray:none;stroke-dashoffset:0"
     id="path1351"
     d="m 447.5,182.5 c 0,52.46705 -42.53295,95 -95,95 -52.46705,0 -95,-42.53295 -95,-95 0,-52.46705 42.53295,-95 95,-95 52.46705,0 95,42.53295 95,95 l 0,0 z" />
  <path
     d="m 352.5,202.29899 c 0,0 13.8593,13.8593 19.799,19.79899 5.93969,5.9397 13.85929,5.9397 19.79899,0 5.93969,-5.93969 5.93969,-13.85929 0,-19.79899 C 386.15829,196.3593 372.299,182.5 372.299,182.5 c 0,0 13.85929,-13.8593 19.79899,-19.79899 5.93969,-5.9397 5.93969,-13.8593 0,-19.79899 -5.9397,-5.9397 -13.8593,-5.9397 -19.79899,0 -5.9397,5.93969 -19.799,19.79899 -19.799,19.79899 0,0 -13.85929,-13.8593 -19.79899,-19.79899 -5.93969,-5.9397 -13.85929,-5.9397 -19.79899,0 -5.9397,5.93969 -5.9397,13.85929 0,19.79899 5.9397,5.93969 19.79899,19.79899 19.79899,19.79899 0,0 -13.85929,13.8593 -19.79899,19.79899 -5.9397,5.9397 -5.9397,13.8593 0,19.79899 5.9397,5.9397 13.8593,5.9397 19.79899,0 5.9397,-5.93969 19.99699,-19.601 19.79899,-19.79899 z"
     id="path1355"
     style="fill:#ff0000;fill-opacity:1;fill-rule:evenodd;stroke:none;display:inline" />
</svg>
