<?xml version="1.0" encoding="UTF-8" standalone="no"?>
<svg
   xmlns:dc="http://purl.org/dc/elements/1.1/"
   xmlns:cc="http://creativecommons.org/ns#"
   xmlns:rdf="http://www.w3.org/1999/02/22-rdf-syntax-ns#"
   xmlns:svg="http://www.w3.org/2000/svg"
   xmlns="http://www.w3.org/2000/svg"
   xmlns:xlink="http://www.w3.org/1999/xlink"
   version="1.0"
   width="500"
   height="500"
   id="svg2">
  <metadata
     id="metadata44">
    <rdf:RDF>
      <cc:Work
         rdf:about="">
        <dc:format>image/svg+xml</dc:format>
        <dc:type
           rdf:resource="http://purl.org/dc/dcmitype/StillImage" />
      </cc:Work>
    </rdf:RDF>
  </metadata>
  <defs
     id="defs1">
    <pattern
       xlink:href="#pattern2270"
       id="pattern3203"
       patternTransform="translate(-5.3125,-5.3125)" />
    <linearGradient
       id="underGrad">
      <stop
         style="stop-color:#dddddd;stop-opacity:0.9"
         offset="0"
         id="stop2214" />
      <stop
         style="stop-color:#ffffff;stop-opacity:0.9"
         offset="1"
         id="stop2216" />
    </linearGradient>
    <linearGradient
       id="overGrad">
      <stop
         style="stop-color:#cccccc;stop-opacity:0.7"
         offset="0"
         id="stop2187" />
      <stop
         style="stop-color:#ffffff;stop-opacity:0.7"
         offset="1"
         id="stop2189" />
    </linearGradient>
    <linearGradient
       id="patternGrad">
      <stop
         style="stop-color:#bbbbbb;stop-opacity:0.8"
         offset="0"
         id="stop2252" />
      <stop
         style="stop-color:#eeeeee;stop-opacity:0.8"
         offset="1"
         id="stop2254" />
    </linearGradient>
    <linearGradient
       x1="250"
       y1="400"
       x2="250"
       y2="20"
       id="linearGradient2256"
       xlink:href="#patternGrad"
       gradientUnits="userSpaceOnUse" />
    <pattern
       id="pattern2270"
       patternTransform="translate(-5.3125,-5.3125)"
       height="510.625"
       width="510.625"
       patternUnits="userSpaceOnUse">
      <g
         transform="translate(5.3125,5.3125)"
         id="g2249">
        <path
           id="path1320"
           d="M 44.6875,-5.3125 L -5.3125,44.6875 L 5.3125,55.3125 L 55.3125,5.3125 L 44.6875,-5.3125 z "
           style="opacity:0.5;fill:url(#linearGradient2256);fill-opacity:1;fill-rule:nonzero;stroke:none;stroke-width:15;stroke-linecap:butt;stroke-linejoin:miter;stroke-miterlimit:1;stroke-dasharray:none;stroke-dashoffset:0;stroke-opacity:1" />
        <path
           id="path2195"
           d="M 94.6875,-5.3125 L -5.3125,94.6875 L 5.3125,105.3125 L 105.3125,5.3125 L 94.6875,-5.3125 z "
           style="opacity:0.5;fill:url(#linearGradient2256);fill-opacity:1;fill-rule:nonzero;stroke:none;stroke-width:15;stroke-linecap:butt;stroke-linejoin:miter;stroke-miterlimit:1;stroke-dasharray:none;stroke-dashoffset:0;stroke-opacity:1" />
        <path
           id="path2197"
           d="M 144.6875,-5.3125 L -5.3125,144.6875 L 5.3125,155.3125 L 155.3125,5.3125 L 144.6875,-5.3125 z "
           style="opacity:0.5;fill:url(#linearGradient2256);fill-opacity:1;fill-rule:nonzero;stroke:none;stroke-width:15;stroke-linecap:butt;stroke-linejoin:miter;stroke-miterlimit:1;stroke-dasharray:none;stroke-dashoffset:0;stroke-opacity:1" />
        <path
           id="path2199"
           d="M 194.6875,-5.3125 L -5.3125,194.6875 L 5.3125,205.3125 L 205.3125,5.3125 L 194.6875,-5.3125 z "
           style="opacity:0.5;fill:url(#linearGradient2256);fill-opacity:1;fill-rule:nonzero;stroke:none;stroke-width:15;stroke-linecap:butt;stroke-linejoin:miter;stroke-miterlimit:1;stroke-dasharray:none;stroke-dashoffset:0;stroke-opacity:1" />
        <path
           id="path2201"
           d="M 244.6875,-5.3125 L -5.3125,244.6875 L 5.3125,255.3125 L 255.3125,5.3125 L 244.6875,-5.3125 z "
           style="opacity:0.5;fill:url(#linearGradient2256);fill-opacity:1;fill-rule:nonzero;stroke:none;stroke-width:15;stroke-linecap:butt;stroke-linejoin:miter;stroke-miterlimit:1;stroke-dasharray:none;stroke-dashoffset:0;stroke-opacity:1" />
        <path
           id="path2203"
           d="M 294.6875,-5.3125 L -5.3125,294.6875 L 5.3125,305.3125 L 305.3125,5.3125 L 294.6875,-5.3125 z "
           style="opacity:0.5;fill:url(#linearGradient2256);fill-opacity:1;fill-rule:nonzero;stroke:none;stroke-width:15;stroke-linecap:butt;stroke-linejoin:miter;stroke-miterlimit:1;stroke-dasharray:none;stroke-dashoffset:0;stroke-opacity:1" />
        <path
           id="path2205"
           d="M 344.6875,-5.3125 L -5.3125,344.6875 L 5.3125,355.3125 L 355.3125,5.3125 L 344.6875,-5.3125 z "
           style="opacity:0.5;fill:url(#linearGradient2256);fill-opacity:1;fill-rule:nonzero;stroke:none;stroke-width:15;stroke-linecap:butt;stroke-linejoin:miter;stroke-miterlimit:1;stroke-dasharray:none;stroke-dashoffset:0;stroke-opacity:1" />
        <path
           id="path2207"
           d="M 394.6875,-5.3125 L -5.3125,394.6875 L 5.3125,405.3125 L 405.3125,5.3125 L 394.6875,-5.3125 z "
           style="opacity:0.5;fill:url(#linearGradient2256);fill-opacity:1;fill-rule:nonzero;stroke:none;stroke-width:15;stroke-linecap:butt;stroke-linejoin:miter;stroke-miterlimit:1;stroke-dasharray:none;stroke-dashoffset:0;stroke-opacity:1" />
        <path
           id="path2209"
           d="M 444.6875,-5.3125 L -5.3125,444.6875 L 5.3125,455.3125 L 455.3125,5.3125 L 444.6875,-5.3125 z "
           style="opacity:0.5;fill:url(#linearGradient2256);fill-opacity:1;fill-rule:nonzero;stroke:none;stroke-width:15;stroke-linecap:butt;stroke-linejoin:miter;stroke-miterlimit:1;stroke-dasharray:none;stroke-dashoffset:0;stroke-opacity:1" />
        <path
           id="path2211"
           d="M 494.6875,-5.3125 L -5.3125,494.6875 L 5.3125,505.3125 L 505.3125,5.3125 L 494.6875,-5.3125 z "
           style="opacity:0.5;fill:url(#linearGradient2256);fill-opacity:1;fill-rule:nonzero;stroke:none;stroke-width:15;stroke-linecap:butt;stroke-linejoin:miter;stroke-miterlimit:1;stroke-dasharray:none;stroke-dashoffset:0;stroke-opacity:1" />
        <path
           id="path2213"
           d="M 494.6875,44.6875 L 44.6875,494.6875 L 55.3125,505.3125 L 505.3125,55.3125 L 494.6875,44.6875 z "
           style="opacity:0.5;fill:url(#linearGradient2256);fill-opacity:1;fill-rule:nonzero;stroke:none;stroke-width:15;stroke-linecap:butt;stroke-linejoin:miter;stroke-miterlimit:1;stroke-dasharray:none;stroke-dashoffset:0;stroke-opacity:1" />
        <path
           id="path2215"
           d="M 494.6875,94.6875 L 94.6875,494.6875 L 105.3125,505.3125 L 505.3125,105.3125 L 494.6875,94.6875 z "
           style="opacity:0.5;fill:url(#linearGradient2256);fill-opacity:1;fill-rule:nonzero;stroke:none;stroke-width:15;stroke-linecap:butt;stroke-linejoin:miter;stroke-miterlimit:1;stroke-dasharray:none;stroke-dashoffset:0;stroke-opacity:1" />
        <path
           id="path2217"
           d="M 494.6875,144.6875 L 144.6875,494.6875 L 155.3125,505.3125 L 505.3125,155.3125 L 494.6875,144.6875 z "
           style="opacity:0.5;fill:url(#linearGradient2256);fill-opacity:1;fill-rule:nonzero;stroke:none;stroke-width:15;stroke-linecap:butt;stroke-linejoin:miter;stroke-miterlimit:1;stroke-dasharray:none;stroke-dashoffset:0;stroke-opacity:1" />
        <path
           id="path2219"
           d="M 494.6875,194.6875 L 194.6875,494.6875 L 205.3125,505.3125 L 505.3125,205.3125 L 494.6875,194.6875 z "
           style="opacity:0.5;fill:url(#linearGradient2256);fill-opacity:1;fill-rule:nonzero;stroke:none;stroke-width:15;stroke-linecap:butt;stroke-linejoin:miter;stroke-miterlimit:1;stroke-dasharray:none;stroke-dashoffset:0;stroke-opacity:1" />
        <path
           id="path2221"
           d="M 494.6875,244.6875 L 244.6875,494.6875 L 255.3125,505.3125 L 505.3125,255.3125 L 494.6875,244.6875 z "
           style="opacity:0.5;fill:url(#linearGradient2256);fill-opacity:1;fill-rule:nonzero;stroke:none;stroke-width:15;stroke-linecap:butt;stroke-linejoin:miter;stroke-miterlimit:1;stroke-dasharray:none;stroke-dashoffset:0;stroke-opacity:1" />
        <path
           id="path2223"
           d="M 494.6875,294.6875 L 294.6875,494.6875 L 305.3125,505.3125 L 505.3125,305.3125 L 494.6875,294.6875 z "
           style="opacity:0.5;fill:url(#linearGradient2256);fill-opacity:1;fill-rule:nonzero;stroke:none;stroke-width:15;stroke-linecap:butt;stroke-linejoin:miter;stroke-miterlimit:1;stroke-dasharray:none;stroke-dashoffset:0;stroke-opacity:1" />
        <path
           id="path2225"
           d="M 494.6875,344.6875 L 344.6875,494.6875 L 355.3125,505.3125 L 505.3125,355.3125 L 494.6875,344.6875 z "
           style="opacity:0.5;fill:url(#linearGradient2256);fill-opacity:1;fill-rule:nonzero;stroke:none;stroke-width:15;stroke-linecap:butt;stroke-linejoin:miter;stroke-miterlimit:1;stroke-dasharray:none;stroke-dashoffset:0;stroke-opacity:1" />
        <path
           id="path2227"
           d="M 494.6875,394.6875 L 394.6875,494.6875 L 405.3125,505.3125 L 505.3125,405.3125 L 494.6875,394.6875 z "
           style="opacity:0.5;fill:url(#linearGradient2256);fill-opacity:1;fill-rule:nonzero;stroke:none;stroke-width:15;stroke-linecap:butt;stroke-linejoin:miter;stroke-miterlimit:1;stroke-dasharray:none;stroke-dashoffset:0;stroke-opacity:1" />
        <path
           id="path2229"
           d="M 494.6875,444.6875 L 444.6875,494.6875 L 455.3125,505.3125 L 505.3125,455.3125 L 494.6875,444.6875 z "
           style="opacity:0.5;fill:url(#linearGradient2256);fill-opacity:1;fill-rule:nonzero;stroke:none;stroke-width:15;stroke-linecap:butt;stroke-linejoin:miter;stroke-miterlimit:1;stroke-dasharray:none;stroke-dashoffset:0;stroke-opacity:1" />
      </g>
    </pattern>
    <linearGradient
       x1="250"
       y1="400"
       x2="250"
       y2="20"
       id="linearGradient2246"
       xlink:href="#underGrad"
       gradientUnits="userSpaceOnUse" />
    <linearGradient
       x1="250"
       y1="400"
       x2="250"
       y2="20"
       id="linearGradient2264"
       xlink:href="#overGrad"
       gradientUnits="userSpaceOnUse" />
    <filter
       id="filter3791"
       x="-0.21238035"
       width="1.4247607"
       y="-0.15618709"
       height="1.3123742">
      <feGaussianBlur
         stdDeviation="24.388756"
         id="feGaussianBlur3793" />
    </filter>
    <linearGradient
       xlink:href="#underGrad"
       id="linearGradient3207"
       gradientUnits="userSpaceOnUse"
       x1="250"
       y1="400"
       x2="250"
       y2="20" />
    <linearGradient
       xlink:href="#overGrad"
       id="linearGradient3210"
       gradientUnits="userSpaceOnUse"
       x1="250"
       y1="400"
       x2="250"
       y2="20" />
  </defs>
  <path
     d="m 246.81459,137.7227 c 0,-40.450401 -14.22865,-74.750087 -41.47197,-74.474336 -26.01037,0.271638 -45.03824,29.262919 -46.13382,90.639126 -0.60984,32.76292 0.51357,73.92563 0.44485,131.97392 0.41953,-53.56018 -1.02893,-47.79412 -1.5018,-62.57434 -0.30942,-9.67115 -34.6935,-1.7072 -44.6935,8.69226 -14.142129,14.70706 -17.482817,29.91161 -17.482817,36.8707 0,47.1491 3.274182,42.19896 14.401447,68.27904 4.70329,11.02355 25.74048,53.89263 51.40325,70.9796 19.98838,13.3088 41.95921,24.88366 73.90597,28.58065 33.96734,3.93082 67.08273,-1.97184 85.77215,-4.06567 18.75,-2.10059 45.56694,-46.91803 48.23147,-70.12029 6.04661,-52.6529 -4.27962,-83.8132 -5.03437,-90.11484 -2.51718,-21.01676 -5.9755,-25.75683 -16.57504,-40.7164 -10.61758,-14.98504 -37.47198,-32.42714 -31.59856,-1.5595 -4.1953,-17.94657 -7.2335,-45.75753 -32.32187,-50.93499 -35.91328,-7.41138 -35.03436,16.20301 -35.03436,33.76488 0,9.04997 -2.31103,-34.7694 -2.31103,-75.21981 z"
     style="fill:#000000;fill-opacity:0.13333333;stroke:none;filter:url(#filter3791)"
     id="path3021" />
  <path
     id="path2248"
     style="fill:url(#linearGradient3210);fill-opacity:1;fill-rule:evenodd;stroke:none"
     d="m 204.63547,53.0625 c -0.006,0.0012 -0.0257,0.02966 -0.0312,0.03125 -0.006,0.0019 -0.0256,-0.0022 -0.0312,0 -0.0603,0.02336 -0.13946,0.06084 -0.21875,0.09375 -0.0469,0.01755 -0.12763,0.05374 -0.1875,0.0625 -0.0137,0.0016 -0.048,-9.32e-4 -0.0625,0 -0.007,2.77e-4 -0.0236,-7.8e-5 -0.0312,0 -0.52974,0.0055 -0.92132,-0.121322 -1.28125,-0.125 -0.94398,0.008 -1.81909,0.863046 -5.09375,6.875 -4.55605,8.364458 -9.59977,26.763846 -10.09375,54.4375 -0.4385,23.55767 -0.006,55.40825 0.25,92.84375 0.22105,8.04831 0.37219,18.82272 0.21875,38.625 -6.3e-4,0.0815 6.4e-4,0.10572 0,0.1875 -0.29592,16.41142 -13.71113,29.54569 -30.125,29.46875 -16.41391,-0.0769 -29.73294,-13.33653 -29.875,-29.75 9e-5,-0.0719 -8e-5,-0.11562 0,-0.1875 0.0109,-9.62044 -0.11384,-16.36066 -0.15625,-25.09375 -2.49126,4.62391 -3.26149,8.34055 -3.46875,8.71875 -0.002,0.002 0.002,0.0295 0,0.0312 -0.003,0.002 -0.0284,4.4e-4 -0.0312,0 -0.001,-0.002 10e-4,-0.029 0,-0.0312 -9.1e-4,-0.004 -0.0304,-0.0262 -0.0312,-0.0312 -0.003,45.27408 -0.4636,26.91282 12,56.125 3.04889,7.14595 27.74669,49.33136 40.4375,57.78125 18.22618,12.13547 34.31488,20.69445 60.71875,23.75 26.79187,3.10044 54.5097,-1.12667 75.21875,-3.59375 0.33911,-0.14047 0.69875,-0.23089 1.6875,-1.15625 2.69799,-2.52503 6.74289,-7.40416 10.4375,-13.0625 7.38921,-11.31668 13.12567,-27.52554 13.40625,-29.96875 2.72594,-23.73703 1.75537,-42.13113 0.0937,-55.25 -0.83081,-6.55944 -1.84581,-11.78086 -2.71875,-15.90625 -0.87294,-4.12539 -1.57291,-5.27185 -2.375,-11.96875 -1.64844,-13.76328 -1.20327,-13.57963 -5.375,-19 -8.17937,3.95815 -17.72682,3.98653 -25.9375,0.0937 -8.21068,-3.89279 -14.19983,-11.28726 -16.3125,-20.125 -2.51416,-10.75495 -4.35415,-20.07208 -6.46875,-24.78125 -1.00871,-2.24637 -1.23741,-3.03777 -1.375,-3.3125 -0.01,-0.0177 -0.0217,-0.0496 -0.0312,-0.0625 -0.002,-0.003 -0.0289,-0.0285 -0.0312,-0.0312 -0.095,1.33445 -0.21875,2.61702 -0.21875,4.1875 0,0.88482 0.16108,0.69997 -0.1875,4.125 -0.0871,0.85626 0.10328,1.56554 -1.0625,5.53125 -0.58289,1.98285 -0.008,4.86235 -7.15625,12.3125 -3.57426,3.72507 -21.34227,9.24998 -21.34375,9.25 -0.001,2e-5 -17.30976,-4.83775 -20.84375,-8.15625 -7.06799,-6.63699 -6.82389,-9.35869 -7.53125,-11.21875 -0.70736,-1.86006 -0.90764,-2.80093 -1.09375,-3.5625 -0.37222,-1.52315 -0.44841,-2.14861 -0.53125,-2.6875 -0.66271,-4.31113 -0.43996,-4.00754 -0.5625,-5.96875 -0.24509,-3.92242 -0.51737,-9.89896 -0.8125,-17.5 -0.59027,-15.20209 -1.1875,-36.54722 -1.1875,-57.34375 0,-16.707645 -3.44966,-31.483343 -7.21875,-38.84375 -2.12011,-4.14023 -2.80114,-5.406306 -3.15625,-5.71875 -0.0357,-0.02852 -0.0944,-0.0515 -0.125,-0.0625 -0.006,-0.0016 -0.0254,-0.03021 -0.0312,-0.03125 -0.006,-5.16e-4 -0.0256,2.4e-5 -0.0312,0 -0.006,4.32e-4 -0.0257,-8.54e-4 -0.0312,0 z" />
  <path
     id="path1359"
     style="fill:url(#linearGradient3207);fill-opacity:1;fill-rule:evenodd;stroke:none"
     d="m 203.14049,23.25 c -25.69823,0.714977 -44.44423,29.728295 -45.53125,90.625 -0.46691,25.08411 0.0916,55.10365 0.34375,93.84375 -0.35341,-13.90233 -1.06975,-14.89658 -1.375,-24.4375 -0.30943,-9.67114 -34.71875,-1.71196 -44.71875,8.6875 -14.142165,14.70707 -17.468755,29.91591 -17.468755,36.875 0,47.14909 3.27898,42.20117 14.406255,68.28125 4.70331,11.02356 25.74348,53.88178 51.40625,70.96875 19.98839,13.3088 41.95949,24.89676 73.90625,28.59375 33.96732,3.93081 67.06058,-1.96867 85.75,-4.0625 18.74997,-2.1006 45.58547,-46.92274 48.25,-70.125 6.04661,-52.6529 -4.2765,-83.82336 -5.03125,-90.125 -2.51719,-21.01676 -5.99421,-25.72793 -16.59375,-40.6875 -10.57608,-14.9265 -37.25278,-32.30939 -31.65625,-1.9375 -4.15328,-17.95611 -7.32799,-45.41937 -32.25,-50.5625 -35.91328,-7.41138 -35.03125,16.18813 -35.03125,33.75 0,0.63633 -0.01,1.02313 -0.0312,1.15625 -0.002,0.0118 -0.0285,0.0254 -0.0312,0.0312 -0.37891,-0.99638 -2.25,-40.06409 -2.25,-76.40625 1e-5,-40.450403 -14.22543,-74.744501 -41.46875,-74.46875 -0.20321,0.0021 -0.42265,-0.0056 -0.625,0 z m 1.5,29.8125 c 0.006,-8.54e-4 0.0256,4.32e-4 0.0312,0 0.006,2.4e-5 0.0255,-5.16e-4 0.0312,0 0.006,10e-4 0.0253,0.02965 0.0312,0.03125 0.0306,0.011 0.0893,0.03398 0.125,0.0625 0.35511,0.312444 1.03614,1.57852 3.15625,5.71875 3.76909,7.360407 7.21875,22.136105 7.21875,38.84375 0,20.79653 0.59723,42.14166 1.1875,57.34375 0.29513,7.60104 0.56741,13.57758 0.8125,17.5 0.12254,1.96121 -0.10021,1.65762 0.5625,5.96875 0.0828,0.53889 0.15903,1.16435 0.53125,2.6875 0.18611,0.76157 0.38639,1.70244 1.09375,3.5625 0.70736,1.86006 0.46326,4.58176 7.53125,11.21875 3.53399,3.3185 20.84227,8.15627 20.84375,8.15625 0.001,-2e-5 17.76949,-5.52493 21.34375,-9.25 7.14852,-7.45015 6.57336,-10.32965 7.15625,-12.3125 1.16578,-3.96571 0.97536,-4.67499 1.0625,-5.53125 0.34858,-3.42503 0.1875,-3.24018 0.1875,-4.125 0,-1.57048 0.12372,-2.85305 0.21875,-4.1875 0.002,0.003 0.0289,0.0283 0.0312,0.0312 0.01,0.0129 0.0214,0.0448 0.0312,0.0625 0.13759,0.27473 0.36629,1.06613 1.375,3.3125 2.1146,4.70917 3.95459,14.0263 6.46875,24.78125 2.11267,8.83774 8.10182,16.23221 16.3125,20.125 8.21068,3.89278 17.75813,3.8644 25.9375,-0.0937 4.17173,5.42037 3.72656,5.23672 5.375,19 0.80209,6.6969 1.50206,7.84336 2.375,11.96875 0.87294,4.12539 1.88794,9.34681 2.71875,15.90625 1.66162,13.11887 2.63219,31.51297 -0.0937,55.25 -0.28058,2.44321 -6.01704,18.65207 -13.40625,29.96875 -3.69461,5.65834 -7.73951,10.53747 -10.4375,13.0625 -0.98875,0.92536 -1.34839,1.01578 -1.6875,1.15625 -20.70905,2.46708 -48.42688,6.69419 -75.21875,3.59375 -26.40387,-3.05555 -42.49257,-11.61453 -60.71875,-23.75 -12.69081,-8.44989 -37.38861,-50.6353 -40.4375,-57.78125 -12.4636,-29.21218 -12.00268,-10.85092 -12,-56.125 8.3e-4,0.005 0.0303,0.0269 0.0312,0.0312 10e-4,0.002 -0.001,0.0297 0,0.0312 0.003,4.4e-4 0.028,0.002 0.0312,0 0.002,-0.002 -0.002,-0.0288 0,-0.0312 0.20726,-0.3782 0.97749,-4.09484 3.46875,-8.71875 0.0424,8.73309 0.16714,15.47331 0.15625,25.09375 -8e-5,0.0719 9e-5,0.11557 0,0.1875 0.14206,16.41347 13.46109,29.67306 29.875,29.75 16.41387,0.0769 29.82908,-13.05733 30.125,-29.46875 6.4e-4,-0.0818 -6.3e-4,-0.10598 0,-0.1875 0.15344,-19.80228 0.002,-30.57669 -0.21875,-38.625 -0.25632,-37.4355 -0.6885,-69.28608 -0.25,-92.84375 0.49398,-27.673654 5.5377,-46.073042 10.09375,-54.4375 3.27466,-6.011954 4.14977,-6.866955 5.09375,-6.875 0.35993,0.0037 0.75151,0.130532 1.28125,0.125 0.008,-7.8e-5 0.0238,2.77e-4 0.0312,0 0.0145,-9.32e-4 0.0488,0.0016 0.0625,0 0.0599,-0.0088 0.1406,-0.04495 0.1875,-0.0625 0.0793,-0.03291 0.15848,-0.07039 0.21875,-0.09375 0.006,-0.0022 0.0256,0.0019 0.0312,0 0.006,-0.0016 0.0257,-0.03001 0.0312,-0.03125 z m -46.6875,155.34375 c 0.002,0.29214 0.0294,0.58187 0.0312,0.875 -0.007,-0.29676 -0.0244,-0.58898 -0.0312,-0.875 z m 0.0312,1.6875 c 0.1462,7.19518 0.20135,17.48608 0.0937,33.0625 0.007,-11.6843 -0.0302,-22.68953 -0.0937,-33.0625 z" />
  <path
     id="path1584"
     style="fill:none;stroke:#000000;stroke-width:15;stroke-linecap:round;stroke-linejoin:round;stroke-miterlimit:4;stroke-opacity:1;stroke-dasharray:none"
     d="m 246.81459,97.722703 c 0,-40.450404 -14.22865,-74.75009 -41.47197,-74.474339 -26.01037,0.271638 -45.03824,29.262919 -46.13382,90.639126 -0.60984,32.76292 0.51357,73.92563 0.44485,131.97392 0.41953,-53.56018 -1.02893,-47.79412 -1.5018,-62.57434 -0.30942,-9.67115 -34.6935,-1.7072 -44.6935,8.69226 -14.142129,14.70706 -17.482817,29.91161 -17.482817,36.8707 0,47.1491 3.274182,42.19896 14.401447,68.27904 4.70329,11.02355 25.74048,53.89263 51.40325,70.9796 19.98838,13.3088 41.95921,24.88366 73.90597,28.58065 33.96734,3.93082 67.08273,-1.97184 85.77215,-4.06567 18.75,-2.10059 45.56694,-46.91803 48.23147,-70.12029 6.04661,-52.6529 -4.27962,-83.8132 -5.03437,-90.11484 -2.51718,-21.01676 -5.9755,-25.75683 -16.57504,-40.7164 -10.61758,-14.98504 -37.47198,-32.42714 -31.59856,-1.5595 -4.1953,-17.94657 -7.2335,-45.75753 -32.32187,-50.93499 -35.91328,-7.41138 -35.03436,16.20301 -35.03436,33.76488 0,9.04997 -2.31103,-34.7694 -2.31103,-75.219807 z" />
  <path
     id="path2266"
     style="fill:url(#pattern3203);fill-opacity:1;fill-rule:evenodd;stroke:none"
     d="m 204.63547,53.0625 c -0.006,0.0012 -0.0257,0.02966 -0.0312,0.03125 -0.006,0.0019 -0.0256,-0.0022 -0.0312,0 -0.0603,0.02336 -0.13946,0.06084 -0.21875,0.09375 -0.0469,0.01755 -0.12763,0.05374 -0.1875,0.0625 -0.0137,0.0016 -0.048,-9.32e-4 -0.0625,0 -0.007,2.77e-4 -0.0236,-7.8e-5 -0.0312,0 -0.52974,0.0055 -0.92132,-0.121322 -1.28125,-0.125 -0.94398,0.008 -1.81909,0.863046 -5.09375,6.875 -4.55605,8.364458 -9.59977,26.763846 -10.09375,54.4375 -0.4385,23.55767 -0.006,55.40825 0.25,92.84375 0.22105,8.04831 0.37219,18.82272 0.21875,38.625 -6.3e-4,0.0815 6.4e-4,0.10572 0,0.1875 -0.29592,16.41142 -13.71113,29.54569 -30.125,29.46875 -16.41391,-0.0769 -29.73294,-13.33653 -29.875,-29.75 9e-5,-0.0719 -8e-5,-0.11562 0,-0.1875 0.0109,-9.62044 -0.11384,-16.36066 -0.15625,-25.09375 -2.49126,4.62391 -3.26149,8.34055 -3.46875,8.71875 -0.002,0.002 0.002,0.0295 0,0.0312 -0.003,0.002 -0.0284,4.4e-4 -0.0312,0 -0.001,-0.002 10e-4,-0.029 0,-0.0312 -9.1e-4,-0.004 -0.0304,-0.0262 -0.0312,-0.0312 -0.003,45.27408 -0.4636,26.91282 12,56.125 3.04889,7.14595 27.74669,49.33136 40.4375,57.78125 18.22618,12.13547 34.31488,20.69445 60.71875,23.75 26.79187,3.10044 54.5097,-1.12667 75.21875,-3.59375 0.33911,-0.14047 0.69875,-0.23089 1.6875,-1.15625 2.69799,-2.52503 6.74289,-7.40416 10.4375,-13.0625 7.38921,-11.31668 13.12567,-27.52554 13.40625,-29.96875 2.72594,-23.73703 1.75537,-42.13113 0.0937,-55.25 -0.83081,-6.55944 -1.84581,-11.78086 -2.71875,-15.90625 -0.87294,-4.12539 -1.57291,-5.27185 -2.375,-11.96875 -1.64844,-13.76328 -1.20327,-13.57963 -5.375,-19 -8.17937,3.95815 -17.72682,3.98653 -25.9375,0.0937 -8.21068,-3.89279 -14.19983,-11.28726 -16.3125,-20.125 -2.51416,-10.75495 -4.35415,-20.07208 -6.46875,-24.78125 -1.00871,-2.24637 -1.23741,-3.03777 -1.375,-3.3125 -0.01,-0.0177 -0.0217,-0.0496 -0.0312,-0.0625 -0.002,-0.003 -0.0289,-0.0285 -0.0312,-0.0312 -0.095,1.33445 -0.21875,2.61702 -0.21875,4.1875 0,0.88482 0.16108,0.69997 -0.1875,4.125 -0.0871,0.85626 0.10328,1.56554 -1.0625,5.53125 -0.58289,1.98285 -0.008,4.86235 -7.15625,12.3125 -3.57426,3.72507 -21.34227,9.24998 -21.34375,9.25 -0.001,2e-5 -17.30976,-4.83775 -20.84375,-8.15625 -7.06799,-6.63699 -6.82389,-9.35869 -7.53125,-11.21875 -0.70736,-1.86006 -0.90764,-2.80093 -1.09375,-3.5625 -0.37222,-1.52315 -0.44841,-2.14861 -0.53125,-2.6875 -0.66271,-4.31113 -0.43996,-4.00754 -0.5625,-5.96875 -0.24509,-3.92242 -0.51737,-9.89896 -0.8125,-17.5 -0.59027,-15.20209 -1.1875,-36.54722 -1.1875,-57.34375 0,-16.707645 -3.44966,-31.483343 -7.21875,-38.84375 -2.12011,-4.14023 -2.80114,-5.406306 -3.15625,-5.71875 -0.0357,-0.02852 -0.0944,-0.0515 -0.125,-0.0625 -0.006,-0.0016 -0.0254,-0.03021 -0.0312,-0.03125 -0.006,-5.16e-4 -0.0256,2.4e-5 -0.0312,0 -0.006,4.32e-4 -0.0257,-8.54e-4 -0.0312,0 z" />
</svg>
