<?xml version="1.0" encoding="UTF-8" standalone="no"?>
<svg
   xmlns:dc="http://purl.org/dc/elements/1.1/"
   xmlns:cc="http://creativecommons.org/ns#"
   xmlns:rdf="http://www.w3.org/1999/02/22-rdf-syntax-ns#"
   xmlns:svg="http://www.w3.org/2000/svg"
   xmlns="http://www.w3.org/2000/svg"
   xmlns:xlink="http://www.w3.org/1999/xlink"
   version="1.0"
   width="500"
   height="500"
   id="svg2">
  <metadata
     id="metadata40">
    <rdf:RDF>
      <cc:Work
         rdf:about="">
        <dc:format>image/svg+xml</dc:format>
        <dc:type
           rdf:resource="http://purl.org/dc/dcmitype/StillImage" />
      </cc:Work>
    </rdf:RDF>
  </metadata>
  <defs
     id="defs1">
    <linearGradient
       id="underGrad">
      <stop
         style="stop-color:#dddddd;stop-opacity:0.9"
         offset="0"
         id="stop2214" />
      <stop
         style="stop-color:#ffffff;stop-opacity:0.9"
         offset="1"
         id="stop2216" />
    </linearGradient>
    <linearGradient
       id="overGrad">
      <stop
         style="stop-color:#cccccc;stop-opacity:0.7"
         offset="0"
         id="stop2187" />
      <stop
         style="stop-color:#ffffff;stop-opacity:0.7"
         offset="1"
         id="stop2189" />
    </linearGradient>
    <linearGradient
       id="patternGrad">
      <stop
         style="stop-color:#bbbbbb;stop-opacity:0.8"
         offset="0"
         id="stop2252" />
      <stop
         style="stop-color:#eeeeee;stop-opacity:0.8"
         offset="1"
         id="stop2254" />
    </linearGradient>
    <linearGradient
       x1="250"
       y1="400"
       x2="250"
       y2="20"
       id="linearGradient2256"
       xlink:href="#patternGrad"
       gradientUnits="userSpaceOnUse" />
    <pattern
       patternUnits="userSpaceOnUse"
       width="510.625"
       height="510.625"
       patternTransform="translate(-5.3125,-5.3125)"
       id="pattern2270">
      <g
         id="g2249"
         transform="translate(5.3125,5.3125)">
        <path
           style="opacity:0.5;fill:url(#linearGradient2256);fill-opacity:1;fill-rule:nonzero;stroke:none;stroke-width:15;stroke-linecap:butt;stroke-linejoin:miter;stroke-miterlimit:1;stroke-dasharray:none;stroke-dashoffset:0;stroke-opacity:1"
           d="M 44.6875,-5.3125 L -5.3125,44.6875 L 5.3125,55.3125 L 55.3125,5.3125 L 44.6875,-5.3125 z "
           id="path1320" />
        <path
           style="opacity:0.5;fill:url(#linearGradient2256);fill-opacity:1;fill-rule:nonzero;stroke:none;stroke-width:15;stroke-linecap:butt;stroke-linejoin:miter;stroke-miterlimit:1;stroke-dasharray:none;stroke-dashoffset:0;stroke-opacity:1"
           d="M 94.6875,-5.3125 L -5.3125,94.6875 L 5.3125,105.3125 L 105.3125,5.3125 L 94.6875,-5.3125 z "
           id="path2195" />
        <path
           style="opacity:0.5;fill:url(#linearGradient2256);fill-opacity:1;fill-rule:nonzero;stroke:none;stroke-width:15;stroke-linecap:butt;stroke-linejoin:miter;stroke-miterlimit:1;stroke-dasharray:none;stroke-dashoffset:0;stroke-opacity:1"
           d="M 144.6875,-5.3125 L -5.3125,144.6875 L 5.3125,155.3125 L 155.3125,5.3125 L 144.6875,-5.3125 z "
           id="path2197" />
        <path
           style="opacity:0.5;fill:url(#linearGradient2256);fill-opacity:1;fill-rule:nonzero;stroke:none;stroke-width:15;stroke-linecap:butt;stroke-linejoin:miter;stroke-miterlimit:1;stroke-dasharray:none;stroke-dashoffset:0;stroke-opacity:1"
           d="M 194.6875,-5.3125 L -5.3125,194.6875 L 5.3125,205.3125 L 205.3125,5.3125 L 194.6875,-5.3125 z "
           id="path2199" />
        <path
           style="opacity:0.5;fill:url(#linearGradient2256);fill-opacity:1;fill-rule:nonzero;stroke:none;stroke-width:15;stroke-linecap:butt;stroke-linejoin:miter;stroke-miterlimit:1;stroke-dasharray:none;stroke-dashoffset:0;stroke-opacity:1"
           d="M 244.6875,-5.3125 L -5.3125,244.6875 L 5.3125,255.3125 L 255.3125,5.3125 L 244.6875,-5.3125 z "
           id="path2201" />
        <path
           style="opacity:0.5;fill:url(#linearGradient2256);fill-opacity:1;fill-rule:nonzero;stroke:none;stroke-width:15;stroke-linecap:butt;stroke-linejoin:miter;stroke-miterlimit:1;stroke-dasharray:none;stroke-dashoffset:0;stroke-opacity:1"
           d="M 294.6875,-5.3125 L -5.3125,294.6875 L 5.3125,305.3125 L 305.3125,5.3125 L 294.6875,-5.3125 z "
           id="path2203" />
        <path
           style="opacity:0.5;fill:url(#linearGradient2256);fill-opacity:1;fill-rule:nonzero;stroke:none;stroke-width:15;stroke-linecap:butt;stroke-linejoin:miter;stroke-miterlimit:1;stroke-dasharray:none;stroke-dashoffset:0;stroke-opacity:1"
           d="M 344.6875,-5.3125 L -5.3125,344.6875 L 5.3125,355.3125 L 355.3125,5.3125 L 344.6875,-5.3125 z "
           id="path2205" />
        <path
           style="opacity:0.5;fill:url(#linearGradient2256);fill-opacity:1;fill-rule:nonzero;stroke:none;stroke-width:15;stroke-linecap:butt;stroke-linejoin:miter;stroke-miterlimit:1;stroke-dasharray:none;stroke-dashoffset:0;stroke-opacity:1"
           d="M 394.6875,-5.3125 L -5.3125,394.6875 L 5.3125,405.3125 L 405.3125,5.3125 L 394.6875,-5.3125 z "
           id="path2207" />
        <path
           style="opacity:0.5;fill:url(#linearGradient2256);fill-opacity:1;fill-rule:nonzero;stroke:none;stroke-width:15;stroke-linecap:butt;stroke-linejoin:miter;stroke-miterlimit:1;stroke-dasharray:none;stroke-dashoffset:0;stroke-opacity:1"
           d="M 444.6875,-5.3125 L -5.3125,444.6875 L 5.3125,455.3125 L 455.3125,5.3125 L 444.6875,-5.3125 z "
           id="path2209" />
        <path
           style="opacity:0.5;fill:url(#linearGradient2256);fill-opacity:1;fill-rule:nonzero;stroke:none;stroke-width:15;stroke-linecap:butt;stroke-linejoin:miter;stroke-miterlimit:1;stroke-dasharray:none;stroke-dashoffset:0;stroke-opacity:1"
           d="M 494.6875,-5.3125 L -5.3125,494.6875 L 5.3125,505.3125 L 505.3125,5.3125 L 494.6875,-5.3125 z "
           id="path2211" />
        <path
           style="opacity:0.5;fill:url(#linearGradient2256);fill-opacity:1;fill-rule:nonzero;stroke:none;stroke-width:15;stroke-linecap:butt;stroke-linejoin:miter;stroke-miterlimit:1;stroke-dasharray:none;stroke-dashoffset:0;stroke-opacity:1"
           d="M 494.6875,44.6875 L 44.6875,494.6875 L 55.3125,505.3125 L 505.3125,55.3125 L 494.6875,44.6875 z "
           id="path2213" />
        <path
           style="opacity:0.5;fill:url(#linearGradient2256);fill-opacity:1;fill-rule:nonzero;stroke:none;stroke-width:15;stroke-linecap:butt;stroke-linejoin:miter;stroke-miterlimit:1;stroke-dasharray:none;stroke-dashoffset:0;stroke-opacity:1"
           d="M 494.6875,94.6875 L 94.6875,494.6875 L 105.3125,505.3125 L 505.3125,105.3125 L 494.6875,94.6875 z "
           id="path2215" />
        <path
           style="opacity:0.5;fill:url(#linearGradient2256);fill-opacity:1;fill-rule:nonzero;stroke:none;stroke-width:15;stroke-linecap:butt;stroke-linejoin:miter;stroke-miterlimit:1;stroke-dasharray:none;stroke-dashoffset:0;stroke-opacity:1"
           d="M 494.6875,144.6875 L 144.6875,494.6875 L 155.3125,505.3125 L 505.3125,155.3125 L 494.6875,144.6875 z "
           id="path2217" />
        <path
           style="opacity:0.5;fill:url(#linearGradient2256);fill-opacity:1;fill-rule:nonzero;stroke:none;stroke-width:15;stroke-linecap:butt;stroke-linejoin:miter;stroke-miterlimit:1;stroke-dasharray:none;stroke-dashoffset:0;stroke-opacity:1"
           d="M 494.6875,194.6875 L 194.6875,494.6875 L 205.3125,505.3125 L 505.3125,205.3125 L 494.6875,194.6875 z "
           id="path2219" />
        <path
           style="opacity:0.5;fill:url(#linearGradient2256);fill-opacity:1;fill-rule:nonzero;stroke:none;stroke-width:15;stroke-linecap:butt;stroke-linejoin:miter;stroke-miterlimit:1;stroke-dasharray:none;stroke-dashoffset:0;stroke-opacity:1"
           d="M 494.6875,244.6875 L 244.6875,494.6875 L 255.3125,505.3125 L 505.3125,255.3125 L 494.6875,244.6875 z "
           id="path2221" />
        <path
           style="opacity:0.5;fill:url(#linearGradient2256);fill-opacity:1;fill-rule:nonzero;stroke:none;stroke-width:15;stroke-linecap:butt;stroke-linejoin:miter;stroke-miterlimit:1;stroke-dasharray:none;stroke-dashoffset:0;stroke-opacity:1"
           d="M 494.6875,294.6875 L 294.6875,494.6875 L 305.3125,505.3125 L 505.3125,305.3125 L 494.6875,294.6875 z "
           id="path2223" />
        <path
           style="opacity:0.5;fill:url(#linearGradient2256);fill-opacity:1;fill-rule:nonzero;stroke:none;stroke-width:15;stroke-linecap:butt;stroke-linejoin:miter;stroke-miterlimit:1;stroke-dasharray:none;stroke-dashoffset:0;stroke-opacity:1"
           d="M 494.6875,344.6875 L 344.6875,494.6875 L 355.3125,505.3125 L 505.3125,355.3125 L 494.6875,344.6875 z "
           id="path2225" />
        <path
           style="opacity:0.5;fill:url(#linearGradient2256);fill-opacity:1;fill-rule:nonzero;stroke:none;stroke-width:15;stroke-linecap:butt;stroke-linejoin:miter;stroke-miterlimit:1;stroke-dasharray:none;stroke-dashoffset:0;stroke-opacity:1"
           d="M 494.6875,394.6875 L 394.6875,494.6875 L 405.3125,505.3125 L 505.3125,405.3125 L 494.6875,394.6875 z "
           id="path2227" />
        <path
           style="opacity:0.5;fill:url(#linearGradient2256);fill-opacity:1;fill-rule:nonzero;stroke:none;stroke-width:15;stroke-linecap:butt;stroke-linejoin:miter;stroke-miterlimit:1;stroke-dasharray:none;stroke-dashoffset:0;stroke-opacity:1"
           d="M 494.6875,444.6875 L 444.6875,494.6875 L 455.3125,505.3125 L 505.3125,455.3125 L 494.6875,444.6875 z "
           id="path2229" />
      </g>
    </pattern>
    <linearGradient
       x1="250"
       y1="400"
       x2="250"
       y2="20"
       id="linearGradient2276"
       xlink:href="#underGrad"
       gradientUnits="userSpaceOnUse"
       gradientTransform="matrix(0,-1,1,0,35,455)" />
    <filter
       id="filter3789"
       x="-0.0972"
       width="1.1944"
       y="-1.215"
       height="3.43">
      <feGaussianBlur
         stdDeviation="15.1875"
         id="feGaussianBlur3791" />
    </filter>
    <linearGradient
       xlink:href="#underGrad"
       id="linearGradient4024"
       gradientUnits="userSpaceOnUse"
       x1="250"
       y1="400"
       x2="250"
       y2="20" />
  </defs>
  <path
     id="path3017"
     style="fill:#000000;fill-opacity:0.13333333;fill-rule:nonzero;stroke:none;filter:url(#filter3789)"
     d="m 270,30 c 0,-10 30,-10 30,0 0,10 0,350 0,360 0,10 -30,10 -30,0 0,-10 0,-350 0,-360 z"
     transform="matrix(0,-1,1,0,35,535)" />
  <path
     id="path1352"
     style="fill:url(#linearGradient4024);fill-opacity:1;fill-rule:nonzero;stroke:#000000;stroke-width:15;stroke-linecap:round;stroke-linejoin:round;stroke-miterlimit:1;stroke-opacity:1;stroke-dasharray:none;stroke-dashoffset:0"
     d="m 425,195 c 10,0 10,30 0,30 -10,0 -350,0 -360,0 -10,0 -10,-30 0,-30 10,0 350,0 360,0 z" />
</svg>
